<?xml version="1.0" encoding="UTF-8" standalone="no"?>
<!-- Created with Inkscape (http://www.inkscape.org/) -->

<svg
   width="80"
   height="130"
   id="svg2"
   version="1.1"
   inkscape:version="1.2.2 (b0a8486541, 2022-12-01)"
   sodipodi:docname="bottom-panel.svg"
   inkscape:export-filename="/home/tcrass/devlp/rockbox/themes/cyan/panel.png"
   inkscape:export-xdpi="90"
   inkscape:export-ydpi="90"
   xmlns:inkscape="http://www.inkscape.org/namespaces/inkscape"
   xmlns:sodipodi="http://sodipodi.sourceforge.net/DTD/sodipodi-0.dtd"
   xmlns:xlink="http://www.w3.org/1999/xlink"
   xmlns="http://www.w3.org/2000/svg"
   xmlns:svg="http://www.w3.org/2000/svg"
   xmlns:rdf="http://www.w3.org/1999/02/22-rdf-syntax-ns#"
   xmlns:cc="http://creativecommons.org/ns#"
   xmlns:dc="http://purl.org/dc/elements/1.1/">
  <defs
     id="defs4">
    <linearGradient
       id="linearGradient1363">
      <stop
         id="stop1357"
         offset="0"
         style="stop-color:#404040;stop-opacity:1;" />
      <stop
         style="stop-color:#000000;stop-opacity:1;"
         offset="0.2973887"
         id="stop1359" />
      <stop
         id="stop1361"
         offset="1"
         style="stop-color:#e0e0e0;stop-opacity:1;" />
    </linearGradient>
    <linearGradient
       id="linearGradient3772">
      <stop
         style="stop-color:#404040;stop-opacity:1;"
         offset="0"
         id="stop3774" />
      <stop
         id="stop3780"
         offset="0.5"
         style="stop-color:#000000;stop-opacity:1;" />
      <stop
         style="stop-color:#e0e0e0;stop-opacity:1;"
         offset="1"
         id="stop3776" />
    </linearGradient>
    <linearGradient
       inkscape:collect="always"
       xlink:href="#linearGradient3757"
       id="linearGradient3763"
       x1="0"
       y1="0"
       x2="0"
       y2="18"
       gradientUnits="userSpaceOnUse"
       gradientTransform="matrix(1,0,0,1.1111111,0,1032.3622)" />
    <linearGradient
       id="linearGradient3757">
      <stop
         style="stop-color:#ffe080;stop-opacity:1;"
         offset="0"
         id="stop3759" />
      <stop
         style="stop-color:#ffc000;stop-opacity:1;"
         offset="1"
         id="stop3761" />
    </linearGradient>
    <linearGradient
       inkscape:collect="always"
       xlink:href="#linearGradient3772-1"
       id="linearGradient3778-7"
       x1="1.1020364"
       y1="173.04871"
       x2="1.1020364"
       y2="167.40588"
       gradientUnits="userSpaceOnUse"
       gradientTransform="matrix(1.0081764,0,0,0.94901171,-1.1110471,13.183597)" />
    <linearGradient
       id="linearGradient3772-1">
      <stop
         style="stop-color:#404040;stop-opacity:1;"
         offset="0"
         id="stop3774-1" />
      <stop
         id="stop3780-5"
         offset="0.5"
         style="stop-color:#000000;stop-opacity:1;" />
      <stop
         style="stop-color:#e0e0e0;stop-opacity:1;"
         offset="1"
         id="stop3776-9" />
    </linearGradient>
    <linearGradient
       inkscape:collect="always"
       xlink:href="#linearGradient5569"
       id="linearGradient5675"
       gradientUnits="userSpaceOnUse"
       gradientTransform="translate(0,4)"
       x1="0"
       y1="964.36218"
       x2="0"
       y2="973.36218" />
    <linearGradient
       id="linearGradient5569">
      <stop
         style="stop-color:#404040;stop-opacity:1;"
         offset="0"
         id="stop5571" />
      <stop
         id="stop5577"
         offset="0.5"
         style="stop-color:#000000;stop-opacity:1;" />
      <stop
         style="stop-color:#e0e0e0;stop-opacity:1;"
         offset="1"
         id="stop5573" />
    </linearGradient>
    <linearGradient
       inkscape:collect="always"
       xlink:href="#linearGradient5569"
       id="linearGradient5692"
       gradientUnits="userSpaceOnUse"
       gradientTransform="translate(0,4)"
       x1="0"
       y1="964.36218"
       x2="0"
       y2="973.36218" />
    <linearGradient
       id="linearGradient5694">
      <stop
         style="stop-color:#404040;stop-opacity:1;"
         offset="0"
         id="stop5696" />
      <stop
         id="stop5698"
         offset="0.5"
         style="stop-color:#000000;stop-opacity:1;" />
      <stop
         style="stop-color:#e0e0e0;stop-opacity:1;"
         offset="1"
         id="stop5700" />
    </linearGradient>
    <linearGradient
       inkscape:collect="always"
       xlink:href="#linearGradient5569"
       id="linearGradient5702"
       gradientUnits="userSpaceOnUse"
       gradientTransform="translate(0,4)"
       x1="0"
       y1="964.36218"
       x2="0"
       y2="973.36218" />
    <linearGradient
       id="linearGradient5704">
      <stop
         style="stop-color:#404040;stop-opacity:1;"
         offset="0"
         id="stop5706" />
      <stop
         id="stop5708"
         offset="0.5"
         style="stop-color:#000000;stop-opacity:1;" />
      <stop
         style="stop-color:#e0e0e0;stop-opacity:1;"
         offset="1"
         id="stop5710" />
    </linearGradient>
    <linearGradient
       inkscape:collect="always"
       xlink:href="#linearGradient5569"
       id="linearGradient5712"
       gradientUnits="userSpaceOnUse"
       gradientTransform="translate(0,4)"
       x1="0"
       y1="964.36218"
       x2="0"
       y2="973.36218" />
    <linearGradient
       id="linearGradient5714">
      <stop
         style="stop-color:#404040;stop-opacity:1;"
         offset="0"
         id="stop5716" />
      <stop
         id="stop5718"
         offset="0.5"
         style="stop-color:#000000;stop-opacity:1;" />
      <stop
         style="stop-color:#e0e0e0;stop-opacity:1;"
         offset="1"
         id="stop5720" />
    </linearGradient>
    <linearGradient
       inkscape:collect="always"
       xlink:href="#linearGradient5569"
       id="linearGradient5722"
       gradientUnits="userSpaceOnUse"
       gradientTransform="translate(0,4)"
       x1="0"
       y1="964.36218"
       x2="0"
       y2="973.36218" />
    <linearGradient
       id="linearGradient5724">
      <stop
         style="stop-color:#404040;stop-opacity:1;"
         offset="0"
         id="stop5726" />
      <stop
         id="stop5728"
         offset="0.5"
         style="stop-color:#000000;stop-opacity:1;" />
      <stop
         style="stop-color:#e0e0e0;stop-opacity:1;"
         offset="1"
         id="stop5730" />
    </linearGradient>
    <linearGradient
       inkscape:collect="always"
       xlink:href="#linearGradient5569"
       id="linearGradient5732"
       gradientUnits="userSpaceOnUse"
       gradientTransform="translate(0,4)"
       x1="0"
       y1="964.36218"
       x2="0"
       y2="973.36218" />
    <linearGradient
       id="linearGradient5734">
      <stop
         style="stop-color:#404040;stop-opacity:1;"
         offset="0"
         id="stop5736" />
      <stop
         id="stop5738"
         offset="0.5"
         style="stop-color:#000000;stop-opacity:1;" />
      <stop
         style="stop-color:#e0e0e0;stop-opacity:1;"
         offset="1"
         id="stop5740" />
    </linearGradient>
    <linearGradient
       inkscape:collect="always"
       xlink:href="#linearGradient5569"
       id="linearGradient5742"
       gradientUnits="userSpaceOnUse"
       gradientTransform="translate(0,4)"
       x1="0"
       y1="964.36218"
       x2="0"
       y2="973.36218" />
    <linearGradient
       id="linearGradient5744">
      <stop
         style="stop-color:#404040;stop-opacity:1;"
         offset="0"
         id="stop5746" />
      <stop
         id="stop5748"
         offset="0.5"
         style="stop-color:#000000;stop-opacity:1;" />
      <stop
         style="stop-color:#e0e0e0;stop-opacity:1;"
         offset="1"
         id="stop5750" />
    </linearGradient>
    <linearGradient
       inkscape:collect="always"
       xlink:href="#linearGradient5569"
       id="linearGradient5752"
       gradientUnits="userSpaceOnUse"
       gradientTransform="translate(0,4)"
       x1="0"
       y1="964.36218"
       x2="0"
       y2="973.36218" />
    <linearGradient
       id="linearGradient5754">
      <stop
         style="stop-color:#404040;stop-opacity:1;"
         offset="0"
         id="stop5756" />
      <stop
         id="stop5758"
         offset="0.5"
         style="stop-color:#000000;stop-opacity:1;" />
      <stop
         style="stop-color:#e0e0e0;stop-opacity:1;"
         offset="1"
         id="stop5760" />
    </linearGradient>
    <linearGradient
       inkscape:collect="always"
       xlink:href="#linearGradient5569"
       id="linearGradient5762"
       gradientUnits="userSpaceOnUse"
       gradientTransform="translate(0,4)"
       x1="0"
       y1="964.36218"
       x2="0"
       y2="973.36218" />
    <linearGradient
       id="linearGradient5764">
      <stop
         style="stop-color:#404040;stop-opacity:1;"
         offset="0"
         id="stop5766" />
      <stop
         id="stop5768"
         offset="0.5"
         style="stop-color:#000000;stop-opacity:1;" />
      <stop
         style="stop-color:#e0e0e0;stop-opacity:1;"
         offset="1"
         id="stop5770" />
    </linearGradient>
    <linearGradient
       y2="973.36218"
       x2="0"
       y1="964.36218"
       x1="0"
       gradientTransform="translate(0,4)"
       gradientUnits="userSpaceOnUse"
       id="linearGradient5781"
       xlink:href="#linearGradient5569"
       inkscape:collect="always" />
    <linearGradient
       inkscape:collect="always"
       xlink:href="#linearGradient5569-3"
       id="linearGradient5675-9"
       gradientUnits="userSpaceOnUse"
       gradientTransform="translate(0,4)"
       x1="0"
       y1="964.36218"
       x2="0"
       y2="973.36218" />
    <linearGradient
       id="linearGradient5569-3">
      <stop
         style="stop-color:#404040;stop-opacity:1;"
         offset="0"
         id="stop5571-9" />
      <stop
         id="stop5577-0"
         offset="0.5"
         style="stop-color:#000000;stop-opacity:1;" />
      <stop
         style="stop-color:#e0e0e0;stop-opacity:1;"
         offset="1"
         id="stop5573-8" />
    </linearGradient>
    <linearGradient
       inkscape:collect="always"
       xlink:href="#linearGradient5569-3"
       id="linearGradient5961"
       gradientUnits="userSpaceOnUse"
       gradientTransform="translate(0,4)"
       x1="0"
       y1="964.36218"
       x2="0"
       y2="973.36218" />
    <linearGradient
       id="linearGradient5963">
      <stop
         style="stop-color:#404040;stop-opacity:1;"
         offset="0"
         id="stop5965" />
      <stop
         id="stop5967"
         offset="0.5"
         style="stop-color:#000000;stop-opacity:1;" />
      <stop
         style="stop-color:#e0e0e0;stop-opacity:1;"
         offset="1"
         id="stop5969" />
    </linearGradient>
    <linearGradient
       inkscape:collect="always"
       xlink:href="#linearGradient5569-3"
       id="linearGradient5971"
       gradientUnits="userSpaceOnUse"
       gradientTransform="translate(0,4)"
       x1="0"
       y1="964.36218"
       x2="0"
       y2="973.36218" />
    <linearGradient
       id="linearGradient5973">
      <stop
         style="stop-color:#404040;stop-opacity:1;"
         offset="0"
         id="stop5975" />
      <stop
         id="stop5977"
         offset="0.5"
         style="stop-color:#000000;stop-opacity:1;" />
      <stop
         style="stop-color:#e0e0e0;stop-opacity:1;"
         offset="1"
         id="stop5979" />
    </linearGradient>
    <linearGradient
       inkscape:collect="always"
       xlink:href="#linearGradient5569-3"
       id="linearGradient5981"
       gradientUnits="userSpaceOnUse"
       gradientTransform="translate(0,4)"
       x1="0"
       y1="964.36218"
       x2="0"
       y2="973.36218" />
    <linearGradient
       id="linearGradient5983">
      <stop
         style="stop-color:#404040;stop-opacity:1;"
         offset="0"
         id="stop5985" />
      <stop
         id="stop5987"
         offset="0.5"
         style="stop-color:#000000;stop-opacity:1;" />
      <stop
         style="stop-color:#e0e0e0;stop-opacity:1;"
         offset="1"
         id="stop5989" />
    </linearGradient>
    <linearGradient
       inkscape:collect="always"
       xlink:href="#linearGradient5569-3"
       id="linearGradient5991"
       gradientUnits="userSpaceOnUse"
       gradientTransform="translate(0,4)"
       x1="0"
       y1="964.36218"
       x2="0"
       y2="973.36218" />
    <linearGradient
       id="linearGradient5993">
      <stop
         style="stop-color:#404040;stop-opacity:1;"
         offset="0"
         id="stop5995" />
      <stop
         id="stop5997"
         offset="0.5"
         style="stop-color:#000000;stop-opacity:1;" />
      <stop
         style="stop-color:#e0e0e0;stop-opacity:1;"
         offset="1"
         id="stop5999" />
    </linearGradient>
    <linearGradient
       inkscape:collect="always"
       xlink:href="#linearGradient5569-3"
       id="linearGradient6001"
       gradientUnits="userSpaceOnUse"
       gradientTransform="translate(0,4)"
       x1="0"
       y1="964.36218"
       x2="0"
       y2="973.36218" />
    <linearGradient
       id="linearGradient6003">
      <stop
         style="stop-color:#404040;stop-opacity:1;"
         offset="0"
         id="stop6005" />
      <stop
         id="stop6007"
         offset="0.5"
         style="stop-color:#000000;stop-opacity:1;" />
      <stop
         style="stop-color:#e0e0e0;stop-opacity:1;"
         offset="1"
         id="stop6009" />
    </linearGradient>
    <linearGradient
       inkscape:collect="always"
       xlink:href="#linearGradient5569-3"
       id="linearGradient6011"
       gradientUnits="userSpaceOnUse"
       gradientTransform="translate(0,4)"
       x1="0"
       y1="964.36218"
       x2="0"
       y2="973.36218" />
    <linearGradient
       id="linearGradient6013">
      <stop
         style="stop-color:#404040;stop-opacity:1;"
         offset="0"
         id="stop6015" />
      <stop
         id="stop6017"
         offset="0.5"
         style="stop-color:#000000;stop-opacity:1;" />
      <stop
         style="stop-color:#e0e0e0;stop-opacity:1;"
         offset="1"
         id="stop6019" />
    </linearGradient>
    <linearGradient
       inkscape:collect="always"
       xlink:href="#linearGradient5569-3"
       id="linearGradient6021"
       gradientUnits="userSpaceOnUse"
       gradientTransform="translate(0,4)"
       x1="0"
       y1="964.36218"
       x2="0"
       y2="973.36218" />
    <linearGradient
       id="linearGradient6023">
      <stop
         style="stop-color:#404040;stop-opacity:1;"
         offset="0"
         id="stop6025" />
      <stop
         id="stop6027"
         offset="0.5"
         style="stop-color:#000000;stop-opacity:1;" />
      <stop
         style="stop-color:#e0e0e0;stop-opacity:1;"
         offset="1"
         id="stop6029" />
    </linearGradient>
    <linearGradient
       inkscape:collect="always"
       xlink:href="#linearGradient5569-3"
       id="linearGradient6031"
       gradientUnits="userSpaceOnUse"
       gradientTransform="translate(0,4)"
       x1="0"
       y1="964.36218"
       x2="0"
       y2="973.36218" />
    <linearGradient
       id="linearGradient6033">
      <stop
         style="stop-color:#404040;stop-opacity:1;"
         offset="0"
         id="stop6035" />
      <stop
         id="stop6037"
         offset="0.5"
         style="stop-color:#000000;stop-opacity:1;" />
      <stop
         style="stop-color:#e0e0e0;stop-opacity:1;"
         offset="1"
         id="stop6039" />
    </linearGradient>
    <linearGradient
       y2="973.36218"
       x2="0"
       y1="964.36218"
       x1="0"
       gradientTransform="translate(0,4)"
       gradientUnits="userSpaceOnUse"
       id="linearGradient6050"
       xlink:href="#linearGradient5569-3"
       inkscape:collect="always" />
    <linearGradient
       inkscape:collect="always"
       xlink:href="#linearGradient5569-5"
       id="linearGradient5675-8"
       gradientUnits="userSpaceOnUse"
       gradientTransform="translate(0,4)"
       x1="0"
       y1="964.36218"
       x2="0"
       y2="973.36218" />
    <linearGradient
       id="linearGradient5569-5">
      <stop
         style="stop-color:#404040;stop-opacity:1;"
         offset="0"
         id="stop5571-0" />
      <stop
         id="stop5577-9"
         offset="0.5"
         style="stop-color:#000000;stop-opacity:1;" />
      <stop
         style="stop-color:#e0e0e0;stop-opacity:1;"
         offset="1"
         id="stop5573-6" />
    </linearGradient>
    <linearGradient
       inkscape:collect="always"
       xlink:href="#linearGradient5569-5"
       id="linearGradient6241"
       gradientUnits="userSpaceOnUse"
       gradientTransform="translate(0,4)"
       x1="0"
       y1="964.36218"
       x2="0"
       y2="973.36218" />
    <linearGradient
       id="linearGradient6243">
      <stop
         style="stop-color:#404040;stop-opacity:1;"
         offset="0"
         id="stop6245" />
      <stop
         id="stop6247"
         offset="0.5"
         style="stop-color:#000000;stop-opacity:1;" />
      <stop
         style="stop-color:#e0e0e0;stop-opacity:1;"
         offset="1"
         id="stop6249" />
    </linearGradient>
    <linearGradient
       inkscape:collect="always"
       xlink:href="#linearGradient5569-5"
       id="linearGradient6251"
       gradientUnits="userSpaceOnUse"
       gradientTransform="translate(0,4)"
       x1="0"
       y1="964.36218"
       x2="0"
       y2="973.36218" />
    <linearGradient
       id="linearGradient6253">
      <stop
         style="stop-color:#404040;stop-opacity:1;"
         offset="0"
         id="stop6255" />
      <stop
         id="stop6257"
         offset="0.5"
         style="stop-color:#000000;stop-opacity:1;" />
      <stop
         style="stop-color:#e0e0e0;stop-opacity:1;"
         offset="1"
         id="stop6259" />
    </linearGradient>
    <linearGradient
       inkscape:collect="always"
       xlink:href="#linearGradient5569-5"
       id="linearGradient6261"
       gradientUnits="userSpaceOnUse"
       gradientTransform="translate(0,4)"
       x1="0"
       y1="964.36218"
       x2="0"
       y2="973.36218" />
    <linearGradient
       id="linearGradient6263">
      <stop
         style="stop-color:#404040;stop-opacity:1;"
         offset="0"
         id="stop6265" />
      <stop
         id="stop6267"
         offset="0.5"
         style="stop-color:#000000;stop-opacity:1;" />
      <stop
         style="stop-color:#e0e0e0;stop-opacity:1;"
         offset="1"
         id="stop6269" />
    </linearGradient>
    <linearGradient
       inkscape:collect="always"
       xlink:href="#linearGradient5569-5"
       id="linearGradient6271"
       gradientUnits="userSpaceOnUse"
       gradientTransform="translate(0,4)"
       x1="0"
       y1="964.36218"
       x2="0"
       y2="973.36218" />
    <linearGradient
       id="linearGradient6273">
      <stop
         style="stop-color:#404040;stop-opacity:1;"
         offset="0"
         id="stop6275" />
      <stop
         id="stop6277"
         offset="0.5"
         style="stop-color:#000000;stop-opacity:1;" />
      <stop
         style="stop-color:#e0e0e0;stop-opacity:1;"
         offset="1"
         id="stop6279" />
    </linearGradient>
    <linearGradient
       inkscape:collect="always"
       xlink:href="#linearGradient5569-5"
       id="linearGradient6281"
       gradientUnits="userSpaceOnUse"
       gradientTransform="translate(0,4)"
       x1="0"
       y1="964.36218"
       x2="0"
       y2="973.36218" />
    <linearGradient
       id="linearGradient6283">
      <stop
         style="stop-color:#404040;stop-opacity:1;"
         offset="0"
         id="stop6285" />
      <stop
         id="stop6287"
         offset="0.5"
         style="stop-color:#000000;stop-opacity:1;" />
      <stop
         style="stop-color:#e0e0e0;stop-opacity:1;"
         offset="1"
         id="stop6289" />
    </linearGradient>
    <linearGradient
       inkscape:collect="always"
       xlink:href="#linearGradient5569-5"
       id="linearGradient6291"
       gradientUnits="userSpaceOnUse"
       gradientTransform="translate(0,4)"
       x1="0"
       y1="964.36218"
       x2="0"
       y2="973.36218" />
    <linearGradient
       id="linearGradient6293">
      <stop
         style="stop-color:#404040;stop-opacity:1;"
         offset="0"
         id="stop6295" />
      <stop
         id="stop6297"
         offset="0.5"
         style="stop-color:#000000;stop-opacity:1;" />
      <stop
         style="stop-color:#e0e0e0;stop-opacity:1;"
         offset="1"
         id="stop6299" />
    </linearGradient>
    <linearGradient
       inkscape:collect="always"
       xlink:href="#linearGradient5569-5"
       id="linearGradient6301"
       gradientUnits="userSpaceOnUse"
       gradientTransform="translate(0,4)"
       x1="0"
       y1="964.36218"
       x2="0"
       y2="973.36218" />
    <linearGradient
       id="linearGradient6303">
      <stop
         style="stop-color:#404040;stop-opacity:1;"
         offset="0"
         id="stop6305" />
      <stop
         id="stop6307"
         offset="0.5"
         style="stop-color:#000000;stop-opacity:1;" />
      <stop
         style="stop-color:#e0e0e0;stop-opacity:1;"
         offset="1"
         id="stop6309" />
    </linearGradient>
    <linearGradient
       inkscape:collect="always"
       xlink:href="#linearGradient5569-5"
       id="linearGradient6311"
       gradientUnits="userSpaceOnUse"
       gradientTransform="translate(0,4)"
       x1="0"
       y1="964.36218"
       x2="0"
       y2="973.36218" />
    <linearGradient
       id="linearGradient6313">
      <stop
         style="stop-color:#404040;stop-opacity:1;"
         offset="0"
         id="stop6315" />
      <stop
         id="stop6317"
         offset="0.5"
         style="stop-color:#000000;stop-opacity:1;" />
      <stop
         style="stop-color:#e0e0e0;stop-opacity:1;"
         offset="1"
         id="stop6319" />
    </linearGradient>
    <linearGradient
       inkscape:collect="always"
       xlink:href="#linearGradient5569-38"
       id="linearGradient6525"
       gradientUnits="userSpaceOnUse"
       gradientTransform="matrix(1.0079177,0,0,0.6394415,-0.09501249,389.83146)"
       x1="0"
       y1="964.36218"
       x2="0"
       y2="973.36218" />
    <linearGradient
       id="linearGradient5569-38">
      <stop
         style="stop-color:#404040;stop-opacity:1;"
         offset="0"
         id="stop5571-5" />
      <stop
         id="stop5577-6"
         offset="0.5"
         style="stop-color:#000000;stop-opacity:1;" />
      <stop
         style="stop-color:#e0e0e0;stop-opacity:1;"
         offset="1"
         id="stop5573-1" />
    </linearGradient>
    <linearGradient
       inkscape:collect="always"
       xlink:href="#linearGradient5569-38"
       id="linearGradient6542"
       gradientUnits="userSpaceOnUse"
       gradientTransform="matrix(1.0079177,0,0,0.6394415,-0.09501249,389.83146)"
       x1="0"
       y1="964.36218"
       x2="0"
       y2="973.36218" />
    <linearGradient
       id="linearGradient6544">
      <stop
         style="stop-color:#404040;stop-opacity:1;"
         offset="0"
         id="stop6546" />
      <stop
         id="stop6548"
         offset="0.5"
         style="stop-color:#000000;stop-opacity:1;" />
      <stop
         style="stop-color:#e0e0e0;stop-opacity:1;"
         offset="1"
         id="stop6550" />
    </linearGradient>
    <linearGradient
       inkscape:collect="always"
       xlink:href="#linearGradient5569-38"
       id="linearGradient6552"
       gradientUnits="userSpaceOnUse"
       gradientTransform="matrix(1.0079177,0,0,0.6394415,-0.09501249,389.83146)"
       x1="0"
       y1="964.36218"
       x2="0"
       y2="973.36218" />
    <linearGradient
       id="linearGradient6554">
      <stop
         style="stop-color:#404040;stop-opacity:1;"
         offset="0"
         id="stop6556" />
      <stop
         id="stop6558"
         offset="0.5"
         style="stop-color:#000000;stop-opacity:1;" />
      <stop
         style="stop-color:#e0e0e0;stop-opacity:1;"
         offset="1"
         id="stop6560" />
    </linearGradient>
    <linearGradient
       inkscape:collect="always"
       xlink:href="#linearGradient5569-38"
       id="linearGradient6562"
       gradientUnits="userSpaceOnUse"
       gradientTransform="matrix(1.0079177,0,0,0.6394415,-0.09501249,389.83146)"
       x1="0"
       y1="964.36218"
       x2="0"
       y2="973.36218" />
    <linearGradient
       id="linearGradient6564">
      <stop
         style="stop-color:#404040;stop-opacity:1;"
         offset="0"
         id="stop6566" />
      <stop
         id="stop6568"
         offset="0.5"
         style="stop-color:#000000;stop-opacity:1;" />
      <stop
         style="stop-color:#e0e0e0;stop-opacity:1;"
         offset="1"
         id="stop6570" />
    </linearGradient>
    <linearGradient
       inkscape:collect="always"
       xlink:href="#linearGradient5569-38"
       id="linearGradient6572"
       gradientUnits="userSpaceOnUse"
       gradientTransform="matrix(1.0079177,0,0,0.6394415,-0.09501249,389.83146)"
       x1="0"
       y1="964.36218"
       x2="0"
       y2="973.36218" />
    <linearGradient
       id="linearGradient6574">
      <stop
         style="stop-color:#404040;stop-opacity:1;"
         offset="0"
         id="stop6576" />
      <stop
         id="stop6578"
         offset="0.5"
         style="stop-color:#000000;stop-opacity:1;" />
      <stop
         style="stop-color:#e0e0e0;stop-opacity:1;"
         offset="1"
         id="stop6580" />
    </linearGradient>
    <linearGradient
       inkscape:collect="always"
       xlink:href="#linearGradient5569-38"
       id="linearGradient6582"
       gradientUnits="userSpaceOnUse"
       gradientTransform="matrix(1.0079177,0,0,0.6394415,-0.09501249,389.83146)"
       x1="0"
       y1="964.36218"
       x2="0"
       y2="973.36218" />
    <linearGradient
       id="linearGradient6584">
      <stop
         style="stop-color:#404040;stop-opacity:1;"
         offset="0"
         id="stop6586" />
      <stop
         id="stop6588"
         offset="0.5"
         style="stop-color:#000000;stop-opacity:1;" />
      <stop
         style="stop-color:#e0e0e0;stop-opacity:1;"
         offset="1"
         id="stop6590" />
    </linearGradient>
    <linearGradient
       inkscape:collect="always"
       xlink:href="#linearGradient5569-38"
       id="linearGradient6592"
       gradientUnits="userSpaceOnUse"
       gradientTransform="matrix(1.0079177,0,0,0.6394415,-0.09501249,389.83146)"
       x1="0"
       y1="964.36218"
       x2="0"
       y2="973.36218" />
    <linearGradient
       id="linearGradient6594">
      <stop
         style="stop-color:#404040;stop-opacity:1;"
         offset="0"
         id="stop6596" />
      <stop
         id="stop6598"
         offset="0.5"
         style="stop-color:#000000;stop-opacity:1;" />
      <stop
         style="stop-color:#e0e0e0;stop-opacity:1;"
         offset="1"
         id="stop6600" />
    </linearGradient>
    <linearGradient
       inkscape:collect="always"
       xlink:href="#linearGradient5569-38"
       id="linearGradient6602"
       gradientUnits="userSpaceOnUse"
       gradientTransform="matrix(1.0079177,0,0,0.6394415,-0.09501249,389.83146)"
       x1="0"
       y1="964.36218"
       x2="0"
       y2="973.36218" />
    <linearGradient
       id="linearGradient6604">
      <stop
         style="stop-color:#404040;stop-opacity:1;"
         offset="0"
         id="stop6606" />
      <stop
         id="stop6608"
         offset="0.5"
         style="stop-color:#000000;stop-opacity:1;" />
      <stop
         style="stop-color:#e0e0e0;stop-opacity:1;"
         offset="1"
         id="stop6610" />
    </linearGradient>
    <linearGradient
       y2="973.36218"
       x2="0"
       y1="964.36218"
       x1="0"
       gradientTransform="matrix(1.0079177,0,0,0.6394415,-0.09501249,389.83146)"
       gradientUnits="userSpaceOnUse"
       id="linearGradient6620"
       xlink:href="#linearGradient5569-38"
       inkscape:collect="always" />
    <linearGradient
       inkscape:collect="always"
       xlink:href="#linearGradient5569-59"
       id="linearGradient6525-1"
       gradientUnits="userSpaceOnUse"
       gradientTransform="matrix(1.0079177,0,0,0.6394415,-0.09501249,389.83146)"
       x1="0"
       y1="964.36218"
       x2="0"
       y2="973.36218" />
    <linearGradient
       id="linearGradient5569-59">
      <stop
         style="stop-color:#404040;stop-opacity:1;"
         offset="0"
         id="stop5571-8" />
      <stop
         id="stop5577-4"
         offset="0.5"
         style="stop-color:#000000;stop-opacity:1;" />
      <stop
         style="stop-color:#e0e0e0;stop-opacity:1;"
         offset="1"
         id="stop5573-81" />
    </linearGradient>
    <linearGradient
       inkscape:collect="always"
       xlink:href="#linearGradient5569-59"
       id="linearGradient6800"
       gradientUnits="userSpaceOnUse"
       gradientTransform="matrix(1.0079177,0,0,0.6394415,-0.09501249,389.83146)"
       x1="0"
       y1="964.36218"
       x2="0"
       y2="973.36218" />
    <linearGradient
       id="linearGradient6802">
      <stop
         style="stop-color:#404040;stop-opacity:1;"
         offset="0"
         id="stop6804" />
      <stop
         id="stop6806"
         offset="0.5"
         style="stop-color:#000000;stop-opacity:1;" />
      <stop
         style="stop-color:#e0e0e0;stop-opacity:1;"
         offset="1"
         id="stop6808" />
    </linearGradient>
    <linearGradient
       inkscape:collect="always"
       xlink:href="#linearGradient5569-59"
       id="linearGradient6810"
       gradientUnits="userSpaceOnUse"
       gradientTransform="matrix(1.0079177,0,0,0.6394415,-0.09501249,389.83146)"
       x1="0"
       y1="964.36218"
       x2="0"
       y2="973.36218" />
    <linearGradient
       id="linearGradient6812">
      <stop
         style="stop-color:#404040;stop-opacity:1;"
         offset="0"
         id="stop6814" />
      <stop
         id="stop6816"
         offset="0.5"
         style="stop-color:#000000;stop-opacity:1;" />
      <stop
         style="stop-color:#e0e0e0;stop-opacity:1;"
         offset="1"
         id="stop6818" />
    </linearGradient>
    <linearGradient
       inkscape:collect="always"
       xlink:href="#linearGradient5569-59"
       id="linearGradient6820"
       gradientUnits="userSpaceOnUse"
       gradientTransform="matrix(1.0079177,0,0,0.6394415,-0.09501249,389.83146)"
       x1="0"
       y1="964.36218"
       x2="0"
       y2="973.36218" />
    <linearGradient
       id="linearGradient6822">
      <stop
         style="stop-color:#404040;stop-opacity:1;"
         offset="0"
         id="stop6824" />
      <stop
         id="stop6826"
         offset="0.5"
         style="stop-color:#000000;stop-opacity:1;" />
      <stop
         style="stop-color:#e0e0e0;stop-opacity:1;"
         offset="1"
         id="stop6828" />
    </linearGradient>
    <linearGradient
       inkscape:collect="always"
       xlink:href="#linearGradient5569-59"
       id="linearGradient6830"
       gradientUnits="userSpaceOnUse"
       gradientTransform="matrix(1.0079177,0,0,0.6394415,-0.09501249,389.83146)"
       x1="0"
       y1="964.36218"
       x2="0"
       y2="973.36218" />
    <linearGradient
       id="linearGradient6832">
      <stop
         style="stop-color:#404040;stop-opacity:1;"
         offset="0"
         id="stop6834" />
      <stop
         id="stop6836"
         offset="0.5"
         style="stop-color:#000000;stop-opacity:1;" />
      <stop
         style="stop-color:#e0e0e0;stop-opacity:1;"
         offset="1"
         id="stop6838" />
    </linearGradient>
    <linearGradient
       inkscape:collect="always"
       xlink:href="#linearGradient5569-59"
       id="linearGradient6840"
       gradientUnits="userSpaceOnUse"
       gradientTransform="matrix(1.0079177,0,0,0.6394415,-0.09501249,389.83146)"
       x1="0"
       y1="964.36218"
       x2="0"
       y2="973.36218" />
    <linearGradient
       id="linearGradient6842">
      <stop
         style="stop-color:#404040;stop-opacity:1;"
         offset="0"
         id="stop6844" />
      <stop
         id="stop6846"
         offset="0.5"
         style="stop-color:#000000;stop-opacity:1;" />
      <stop
         style="stop-color:#e0e0e0;stop-opacity:1;"
         offset="1"
         id="stop6848" />
    </linearGradient>
    <linearGradient
       inkscape:collect="always"
       xlink:href="#linearGradient5569-59"
       id="linearGradient6850"
       gradientUnits="userSpaceOnUse"
       gradientTransform="matrix(1.0079177,0,0,0.6394415,-0.09501249,389.83146)"
       x1="0"
       y1="964.36218"
       x2="0"
       y2="973.36218" />
    <linearGradient
       id="linearGradient6852">
      <stop
         style="stop-color:#404040;stop-opacity:1;"
         offset="0"
         id="stop6854" />
      <stop
         id="stop6856"
         offset="0.5"
         style="stop-color:#000000;stop-opacity:1;" />
      <stop
         style="stop-color:#e0e0e0;stop-opacity:1;"
         offset="1"
         id="stop6858" />
    </linearGradient>
    <linearGradient
       inkscape:collect="always"
       xlink:href="#linearGradient5569-59"
       id="linearGradient6860"
       gradientUnits="userSpaceOnUse"
       gradientTransform="matrix(1.0079177,0,0,0.6394415,-0.09501249,389.83146)"
       x1="0"
       y1="964.36218"
       x2="0"
       y2="973.36218" />
    <linearGradient
       id="linearGradient6862">
      <stop
         style="stop-color:#404040;stop-opacity:1;"
         offset="0"
         id="stop6864" />
      <stop
         id="stop6866"
         offset="0.5"
         style="stop-color:#000000;stop-opacity:1;" />
      <stop
         style="stop-color:#e0e0e0;stop-opacity:1;"
         offset="1"
         id="stop6868" />
    </linearGradient>
    <linearGradient
       inkscape:collect="always"
       xlink:href="#linearGradient5569-59-3"
       id="linearGradient7024-0"
       gradientUnits="userSpaceOnUse"
       gradientTransform="matrix(1.0079177,0,0,0.6394415,-0.09501249,389.83146)"
       x1="0"
       y1="964.36218"
       x2="0"
       y2="973.36218" />
    <linearGradient
       id="linearGradient5569-59-3">
      <stop
         style="stop-color:#404040;stop-opacity:1;"
         offset="0"
         id="stop5571-8-0" />
      <stop
         id="stop5577-4-4"
         offset="0.5"
         style="stop-color:#000000;stop-opacity:1;" />
      <stop
         style="stop-color:#e0e0e0;stop-opacity:1;"
         offset="1"
         id="stop5573-81-4" />
    </linearGradient>
    <linearGradient
       inkscape:collect="always"
       xlink:href="#linearGradient5569-59-3"
       id="linearGradient7041"
       gradientUnits="userSpaceOnUse"
       gradientTransform="matrix(1.0079177,0,0,0.6394415,-0.09501249,389.83146)"
       x1="0"
       y1="964.36218"
       x2="0"
       y2="973.36218" />
    <linearGradient
       id="linearGradient7043">
      <stop
         style="stop-color:#404040;stop-opacity:1;"
         offset="0"
         id="stop7045" />
      <stop
         id="stop7047"
         offset="0.5"
         style="stop-color:#000000;stop-opacity:1;" />
      <stop
         style="stop-color:#e0e0e0;stop-opacity:1;"
         offset="1"
         id="stop7049" />
    </linearGradient>
    <linearGradient
       inkscape:collect="always"
       xlink:href="#linearGradient5569-59-3"
       id="linearGradient7051"
       gradientUnits="userSpaceOnUse"
       gradientTransform="matrix(1.0079177,0,0,0.6394415,-0.09501249,389.83146)"
       x1="0"
       y1="964.36218"
       x2="0"
       y2="973.36218" />
    <linearGradient
       id="linearGradient7053">
      <stop
         style="stop-color:#404040;stop-opacity:1;"
         offset="0"
         id="stop7055" />
      <stop
         id="stop7057"
         offset="0.5"
         style="stop-color:#000000;stop-opacity:1;" />
      <stop
         style="stop-color:#e0e0e0;stop-opacity:1;"
         offset="1"
         id="stop7059" />
    </linearGradient>
    <linearGradient
       inkscape:collect="always"
       xlink:href="#linearGradient5569-59-3"
       id="linearGradient7061"
       gradientUnits="userSpaceOnUse"
       gradientTransform="matrix(1.0079177,0,0,0.6394415,-0.09501249,389.83146)"
       x1="0"
       y1="964.36218"
       x2="0"
       y2="973.36218" />
    <linearGradient
       id="linearGradient7063">
      <stop
         style="stop-color:#404040;stop-opacity:1;"
         offset="0"
         id="stop7065" />
      <stop
         id="stop7067"
         offset="0.5"
         style="stop-color:#000000;stop-opacity:1;" />
      <stop
         style="stop-color:#e0e0e0;stop-opacity:1;"
         offset="1"
         id="stop7069" />
    </linearGradient>
    <linearGradient
       inkscape:collect="always"
       xlink:href="#linearGradient5569-59-3"
       id="linearGradient7071"
       gradientUnits="userSpaceOnUse"
       gradientTransform="matrix(1.0079177,0,0,0.6394415,-0.09501249,389.83146)"
       x1="0"
       y1="964.36218"
       x2="0"
       y2="973.36218" />
    <linearGradient
       id="linearGradient7073">
      <stop
         style="stop-color:#404040;stop-opacity:1;"
         offset="0"
         id="stop7075" />
      <stop
         id="stop7077"
         offset="0.5"
         style="stop-color:#000000;stop-opacity:1;" />
      <stop
         style="stop-color:#e0e0e0;stop-opacity:1;"
         offset="1"
         id="stop7079" />
    </linearGradient>
    <linearGradient
       inkscape:collect="always"
       xlink:href="#linearGradient5569-59-3"
       id="linearGradient7081"
       gradientUnits="userSpaceOnUse"
       gradientTransform="matrix(1.0079177,0,0,0.6394415,-0.09501249,389.83146)"
       x1="0"
       y1="964.36218"
       x2="0"
       y2="973.36218" />
    <linearGradient
       id="linearGradient7083">
      <stop
         style="stop-color:#404040;stop-opacity:1;"
         offset="0"
         id="stop7085" />
      <stop
         id="stop7087"
         offset="0.5"
         style="stop-color:#000000;stop-opacity:1;" />
      <stop
         style="stop-color:#e0e0e0;stop-opacity:1;"
         offset="1"
         id="stop7089" />
    </linearGradient>
    <linearGradient
       inkscape:collect="always"
       xlink:href="#linearGradient5569-59-3"
       id="linearGradient7091"
       gradientUnits="userSpaceOnUse"
       gradientTransform="matrix(1.0079177,0,0,0.6394415,-0.09501249,389.83146)"
       x1="0"
       y1="964.36218"
       x2="0"
       y2="973.36218" />
    <linearGradient
       id="linearGradient7093">
      <stop
         style="stop-color:#404040;stop-opacity:1;"
         offset="0"
         id="stop7095" />
      <stop
         id="stop7097"
         offset="0.5"
         style="stop-color:#000000;stop-opacity:1;" />
      <stop
         style="stop-color:#e0e0e0;stop-opacity:1;"
         offset="1"
         id="stop7099" />
    </linearGradient>
    <linearGradient
       inkscape:collect="always"
       xlink:href="#linearGradient5569-59-3"
       id="linearGradient7101"
       gradientUnits="userSpaceOnUse"
       gradientTransform="matrix(1.0079177,0,0,0.6394415,-0.09501249,389.83146)"
       x1="0"
       y1="964.36218"
       x2="0"
       y2="973.36218" />
    <linearGradient
       id="linearGradient7103">
      <stop
         style="stop-color:#404040;stop-opacity:1;"
         offset="0"
         id="stop7105" />
      <stop
         id="stop7107"
         offset="0.5"
         style="stop-color:#000000;stop-opacity:1;" />
      <stop
         style="stop-color:#e0e0e0;stop-opacity:1;"
         offset="1"
         id="stop7109" />
    </linearGradient>
    <linearGradient
       inkscape:collect="always"
       xlink:href="#linearGradient5569-59-2"
       id="linearGradient7024-6"
       gradientUnits="userSpaceOnUse"
       gradientTransform="matrix(1.0079177,0,0,0.6394415,-0.09501249,389.83146)"
       x1="0"
       y1="964.36218"
       x2="0"
       y2="973.36218" />
    <linearGradient
       id="linearGradient5569-59-2">
      <stop
         style="stop-color:#404040;stop-opacity:1;"
         offset="0"
         id="stop5571-8-1" />
      <stop
         id="stop5577-4-7"
         offset="0.5"
         style="stop-color:#000000;stop-opacity:1;" />
      <stop
         style="stop-color:#e0e0e0;stop-opacity:1;"
         offset="1"
         id="stop5573-81-8" />
    </linearGradient>
    <linearGradient
       inkscape:collect="always"
       xlink:href="#linearGradient5569-59-2"
       id="linearGradient7041-5"
       gradientUnits="userSpaceOnUse"
       gradientTransform="matrix(1.0079177,0,0,0.6394415,-0.09501249,389.83146)"
       x1="0"
       y1="964.36218"
       x2="0"
       y2="973.36218" />
    <linearGradient
       id="linearGradient7043-7">
      <stop
         style="stop-color:#404040;stop-opacity:1;"
         offset="0"
         id="stop7045-4" />
      <stop
         id="stop7047-1"
         offset="0.5"
         style="stop-color:#000000;stop-opacity:1;" />
      <stop
         style="stop-color:#e0e0e0;stop-opacity:1;"
         offset="1"
         id="stop7049-8" />
    </linearGradient>
    <linearGradient
       inkscape:collect="always"
       xlink:href="#linearGradient5569-59-2"
       id="linearGradient7051-5"
       gradientUnits="userSpaceOnUse"
       gradientTransform="matrix(1.0079177,0,0,0.6394415,-0.09501249,389.83146)"
       x1="0"
       y1="964.36218"
       x2="0"
       y2="973.36218" />
    <linearGradient
       id="linearGradient7053-9">
      <stop
         style="stop-color:#404040;stop-opacity:1;"
         offset="0"
         id="stop7055-7" />
      <stop
         id="stop7057-5"
         offset="0.5"
         style="stop-color:#000000;stop-opacity:1;" />
      <stop
         style="stop-color:#e0e0e0;stop-opacity:1;"
         offset="1"
         id="stop7059-3" />
    </linearGradient>
    <linearGradient
       inkscape:collect="always"
       xlink:href="#linearGradient5569-59-2"
       id="linearGradient7061-8"
       gradientUnits="userSpaceOnUse"
       gradientTransform="matrix(1.0079177,0,0,0.6394415,-0.09501249,389.83146)"
       x1="0"
       y1="964.36218"
       x2="0"
       y2="973.36218" />
    <linearGradient
       id="linearGradient7063-8">
      <stop
         style="stop-color:#404040;stop-opacity:1;"
         offset="0"
         id="stop7065-3" />
      <stop
         id="stop7067-1"
         offset="0.5"
         style="stop-color:#000000;stop-opacity:1;" />
      <stop
         style="stop-color:#e0e0e0;stop-opacity:1;"
         offset="1"
         id="stop7069-8" />
    </linearGradient>
    <linearGradient
       inkscape:collect="always"
       xlink:href="#linearGradient5569-59-2"
       id="linearGradient7071-9"
       gradientUnits="userSpaceOnUse"
       gradientTransform="matrix(1.0079177,0,0,0.6394415,-0.09501249,389.83146)"
       x1="0"
       y1="964.36218"
       x2="0"
       y2="973.36218" />
    <linearGradient
       id="linearGradient7073-6">
      <stop
         style="stop-color:#404040;stop-opacity:1;"
         offset="0"
         id="stop7075-4" />
      <stop
         id="stop7077-3"
         offset="0.5"
         style="stop-color:#000000;stop-opacity:1;" />
      <stop
         style="stop-color:#e0e0e0;stop-opacity:1;"
         offset="1"
         id="stop7079-3" />
    </linearGradient>
    <linearGradient
       inkscape:collect="always"
       xlink:href="#linearGradient5569-59-2"
       id="linearGradient7081-3"
       gradientUnits="userSpaceOnUse"
       gradientTransform="matrix(1.0079177,0,0,0.6394415,-0.09501249,389.83146)"
       x1="0"
       y1="964.36218"
       x2="0"
       y2="973.36218" />
    <linearGradient
       id="linearGradient7083-8">
      <stop
         style="stop-color:#404040;stop-opacity:1;"
         offset="0"
         id="stop7085-6" />
      <stop
         id="stop7087-0"
         offset="0.5"
         style="stop-color:#000000;stop-opacity:1;" />
      <stop
         style="stop-color:#e0e0e0;stop-opacity:1;"
         offset="1"
         id="stop7089-4" />
    </linearGradient>
    <linearGradient
       inkscape:collect="always"
       xlink:href="#linearGradient5569-59-2"
       id="linearGradient7091-8"
       gradientUnits="userSpaceOnUse"
       gradientTransform="matrix(1.0079177,0,0,0.6394415,-0.09501249,389.83146)"
       x1="0"
       y1="964.36218"
       x2="0"
       y2="973.36218" />
    <linearGradient
       id="linearGradient7093-8">
      <stop
         style="stop-color:#404040;stop-opacity:1;"
         offset="0"
         id="stop7095-8" />
      <stop
         id="stop7097-9"
         offset="0.5"
         style="stop-color:#000000;stop-opacity:1;" />
      <stop
         style="stop-color:#e0e0e0;stop-opacity:1;"
         offset="1"
         id="stop7099-7" />
    </linearGradient>
    <linearGradient
       inkscape:collect="always"
       xlink:href="#linearGradient5569-59-2"
       id="linearGradient7101-7"
       gradientUnits="userSpaceOnUse"
       gradientTransform="matrix(1.0079177,0,0,0.6394415,-0.09501249,389.83146)"
       x1="0"
       y1="964.36218"
       x2="0"
       y2="973.36218" />
    <linearGradient
       id="linearGradient7103-6">
      <stop
         style="stop-color:#404040;stop-opacity:1;"
         offset="0"
         id="stop7105-4" />
      <stop
         id="stop7107-3"
         offset="0.5"
         style="stop-color:#000000;stop-opacity:1;" />
      <stop
         style="stop-color:#e0e0e0;stop-opacity:1;"
         offset="1"
         id="stop7109-0" />
    </linearGradient>
    <linearGradient
       inkscape:collect="always"
       xlink:href="#linearGradient5569-4"
       id="linearGradient7418"
       gradientUnits="userSpaceOnUse"
       gradientTransform="matrix(1.0079177,0,0,0.6394415,-0.09501249,389.83146)"
       x1="0"
       y1="964.36218"
       x2="0"
       y2="973.36218" />
    <linearGradient
       id="linearGradient5569-4">
      <stop
         style="stop-color:#404040;stop-opacity:1;"
         offset="0"
         id="stop5571-6" />
      <stop
         id="stop5577-92"
         offset="0.5"
         style="stop-color:#000000;stop-opacity:1;" />
      <stop
         style="stop-color:#e0e0e0;stop-opacity:1;"
         offset="1"
         id="stop5573-2" />
    </linearGradient>
    <linearGradient
       inkscape:collect="always"
       xlink:href="#linearGradient5569-4"
       id="linearGradient7445"
       gradientUnits="userSpaceOnUse"
       gradientTransform="matrix(1.0079177,0,0,0.6394415,-0.09501249,389.83146)"
       x1="0"
       y1="964.36218"
       x2="0"
       y2="973.36218" />
    <linearGradient
       id="linearGradient7447">
      <stop
         style="stop-color:#404040;stop-opacity:1;"
         offset="0"
         id="stop7449" />
      <stop
         id="stop7451"
         offset="0.5"
         style="stop-color:#000000;stop-opacity:1;" />
      <stop
         style="stop-color:#e0e0e0;stop-opacity:1;"
         offset="1"
         id="stop7453" />
    </linearGradient>
    <linearGradient
       inkscape:collect="always"
       xlink:href="#linearGradient5569-4"
       id="linearGradient7455"
       gradientUnits="userSpaceOnUse"
       gradientTransform="matrix(1.0079177,0,0,0.6394415,-0.09501249,389.83146)"
       x1="0"
       y1="964.36218"
       x2="0"
       y2="973.36218" />
    <linearGradient
       id="linearGradient7457">
      <stop
         style="stop-color:#404040;stop-opacity:1;"
         offset="0"
         id="stop7459" />
      <stop
         id="stop7461"
         offset="0.5"
         style="stop-color:#000000;stop-opacity:1;" />
      <stop
         style="stop-color:#e0e0e0;stop-opacity:1;"
         offset="1"
         id="stop7463" />
    </linearGradient>
    <linearGradient
       inkscape:collect="always"
       xlink:href="#linearGradient5569-4"
       id="linearGradient7465"
       gradientUnits="userSpaceOnUse"
       gradientTransform="matrix(1.0079177,0,0,0.6394415,-0.09501249,389.83146)"
       x1="0"
       y1="964.36218"
       x2="0"
       y2="973.36218" />
    <linearGradient
       id="linearGradient7467">
      <stop
         style="stop-color:#404040;stop-opacity:1;"
         offset="0"
         id="stop7469" />
      <stop
         id="stop7471"
         offset="0.5"
         style="stop-color:#000000;stop-opacity:1;" />
      <stop
         style="stop-color:#e0e0e0;stop-opacity:1;"
         offset="1"
         id="stop7473" />
    </linearGradient>
    <linearGradient
       inkscape:collect="always"
       xlink:href="#linearGradient5569-4"
       id="linearGradient7475"
       gradientUnits="userSpaceOnUse"
       gradientTransform="matrix(1.0079177,0,0,0.6394415,-0.09501249,389.83146)"
       x1="0"
       y1="964.36218"
       x2="0"
       y2="973.36218" />
    <linearGradient
       id="linearGradient7477">
      <stop
         style="stop-color:#404040;stop-opacity:1;"
         offset="0"
         id="stop7479" />
      <stop
         id="stop7481"
         offset="0.5"
         style="stop-color:#000000;stop-opacity:1;" />
      <stop
         style="stop-color:#e0e0e0;stop-opacity:1;"
         offset="1"
         id="stop7483" />
    </linearGradient>
    <linearGradient
       inkscape:collect="always"
       xlink:href="#linearGradient5569-4"
       id="linearGradient7485"
       gradientUnits="userSpaceOnUse"
       gradientTransform="matrix(1.0079177,0,0,0.6394415,-0.09501249,389.83146)"
       x1="0"
       y1="964.36218"
       x2="0"
       y2="973.36218" />
    <linearGradient
       id="linearGradient7487">
      <stop
         style="stop-color:#404040;stop-opacity:1;"
         offset="0"
         id="stop7489" />
      <stop
         id="stop7491"
         offset="0.5"
         style="stop-color:#000000;stop-opacity:1;" />
      <stop
         style="stop-color:#e0e0e0;stop-opacity:1;"
         offset="1"
         id="stop7493" />
    </linearGradient>
    <linearGradient
       inkscape:collect="always"
       xlink:href="#linearGradient5569-4"
       id="linearGradient7495"
       gradientUnits="userSpaceOnUse"
       gradientTransform="matrix(1.0079177,0,0,0.6394415,-0.09501249,389.83146)"
       x1="0"
       y1="964.36218"
       x2="0"
       y2="973.36218" />
    <linearGradient
       id="linearGradient7497">
      <stop
         style="stop-color:#404040;stop-opacity:1;"
         offset="0"
         id="stop7499" />
      <stop
         id="stop7501"
         offset="0.5"
         style="stop-color:#000000;stop-opacity:1;" />
      <stop
         style="stop-color:#e0e0e0;stop-opacity:1;"
         offset="1"
         id="stop7503" />
    </linearGradient>
    <linearGradient
       inkscape:collect="always"
       xlink:href="#linearGradient5569-4"
       id="linearGradient7505"
       gradientUnits="userSpaceOnUse"
       gradientTransform="matrix(1.0079177,0,0,0.6394415,-0.09501249,389.83146)"
       x1="0"
       y1="964.36218"
       x2="0"
       y2="973.36218" />
    <linearGradient
       id="linearGradient7507">
      <stop
         style="stop-color:#404040;stop-opacity:1;"
         offset="0"
         id="stop7509" />
      <stop
         id="stop7511"
         offset="0.5"
         style="stop-color:#000000;stop-opacity:1;" />
      <stop
         style="stop-color:#e0e0e0;stop-opacity:1;"
         offset="1"
         id="stop7513" />
    </linearGradient>
    <linearGradient
       inkscape:collect="always"
       xlink:href="#linearGradient5569-4"
       id="linearGradient7763"
       gradientUnits="userSpaceOnUse"
       gradientTransform="matrix(1.0079177,0,0,0.6394415,-0.09501249,389.83146)"
       x1="0"
       y1="964.36218"
       x2="0"
       y2="973.36218" />
    <linearGradient
       inkscape:collect="always"
       xlink:href="#linearGradient5569-4-7"
       id="linearGradient7763-4"
       gradientUnits="userSpaceOnUse"
       gradientTransform="matrix(1.0079177,0,0,0.6394415,-0.09501249,389.83146)"
       x1="0"
       y1="964.36218"
       x2="0"
       y2="973.36218" />
    <linearGradient
       id="linearGradient5569-4-7">
      <stop
         style="stop-color:#404040;stop-opacity:1;"
         offset="0"
         id="stop5571-6-7" />
      <stop
         id="stop5577-92-5"
         offset="0.5"
         style="stop-color:#000000;stop-opacity:1;" />
      <stop
         style="stop-color:#e0e0e0;stop-opacity:1;"
         offset="1"
         id="stop5573-2-4" />
    </linearGradient>
    <linearGradient
       inkscape:collect="always"
       xlink:href="#linearGradient5569-4-7"
       id="linearGradient7780"
       gradientUnits="userSpaceOnUse"
       gradientTransform="matrix(1.0079177,0,0,0.6394415,-0.09501249,389.83146)"
       x1="0"
       y1="964.36218"
       x2="0"
       y2="973.36218" />
    <linearGradient
       id="linearGradient7782">
      <stop
         style="stop-color:#404040;stop-opacity:1;"
         offset="0"
         id="stop7784" />
      <stop
         id="stop7786"
         offset="0.5"
         style="stop-color:#000000;stop-opacity:1;" />
      <stop
         style="stop-color:#e0e0e0;stop-opacity:1;"
         offset="1"
         id="stop7788" />
    </linearGradient>
    <linearGradient
       inkscape:collect="always"
       xlink:href="#linearGradient5569-4-7"
       id="linearGradient7790"
       gradientUnits="userSpaceOnUse"
       gradientTransform="matrix(1.0079177,0,0,0.6394415,-0.09501249,389.83146)"
       x1="0"
       y1="964.36218"
       x2="0"
       y2="973.36218" />
    <linearGradient
       id="linearGradient7792">
      <stop
         style="stop-color:#404040;stop-opacity:1;"
         offset="0"
         id="stop7794" />
      <stop
         id="stop7796"
         offset="0.5"
         style="stop-color:#000000;stop-opacity:1;" />
      <stop
         style="stop-color:#e0e0e0;stop-opacity:1;"
         offset="1"
         id="stop7798" />
    </linearGradient>
    <linearGradient
       inkscape:collect="always"
       xlink:href="#linearGradient5569-4-7"
       id="linearGradient7800"
       gradientUnits="userSpaceOnUse"
       gradientTransform="matrix(1.0079177,0,0,0.6394415,-0.09501249,389.83146)"
       x1="0"
       y1="964.36218"
       x2="0"
       y2="973.36218" />
    <linearGradient
       id="linearGradient7802">
      <stop
         style="stop-color:#404040;stop-opacity:1;"
         offset="0"
         id="stop7804" />
      <stop
         id="stop7806"
         offset="0.5"
         style="stop-color:#000000;stop-opacity:1;" />
      <stop
         style="stop-color:#e0e0e0;stop-opacity:1;"
         offset="1"
         id="stop7808" />
    </linearGradient>
    <linearGradient
       inkscape:collect="always"
       xlink:href="#linearGradient5569-4-7"
       id="linearGradient7810"
       gradientUnits="userSpaceOnUse"
       gradientTransform="matrix(1.0079177,0,0,0.6394415,-0.09501249,389.83146)"
       x1="0"
       y1="964.36218"
       x2="0"
       y2="973.36218" />
    <linearGradient
       id="linearGradient7812">
      <stop
         style="stop-color:#404040;stop-opacity:1;"
         offset="0"
         id="stop7814" />
      <stop
         id="stop7816"
         offset="0.5"
         style="stop-color:#000000;stop-opacity:1;" />
      <stop
         style="stop-color:#e0e0e0;stop-opacity:1;"
         offset="1"
         id="stop7818" />
    </linearGradient>
    <linearGradient
       inkscape:collect="always"
       xlink:href="#linearGradient5569-4-7"
       id="linearGradient7820"
       gradientUnits="userSpaceOnUse"
       gradientTransform="matrix(1.0079177,0,0,0.6394415,-0.09501249,389.83146)"
       x1="0"
       y1="964.36218"
       x2="0"
       y2="973.36218" />
    <linearGradient
       id="linearGradient7822">
      <stop
         style="stop-color:#404040;stop-opacity:1;"
         offset="0"
         id="stop7824" />
      <stop
         id="stop7826"
         offset="0.5"
         style="stop-color:#000000;stop-opacity:1;" />
      <stop
         style="stop-color:#e0e0e0;stop-opacity:1;"
         offset="1"
         id="stop7828" />
    </linearGradient>
    <linearGradient
       inkscape:collect="always"
       xlink:href="#linearGradient5569-4-7"
       id="linearGradient7830"
       gradientUnits="userSpaceOnUse"
       gradientTransform="matrix(1.0079177,0,0,0.6394415,-0.09501249,389.83146)"
       x1="0"
       y1="964.36218"
       x2="0"
       y2="973.36218" />
    <linearGradient
       id="linearGradient7832">
      <stop
         style="stop-color:#404040;stop-opacity:1;"
         offset="0"
         id="stop7834" />
      <stop
         id="stop7836"
         offset="0.5"
         style="stop-color:#000000;stop-opacity:1;" />
      <stop
         style="stop-color:#e0e0e0;stop-opacity:1;"
         offset="1"
         id="stop7838" />
    </linearGradient>
    <linearGradient
       inkscape:collect="always"
       xlink:href="#linearGradient5569-4-7"
       id="linearGradient7840"
       gradientUnits="userSpaceOnUse"
       gradientTransform="matrix(1.0079177,0,0,0.6394415,-0.09501249,389.83146)"
       x1="0"
       y1="964.36218"
       x2="0"
       y2="973.36218" />
    <linearGradient
       id="linearGradient7842">
      <stop
         style="stop-color:#404040;stop-opacity:1;"
         offset="0"
         id="stop7844" />
      <stop
         id="stop7846"
         offset="0.5"
         style="stop-color:#000000;stop-opacity:1;" />
      <stop
         style="stop-color:#e0e0e0;stop-opacity:1;"
         offset="1"
         id="stop7848" />
    </linearGradient>
    <linearGradient
       inkscape:collect="always"
       xlink:href="#linearGradient5569-4-7"
       id="linearGradient7990"
       gradientUnits="userSpaceOnUse"
       gradientTransform="matrix(1.0079177,0,0,0.6394415,-0.09501249,389.83146)"
       x1="0"
       y1="964.36218"
       x2="0"
       y2="973.36218" />
    <linearGradient
       inkscape:collect="always"
       xlink:href="#linearGradient5569-4"
       id="linearGradient9075"
       gradientUnits="userSpaceOnUse"
       gradientTransform="matrix(1.0079177,0,0,0.6394415,-0.09501246,398.83146)"
       x1="0"
       y1="964.36218"
       x2="0"
       y2="973.36218" />
    <linearGradient
       inkscape:collect="always"
       xlink:href="#linearGradient5569-4"
       id="linearGradient9079"
       gradientUnits="userSpaceOnUse"
       gradientTransform="matrix(1.0079177,0,0,0.6394415,-0.09501246,407.83146)"
       x1="0"
       y1="964.36218"
       x2="0"
       y2="973.36218" />
    <linearGradient
       inkscape:collect="always"
       xlink:href="#linearGradient5569-4"
       id="linearGradient9083"
       gradientUnits="userSpaceOnUse"
       gradientTransform="matrix(1.0079177,0,0,0.6394415,-0.09501246,416.83146)"
       x1="0"
       y1="964.36218"
       x2="0"
       y2="973.36218" />
    <linearGradient
       inkscape:collect="always"
       xlink:href="#linearGradient5569-4"
       id="linearGradient9087"
       gradientUnits="userSpaceOnUse"
       gradientTransform="matrix(1.0079177,0,0,0.6394415,-0.09501246,425.83146)"
       x1="0"
       y1="964.36218"
       x2="0"
       y2="973.36218" />
    <linearGradient
       inkscape:collect="always"
       xlink:href="#linearGradient5569-4"
       id="linearGradient9093"
       gradientUnits="userSpaceOnUse"
       gradientTransform="matrix(1.0079177,0,0,0.6394415,-0.09501246,380.83146)"
       x1="0"
       y1="964.36218"
       x2="0"
       y2="973.36218" />
    <linearGradient
       inkscape:collect="always"
       xlink:href="#linearGradient5569-4"
       id="linearGradient9099"
       gradientUnits="userSpaceOnUse"
       gradientTransform="matrix(1.0079177,0,0,0.6394415,-0.09501246,371.83146)"
       x1="0"
       y1="964.36218"
       x2="0"
       y2="973.36218" />
    <linearGradient
       inkscape:collect="always"
       xlink:href="#linearGradient5569-4"
       id="linearGradient9103"
       gradientUnits="userSpaceOnUse"
       gradientTransform="matrix(1.0079177,0,0,0.6394415,-0.09501246,362.83146)"
       x1="0"
       y1="964.36218"
       x2="0"
       y2="973.36218" />
    <linearGradient
       inkscape:collect="always"
       xlink:href="#linearGradient5569-4-7"
       id="linearGradient9107"
       gradientUnits="userSpaceOnUse"
       gradientTransform="matrix(1.0079177,0,0,0.6394415,-0.09501246,398.83146)"
       x1="0"
       y1="964.36218"
       x2="0"
       y2="973.36218" />
    <linearGradient
       inkscape:collect="always"
       xlink:href="#linearGradient5569-4-7"
       id="linearGradient9111"
       gradientUnits="userSpaceOnUse"
       gradientTransform="matrix(1.0079177,0,0,0.6394415,-0.09501246,407.83146)"
       x1="0"
       y1="964.36218"
       x2="0"
       y2="973.36218" />
    <linearGradient
       inkscape:collect="always"
       xlink:href="#linearGradient5569-4-7"
       id="linearGradient9115"
       gradientUnits="userSpaceOnUse"
       gradientTransform="matrix(1.0079177,0,0,0.6394415,-0.09501246,416.83146)"
       x1="0"
       y1="964.36218"
       x2="0"
       y2="973.36218" />
    <linearGradient
       inkscape:collect="always"
       xlink:href="#linearGradient5569-4-7"
       id="linearGradient9119"
       gradientUnits="userSpaceOnUse"
       gradientTransform="matrix(1.0079177,0,0,0.6394415,-0.09501246,425.83146)"
       x1="0"
       y1="964.36218"
       x2="0"
       y2="973.36218" />
    <linearGradient
       inkscape:collect="always"
       xlink:href="#linearGradient5569-4-7"
       id="linearGradient9125"
       gradientUnits="userSpaceOnUse"
       gradientTransform="matrix(1.0079177,0,0,0.6394415,-0.09501246,380.83146)"
       x1="0"
       y1="964.36218"
       x2="0"
       y2="973.36218" />
    <linearGradient
       inkscape:collect="always"
       xlink:href="#linearGradient5569-4-7"
       id="linearGradient9131"
       gradientUnits="userSpaceOnUse"
       gradientTransform="matrix(1.0079177,0,0,0.6394415,-0.09501246,371.83146)"
       x1="0"
       y1="964.36218"
       x2="0"
       y2="973.36218" />
    <linearGradient
       inkscape:collect="always"
       xlink:href="#linearGradient5569-4-7"
       id="linearGradient9135"
       gradientUnits="userSpaceOnUse"
       gradientTransform="matrix(1.0079177,0,0,0.6394415,-0.09501246,362.83146)"
       x1="0"
       y1="964.36218"
       x2="0"
       y2="973.36218" />
    <linearGradient
       inkscape:collect="always"
       xlink:href="#linearGradient4347-9"
       id="linearGradient8786"
       gradientUnits="userSpaceOnUse"
       gradientTransform="matrix(0.14201183,0,0,0.66666667,-87.002539,844.73978)"
       x1="612.15625"
       y1="295.9375"
       x2="612.15625"
       y2="305.9375" />
    <linearGradient
       id="linearGradient4347-9">
      <stop
         style="stop-color:#ffffff;stop-opacity:0.75294119;"
         offset="0"
         id="stop4349-9" />
      <stop
         id="stop4355-8"
         offset="0.5"
         style="stop-color:#ffffff;stop-opacity:0.25098041;" />
      <stop
         style="stop-color:#ffffff;stop-opacity:0;"
         offset="0.5"
         id="stop4444" />
      <stop
         style="stop-color:#ffffff;stop-opacity:0;"
         offset="1"
         id="stop4351-0" />
    </linearGradient>
    <linearGradient
       inkscape:collect="always"
       xlink:href="#linearGradient4347-9-2"
       id="linearGradient8788"
       gradientUnits="userSpaceOnUse"
       gradientTransform="matrix(0.14201183,0,0,0.66666667,-87.002539,835.73978)"
       x1="612.15625"
       y1="295.9375"
       x2="612.15625"
       y2="305.9375" />
    <linearGradient
       id="linearGradient4347-9-2">
      <stop
         style="stop-color:#ffffff;stop-opacity:0.75294119;"
         offset="0"
         id="stop4349-9-0" />
      <stop
         id="stop4355-8-5"
         offset="0.5"
         style="stop-color:#ffffff;stop-opacity:0.25098041;" />
      <stop
         style="stop-color:#ffffff;stop-opacity:0;"
         offset="0.5"
         id="stop4444-5" />
      <stop
         style="stop-color:#ffffff;stop-opacity:0;"
         offset="1"
         id="stop4351-0-2" />
    </linearGradient>
    <linearGradient
       inkscape:collect="always"
       xlink:href="#linearGradient4347-9-28"
       id="linearGradient8790"
       gradientUnits="userSpaceOnUse"
       gradientTransform="matrix(0.14201183,0,0,0.66666667,-87.002539,826.73978)"
       x1="612.15625"
       y1="295.9375"
       x2="612.15625"
       y2="305.9375" />
    <linearGradient
       id="linearGradient4347-9-28">
      <stop
         style="stop-color:#ffffff;stop-opacity:0.75294119;"
         offset="0"
         id="stop4349-9-3" />
      <stop
         id="stop4355-8-8"
         offset="0.5"
         style="stop-color:#ffffff;stop-opacity:0.25098041;" />
      <stop
         style="stop-color:#ffffff;stop-opacity:0;"
         offset="0.5"
         id="stop4444-0" />
      <stop
         style="stop-color:#ffffff;stop-opacity:0;"
         offset="1"
         id="stop4351-0-4" />
    </linearGradient>
    <linearGradient
       inkscape:collect="always"
       xlink:href="#linearGradient4347-9-6"
       id="linearGradient8792"
       gradientUnits="userSpaceOnUse"
       gradientTransform="matrix(0.14201183,0,0,0.66666667,-87.002539,817.73978)"
       x1="612.15625"
       y1="295.9375"
       x2="612.15625"
       y2="305.9375" />
    <linearGradient
       id="linearGradient4347-9-6">
      <stop
         style="stop-color:#ffffff;stop-opacity:0.75294119;"
         offset="0"
         id="stop4349-9-2" />
      <stop
         id="stop4355-8-54"
         offset="0.5"
         style="stop-color:#ffffff;stop-opacity:0.25098041;" />
      <stop
         style="stop-color:#ffffff;stop-opacity:0;"
         offset="0.5"
         id="stop4444-4" />
      <stop
         style="stop-color:#ffffff;stop-opacity:0;"
         offset="1"
         id="stop4351-0-9" />
    </linearGradient>
    <linearGradient
       inkscape:collect="always"
       xlink:href="#linearGradient4347-9-0"
       id="linearGradient8794"
       gradientUnits="userSpaceOnUse"
       gradientTransform="matrix(0.14201183,0,0,0.66666667,-87.002539,808.73978)"
       x1="612.15625"
       y1="295.9375"
       x2="612.15625"
       y2="305.9375" />
    <linearGradient
       id="linearGradient4347-9-0">
      <stop
         style="stop-color:#ffffff;stop-opacity:0.75294119;"
         offset="0"
         id="stop4349-9-5" />
      <stop
         id="stop4355-8-0"
         offset="0.5"
         style="stop-color:#ffffff;stop-opacity:0.25098041;" />
      <stop
         style="stop-color:#ffffff;stop-opacity:0;"
         offset="0.5"
         id="stop4444-2" />
      <stop
         style="stop-color:#ffffff;stop-opacity:0;"
         offset="1"
         id="stop4351-0-94" />
    </linearGradient>
    <linearGradient
       inkscape:collect="always"
       xlink:href="#linearGradient4347-9-7"
       id="linearGradient8796"
       gradientUnits="userSpaceOnUse"
       gradientTransform="matrix(0.14201183,0,0,0.66666667,-87.002539,799.73978)"
       x1="612.15625"
       y1="295.9375"
       x2="612.15625"
       y2="305.9375" />
    <linearGradient
       id="linearGradient4347-9-7">
      <stop
         style="stop-color:#ffffff;stop-opacity:0.75294119;"
         offset="0"
         id="stop4349-9-4" />
      <stop
         id="stop4355-8-3"
         offset="0.5"
         style="stop-color:#ffffff;stop-opacity:0.25098041;" />
      <stop
         style="stop-color:#ffffff;stop-opacity:0;"
         offset="0.5"
         id="stop4444-1" />
      <stop
         style="stop-color:#ffffff;stop-opacity:0;"
         offset="1"
         id="stop4351-0-46" />
    </linearGradient>
    <linearGradient
       inkscape:collect="always"
       xlink:href="#linearGradient4347-9-4"
       id="linearGradient8798"
       gradientUnits="userSpaceOnUse"
       gradientTransform="matrix(0.14201183,0,0,0.66666667,-87.002539,790.73978)"
       x1="612.15625"
       y1="295.9375"
       x2="612.15625"
       y2="305.9375" />
    <linearGradient
       id="linearGradient4347-9-4">
      <stop
         style="stop-color:#ffffff;stop-opacity:0.75294119;"
         offset="0"
         id="stop4349-9-1" />
      <stop
         id="stop4355-8-2"
         offset="0.5"
         style="stop-color:#ffffff;stop-opacity:0.25098041;" />
      <stop
         style="stop-color:#ffffff;stop-opacity:0;"
         offset="0.5"
         id="stop4444-8" />
      <stop
         style="stop-color:#ffffff;stop-opacity:0;"
         offset="1"
         id="stop4351-0-8" />
    </linearGradient>
    <linearGradient
       inkscape:collect="always"
       xlink:href="#linearGradient4347-9-8"
       id="linearGradient8800"
       gradientUnits="userSpaceOnUse"
       gradientTransform="matrix(0.14201183,0,0,0.66666667,-87.002539,781.73978)"
       x1="612.15625"
       y1="295.9375"
       x2="612.15625"
       y2="305.9375" />
    <linearGradient
       id="linearGradient4347-9-8">
      <stop
         style="stop-color:#ffffff;stop-opacity:0.75294119;"
         offset="0"
         id="stop4349-9-6" />
      <stop
         id="stop4355-8-83"
         offset="0.5"
         style="stop-color:#ffffff;stop-opacity:0.25098041;" />
      <stop
         style="stop-color:#ffffff;stop-opacity:0;"
         offset="0.5"
         id="stop4444-83" />
      <stop
         style="stop-color:#ffffff;stop-opacity:0;"
         offset="1"
         id="stop4351-0-3" />
    </linearGradient>
    <linearGradient
       inkscape:collect="always"
       xlink:href="#linearGradient5569-47"
       id="linearGradient8006"
       gradientUnits="userSpaceOnUse"
       gradientTransform="matrix(1.0079177,0,0,0.6394415,-0.09501249,389.83146)"
       x1="0"
       y1="964.36218"
       x2="0"
       y2="973.36218" />
    <linearGradient
       id="linearGradient5569-47">
      <stop
         style="stop-color:#404040;stop-opacity:1;"
         offset="0"
         id="stop5571-68" />
      <stop
         id="stop5577-90"
         offset="0.5"
         style="stop-color:#000000;stop-opacity:1;" />
      <stop
         style="stop-color:#e0e0e0;stop-opacity:1;"
         offset="1"
         id="stop5573-68" />
    </linearGradient>
    <linearGradient
       inkscape:collect="always"
       xlink:href="#linearGradient5569-47"
       id="linearGradient8922"
       gradientUnits="userSpaceOnUse"
       gradientTransform="matrix(1.0079177,0,0,0.6394415,-0.09501249,389.83146)"
       x1="0"
       y1="964.36218"
       x2="0"
       y2="973.36218" />
    <linearGradient
       id="linearGradient8924">
      <stop
         style="stop-color:#404040;stop-opacity:1;"
         offset="0"
         id="stop8926" />
      <stop
         id="stop8928"
         offset="0.5"
         style="stop-color:#000000;stop-opacity:1;" />
      <stop
         style="stop-color:#e0e0e0;stop-opacity:1;"
         offset="1"
         id="stop8930" />
    </linearGradient>
    <linearGradient
       inkscape:collect="always"
       xlink:href="#linearGradient5569-47"
       id="linearGradient8932"
       gradientUnits="userSpaceOnUse"
       gradientTransform="matrix(1.0079177,0,0,0.6394415,-0.09501249,389.83146)"
       x1="0"
       y1="964.36218"
       x2="0"
       y2="973.36218" />
    <linearGradient
       id="linearGradient8934">
      <stop
         style="stop-color:#404040;stop-opacity:1;"
         offset="0"
         id="stop8936" />
      <stop
         id="stop8938"
         offset="0.5"
         style="stop-color:#000000;stop-opacity:1;" />
      <stop
         style="stop-color:#e0e0e0;stop-opacity:1;"
         offset="1"
         id="stop8940" />
    </linearGradient>
    <linearGradient
       inkscape:collect="always"
       xlink:href="#linearGradient5569-47"
       id="linearGradient8942"
       gradientUnits="userSpaceOnUse"
       gradientTransform="matrix(1.0079177,0,0,0.6394415,-0.09501249,389.83146)"
       x1="0"
       y1="964.36218"
       x2="0"
       y2="973.36218" />
    <linearGradient
       id="linearGradient8944">
      <stop
         style="stop-color:#404040;stop-opacity:1;"
         offset="0"
         id="stop8946" />
      <stop
         id="stop8948"
         offset="0.5"
         style="stop-color:#000000;stop-opacity:1;" />
      <stop
         style="stop-color:#e0e0e0;stop-opacity:1;"
         offset="1"
         id="stop8950" />
    </linearGradient>
    <linearGradient
       inkscape:collect="always"
       xlink:href="#linearGradient5569-47"
       id="linearGradient8952"
       gradientUnits="userSpaceOnUse"
       gradientTransform="matrix(1.0079177,0,0,0.6394415,-0.09501249,389.83146)"
       x1="0"
       y1="964.36218"
       x2="0"
       y2="973.36218" />
    <linearGradient
       id="linearGradient8954">
      <stop
         style="stop-color:#404040;stop-opacity:1;"
         offset="0"
         id="stop8956" />
      <stop
         id="stop8958"
         offset="0.5"
         style="stop-color:#000000;stop-opacity:1;" />
      <stop
         style="stop-color:#e0e0e0;stop-opacity:1;"
         offset="1"
         id="stop8960" />
    </linearGradient>
    <linearGradient
       inkscape:collect="always"
       xlink:href="#linearGradient5569-47"
       id="linearGradient8962"
       gradientUnits="userSpaceOnUse"
       gradientTransform="matrix(1.0079177,0,0,0.6394415,-0.09501249,389.83146)"
       x1="0"
       y1="964.36218"
       x2="0"
       y2="973.36218" />
    <linearGradient
       id="linearGradient8964">
      <stop
         style="stop-color:#404040;stop-opacity:1;"
         offset="0"
         id="stop8966" />
      <stop
         id="stop8968"
         offset="0.5"
         style="stop-color:#000000;stop-opacity:1;" />
      <stop
         style="stop-color:#e0e0e0;stop-opacity:1;"
         offset="1"
         id="stop8970" />
    </linearGradient>
    <linearGradient
       inkscape:collect="always"
       xlink:href="#linearGradient5569-47"
       id="linearGradient8972"
       gradientUnits="userSpaceOnUse"
       gradientTransform="matrix(1.0079177,0,0,0.6394415,-0.09501249,389.83146)"
       x1="0"
       y1="964.36218"
       x2="0"
       y2="973.36218" />
    <linearGradient
       id="linearGradient8974">
      <stop
         style="stop-color:#404040;stop-opacity:1;"
         offset="0"
         id="stop8976" />
      <stop
         id="stop8978"
         offset="0.5"
         style="stop-color:#000000;stop-opacity:1;" />
      <stop
         style="stop-color:#e0e0e0;stop-opacity:1;"
         offset="1"
         id="stop8980" />
    </linearGradient>
    <linearGradient
       inkscape:collect="always"
       xlink:href="#linearGradient5569-47"
       id="linearGradient8982"
       gradientUnits="userSpaceOnUse"
       gradientTransform="matrix(1.0079177,0,0,0.6394415,-0.09501249,389.83146)"
       x1="0"
       y1="964.36218"
       x2="0"
       y2="973.36218" />
    <linearGradient
       id="linearGradient8984">
      <stop
         style="stop-color:#404040;stop-opacity:1;"
         offset="0"
         id="stop8986" />
      <stop
         id="stop8988"
         offset="0.5"
         style="stop-color:#000000;stop-opacity:1;" />
      <stop
         style="stop-color:#e0e0e0;stop-opacity:1;"
         offset="1"
         id="stop8990" />
    </linearGradient>
    <linearGradient
       inkscape:collect="always"
       xlink:href="#linearGradient5569-1"
       id="linearGradient8147"
       gradientUnits="userSpaceOnUse"
       gradientTransform="matrix(1.0079177,0,0,0.6394415,-0.09501249,3327.9181)"
       x1="0"
       y1="964.36218"
       x2="0"
       y2="973.36218" />
    <linearGradient
       id="linearGradient5569-1">
      <stop
         style="stop-color:#404040;stop-opacity:1;"
         offset="0"
         id="stop5571-0-7" />
      <stop
         id="stop5577-5"
         offset="0.5"
         style="stop-color:#000000;stop-opacity:1;" />
      <stop
         style="stop-color:#e0e0e0;stop-opacity:1;"
         offset="1"
         id="stop5573-1-9" />
    </linearGradient>
    <linearGradient
       inkscape:collect="always"
       xlink:href="#linearGradient5569-1"
       id="linearGradient8997"
       gradientUnits="userSpaceOnUse"
       gradientTransform="matrix(1.0079177,0,0,0.6394415,-0.09501249,3327.9181)"
       x1="0"
       y1="964.36218"
       x2="0"
       y2="973.36218" />
    <linearGradient
       id="linearGradient8999">
      <stop
         style="stop-color:#404040;stop-opacity:1;"
         offset="0"
         id="stop9001" />
      <stop
         id="stop9003"
         offset="0.5"
         style="stop-color:#000000;stop-opacity:1;" />
      <stop
         style="stop-color:#e0e0e0;stop-opacity:1;"
         offset="1"
         id="stop9005" />
    </linearGradient>
    <linearGradient
       inkscape:collect="always"
       xlink:href="#linearGradient5569-1"
       id="linearGradient9007"
       gradientUnits="userSpaceOnUse"
       gradientTransform="matrix(1.0079177,0,0,0.6394415,-0.09501249,3327.9181)"
       x1="0"
       y1="964.36218"
       x2="0"
       y2="973.36218" />
    <linearGradient
       id="linearGradient9009">
      <stop
         style="stop-color:#404040;stop-opacity:1;"
         offset="0"
         id="stop9011" />
      <stop
         id="stop9013"
         offset="0.5"
         style="stop-color:#000000;stop-opacity:1;" />
      <stop
         style="stop-color:#e0e0e0;stop-opacity:1;"
         offset="1"
         id="stop9015" />
    </linearGradient>
    <linearGradient
       inkscape:collect="always"
       xlink:href="#linearGradient5569-1"
       id="linearGradient9017"
       gradientUnits="userSpaceOnUse"
       gradientTransform="matrix(1.0079177,0,0,0.6394415,-0.09501249,3327.9181)"
       x1="0"
       y1="964.36218"
       x2="0"
       y2="973.36218" />
    <linearGradient
       id="linearGradient9019">
      <stop
         style="stop-color:#404040;stop-opacity:1;"
         offset="0"
         id="stop9021" />
      <stop
         id="stop9023"
         offset="0.5"
         style="stop-color:#000000;stop-opacity:1;" />
      <stop
         style="stop-color:#e0e0e0;stop-opacity:1;"
         offset="1"
         id="stop9025" />
    </linearGradient>
    <linearGradient
       inkscape:collect="always"
       xlink:href="#linearGradient5569-4-0"
       id="linearGradient8240"
       gradientUnits="userSpaceOnUse"
       gradientTransform="matrix(1.0079177,0,0,0.6394415,-0.09501249,2348.5558)"
       x1="0"
       y1="964.36218"
       x2="0"
       y2="973.36218" />
    <linearGradient
       id="linearGradient5569-4-0">
      <stop
         style="stop-color:#404040;stop-opacity:1;"
         offset="0"
         id="stop5571-6-3" />
      <stop
         id="stop5577-2"
         offset="0.5"
         style="stop-color:#000000;stop-opacity:1;" />
      <stop
         style="stop-color:#e0e0e0;stop-opacity:1;"
         offset="1"
         id="stop5573-5" />
    </linearGradient>
    <linearGradient
       inkscape:collect="always"
       xlink:href="#linearGradient5569-4-0"
       id="linearGradient9032"
       gradientUnits="userSpaceOnUse"
       gradientTransform="matrix(1.0079177,0,0,0.6394415,-0.09501249,2348.5558)"
       x1="0"
       y1="964.36218"
       x2="0"
       y2="973.36218" />
    <linearGradient
       id="linearGradient9034">
      <stop
         style="stop-color:#404040;stop-opacity:1;"
         offset="0"
         id="stop9036" />
      <stop
         id="stop9038"
         offset="0.5"
         style="stop-color:#000000;stop-opacity:1;" />
      <stop
         style="stop-color:#e0e0e0;stop-opacity:1;"
         offset="1"
         id="stop9040" />
    </linearGradient>
    <linearGradient
       inkscape:collect="always"
       xlink:href="#linearGradient5569-47"
       id="linearGradient9434"
       gradientUnits="userSpaceOnUse"
       gradientTransform="matrix(1.0079177,0,0,0.6394415,-0.09501249,389.83146)"
       x1="0"
       y1="964.36218"
       x2="0"
       y2="973.36218" />
    <linearGradient
       inkscape:collect="always"
       xlink:href="#linearGradient5569-1"
       id="linearGradient9436"
       gradientUnits="userSpaceOnUse"
       gradientTransform="matrix(1.0079177,0,0,0.6394415,-0.09501249,3327.9181)"
       x1="0"
       y1="964.36218"
       x2="0"
       y2="973.36218" />
    <linearGradient
       inkscape:collect="always"
       xlink:href="#linearGradient5569-4-0"
       id="linearGradient9438"
       gradientUnits="userSpaceOnUse"
       gradientTransform="matrix(1.0079177,0,0,0.6394415,-0.09501249,2348.5558)"
       x1="0"
       y1="964.36218"
       x2="0"
       y2="973.36218" />
    <linearGradient
       inkscape:collect="always"
       xlink:href="#linearGradient5569-47"
       id="linearGradient9442"
       gradientUnits="userSpaceOnUse"
       gradientTransform="matrix(1.0079177,0,0,0.6394415,-0.09501246,398.83146)"
       x1="0"
       y1="964.36218"
       x2="0"
       y2="973.36218" />
    <linearGradient
       inkscape:collect="always"
       xlink:href="#linearGradient5569-47"
       id="linearGradient9446"
       gradientUnits="userSpaceOnUse"
       gradientTransform="matrix(1.0079177,0,0,0.6394415,-0.09501246,407.83146)"
       x1="0"
       y1="964.36218"
       x2="0"
       y2="973.36218" />
    <linearGradient
       inkscape:collect="always"
       xlink:href="#linearGradient5569-47"
       id="linearGradient9450"
       gradientUnits="userSpaceOnUse"
       gradientTransform="matrix(1.0079177,0,0,0.6394415,-0.09501246,416.83146)"
       x1="0"
       y1="964.36218"
       x2="0"
       y2="973.36218" />
    <linearGradient
       inkscape:collect="always"
       xlink:href="#linearGradient5569-47"
       id="linearGradient9454"
       gradientUnits="userSpaceOnUse"
       gradientTransform="matrix(1.0079177,0,0,0.6394415,-0.09501246,425.83146)"
       x1="0"
       y1="964.36218"
       x2="0"
       y2="973.36218" />
    <linearGradient
       inkscape:collect="always"
       xlink:href="#linearGradient5569-47"
       id="linearGradient9460"
       gradientUnits="userSpaceOnUse"
       gradientTransform="matrix(1.0079177,0,0,0.6394415,-0.09501246,380.83146)"
       x1="0"
       y1="964.36218"
       x2="0"
       y2="973.36218" />
    <linearGradient
       inkscape:collect="always"
       xlink:href="#linearGradient5569-47"
       id="linearGradient9466"
       gradientUnits="userSpaceOnUse"
       gradientTransform="matrix(1.0079177,0,0,0.6394415,-0.09501246,371.83146)"
       x1="0"
       y1="964.36218"
       x2="0"
       y2="973.36218" />
    <linearGradient
       inkscape:collect="always"
       xlink:href="#linearGradient5569-47"
       id="linearGradient9470"
       gradientUnits="userSpaceOnUse"
       gradientTransform="matrix(1.0079177,0,0,0.6394415,-0.09501246,362.83146)"
       x1="0"
       y1="964.36218"
       x2="0"
       y2="973.36218" />
    <linearGradient
       inkscape:collect="always"
       xlink:href="#linearGradient5569-1"
       id="linearGradient9474"
       gradientUnits="userSpaceOnUse"
       gradientTransform="matrix(1.0079177,0,0,0.6394415,-0.09501243,2357.556)"
       x1="0"
       y1="964.36218"
       x2="0"
       y2="973.36218" />
    <linearGradient
       inkscape:collect="always"
       xlink:href="#linearGradient5569-1"
       id="linearGradient9480"
       gradientUnits="userSpaceOnUse"
       gradientTransform="matrix(1.0079177,0,0,0.6394415,-0.09501243,2339.556)"
       x1="0"
       y1="964.36218"
       x2="0"
       y2="973.36218" />
    <linearGradient
       inkscape:collect="always"
       xlink:href="#linearGradient5569-1"
       id="linearGradient9484"
       gradientUnits="userSpaceOnUse"
       gradientTransform="matrix(1.0079177,0,0,0.6394415,-0.0950124,1351.1939)"
       x1="0"
       y1="964.36218"
       x2="0"
       y2="973.36218" />
    <linearGradient
       inkscape:collect="always"
       xlink:href="#linearGradient5569-4-0"
       id="linearGradient9488"
       gradientUnits="userSpaceOnUse"
       gradientTransform="matrix(1.0079177,0,0,0.6394415,-0.09501243,1360.1937)"
       x1="0"
       y1="964.36218"
       x2="0"
       y2="973.36218" />
    <linearGradient
       inkscape:collect="always"
       xlink:href="#linearGradient7842"
       id="linearGradient1373"
       x1="4"
       y1="105"
       x2="4"
       y2="-25"
       gradientUnits="userSpaceOnUse" />
  </defs>
  <sodipodi:namedview
     id="base"
     pagecolor="#ffffff"
     bordercolor="#666666"
     borderopacity="1.0"
     inkscape:pageopacity="0.0"
     inkscape:pageshadow="2"
     inkscape:zoom="4.0922618"
     inkscape:cx="140.50909"
     inkscape:cy="41.908364"
     inkscape:document-units="px"
     inkscape:current-layer="layer1"
     showgrid="true"
     inkscape:snap-page="true"
     inkscape:snap-grids="true"
     inkscape:window-width="1920"
     inkscape:window-height="1016"
     inkscape:window-x="0"
     inkscape:window-y="0"
     inkscape:window-maximized="1"
     inkscape:snap-nodes="true"
     inkscape:snap-bbox="true"
     fit-margin-top="0"
     fit-margin-left="0"
     fit-margin-right="0"
     fit-margin-bottom="0"
     inkscape:object-paths="true"
     inkscape:snap-intersection-paths="true"
     inkscape:snap-smooth-nodes="true"
     inkscape:showpageshadow="0"
     inkscape:pagecheckerboard="1"
     inkscape:deskcolor="#d1d1d1">
    <inkscape:grid
       type="xygrid"
       id="grid2985"
       empspacing="4"
       visible="true"
       enabled="true"
       snapvisiblegridlinesonly="true"
       spacingx="1"
       spacingy="1"
       originx="0"
       originy="0" />
  </sodipodi:namedview>
  <metadata
     id="metadata7">
    <rdf:RDF>
      <cc:Work
         rdf:about="">
        <dc:format>image/svg+xml</dc:format>
        <dc:type
           rdf:resource="http://purl.org/dc/dcmitype/StillImage" />
      </cc:Work>
    </rdf:RDF>
  </metadata>
  <g
     inkscape:label="bg"
     inkscape:groupmode="layer"
     id="layer1"
     transform="matrix(0.35087719,0,0,1,-1.4035088,-807.36218)"
     style="display:inline"
     sodipodi:insensitive="true">
    <rect
       style="color:#000000;display:inline;overflow:visible;visibility:visible;opacity:1;vector-effect:none;fill:#ff00ff;fill-opacity:1;fill-rule:nonzero;stroke:none;stroke-width:1;stroke-linecap:round;stroke-linejoin:round;stroke-miterlimit:4;stroke-dasharray:none;stroke-dashoffset:0;stroke-opacity:1;marker:none;paint-order:stroke markers fill;enable-background:accumulate"
       id="rect1401"
       width="228"
       height="130"
       x="4"
       y="807.36218" />
  </g>
  <g
     inkscape:groupmode="layer"
     id="layer2"
     inkscape:label="content"
     style="display:inline"
     transform="translate(-4,25)">
    <path
       style="fill:url(#linearGradient1373);fill-opacity:1;fill-rule:evenodd;stroke:none;stroke-width:1px;stroke-linecap:butt;stroke-linejoin:miter;stroke-opacity:1"
       d="m 6,-24 h 2 v -1 H 84 V 105 H 8 v -1 H 6 v -1 H 5 v -2 H 4 V -21 h 1 v -2 h 1 z"
       id="path1365"
       inkscape:connector-curvature="0"
       sodipodi:nodetypes="ccccccccccccccccc" />
    <path
       style="display:inline;fill:#000000;fill-opacity:1;fill-rule:evenodd;stroke:none;stroke-width:1px;stroke-linecap:butt;stroke-linejoin:miter;stroke-opacity:1"
       d="M 6.9759035,-22.97561 H 9 V -24 L 84.01204,-24.07317 84,104 H 9.0481927 v -1.02439 H 7.0240962 v -1.02439 H 6.0120481 V 99.902438 H 4.9999999 L 4.9518072,-19.90244 h 1.0120482 v -2.04878 h 1.0120481 z"
       id="path1365-3"
       inkscape:connector-curvature="0"
       sodipodi:nodetypes="ccccccccccccccccc" />
  </g>
</svg>
