<?xml version="1.0" encoding="UTF-8" standalone="no"?>
<!-- Created with Inkscape (http://www.inkscape.org/) -->

<svg
   xmlns:dc="http://purl.org/dc/elements/1.1/"
   xmlns:cc="http://creativecommons.org/ns#"
   xmlns:rdf="http://www.w3.org/1999/02/22-rdf-syntax-ns#"
   xmlns:svg="http://www.w3.org/2000/svg"
   xmlns="http://www.w3.org/2000/svg"
   xmlns:xlink="http://www.w3.org/1999/xlink"
   xmlns:sodipodi="http://sodipodi.sourceforge.net/DTD/sodipodi-0.dtd"
   xmlns:inkscape="http://www.inkscape.org/namespaces/inkscape"
   width="144"
   height="2800"
   id="svg5049"
   version="1.1"
   inkscape:version="0.92.4 (5da689c313, 2019-01-14)"
   sodipodi:docname="vm-big.svg"
   inkscape:export-filename="/home/tcrass/devlp/rockbox/themes/e200/cyan/vm-big.png"
   inkscape:export-xdpi="95.999908"
   inkscape:export-ydpi="95.999908">
  <defs
     id="defs5051">
    <linearGradient
       inkscape:collect="always"
       id="linearGradient4810">
      <stop
         style="stop-color:#000000;stop-opacity:1;"
         offset="0"
         id="stop4806" />
      <stop
         style="stop-color:#000000;stop-opacity:0;"
         offset="1"
         id="stop4808" />
    </linearGradient>
    <linearGradient
       id="linearGradient8830">
      <stop
         style="stop-color:#20ff00;stop-opacity:1;"
         offset="0"
         id="stop8832" />
      <stop
         id="stop8838"
         offset="0.5"
         style="stop-color:#ffc000;stop-opacity:1;" />
      <stop
         style="stop-color:#ff2000;stop-opacity:1;"
         offset="1"
         id="stop8834" />
    </linearGradient>
    <linearGradient
       id="linearGradient5569">
      <stop
         style="stop-color:#404040;stop-opacity:1;"
         offset="0"
         id="stop5571" />
      <stop
         id="stop5577"
         offset="0.5"
         style="stop-color:#000000;stop-opacity:1;" />
      <stop
         style="stop-color:#e0e0e0;stop-opacity:1;"
         offset="1"
         id="stop5573" />
    </linearGradient>
    <linearGradient
       inkscape:collect="always"
       xlink:href="#linearGradient5569-6"
       id="linearGradient5575-7"
       x1="0"
       y1="964.36218"
       x2="0"
       y2="973.36218"
       gradientUnits="userSpaceOnUse" />
    <linearGradient
       id="linearGradient5569-6">
      <stop
         style="stop-color:#404040;stop-opacity:1;"
         offset="0"
         id="stop5571-7" />
      <stop
         id="stop5577-3"
         offset="0.5"
         style="stop-color:#000000;stop-opacity:1;" />
      <stop
         style="stop-color:#e0e0e0;stop-opacity:1;"
         offset="1"
         id="stop5573-6" />
    </linearGradient>
    <linearGradient
       inkscape:collect="always"
       xlink:href="#linearGradient5569-3"
       id="linearGradient5575-6"
       x1="0"
       y1="964.36218"
       x2="0"
       y2="973.36218"
       gradientUnits="userSpaceOnUse" />
    <linearGradient
       id="linearGradient5569-3">
      <stop
         style="stop-color:#404040;stop-opacity:1;"
         offset="0"
         id="stop5571-9" />
      <stop
         id="stop5577-4"
         offset="0.5"
         style="stop-color:#000000;stop-opacity:1;" />
      <stop
         style="stop-color:#e0e0e0;stop-opacity:1;"
         offset="1"
         id="stop5573-8" />
    </linearGradient>
    <linearGradient
       inkscape:collect="always"
       xlink:href="#linearGradient5569-1"
       id="linearGradient8006-2"
       gradientUnits="userSpaceOnUse"
       gradientTransform="matrix(1.0079177,0,0,0.6394415,-0.09501249,389.83146)"
       x1="0"
       y1="964.36218"
       x2="0"
       y2="973.36218" />
    <linearGradient
       id="linearGradient5569-1">
      <stop
         style="stop-color:#404040;stop-opacity:1;"
         offset="0"
         id="stop5571-0" />
      <stop
         id="stop5577-5"
         offset="0.5"
         style="stop-color:#000000;stop-opacity:1;" />
      <stop
         style="stop-color:#e0e0e0;stop-opacity:1;"
         offset="1"
         id="stop5573-1" />
    </linearGradient>
    <linearGradient
       inkscape:collect="always"
       xlink:href="#linearGradient5569-1"
       id="linearGradient8025"
       gradientUnits="userSpaceOnUse"
       gradientTransform="matrix(1.0079177,0,0,0.6394415,-0.09501249,389.83146)"
       x1="0"
       y1="964.36218"
       x2="0"
       y2="973.36218" />
    <linearGradient
       id="linearGradient8027">
      <stop
         style="stop-color:#404040;stop-opacity:1;"
         offset="0"
         id="stop8029" />
      <stop
         id="stop8031"
         offset="0.5"
         style="stop-color:#000000;stop-opacity:1;" />
      <stop
         style="stop-color:#e0e0e0;stop-opacity:1;"
         offset="1"
         id="stop8033" />
    </linearGradient>
    <linearGradient
       inkscape:collect="always"
       xlink:href="#linearGradient5569-1"
       id="linearGradient8035"
       gradientUnits="userSpaceOnUse"
       gradientTransform="matrix(1.0079177,0,0,0.6394415,-0.09501249,389.83146)"
       x1="0"
       y1="964.36218"
       x2="0"
       y2="973.36218" />
    <linearGradient
       id="linearGradient8037">
      <stop
         style="stop-color:#404040;stop-opacity:1;"
         offset="0"
         id="stop8039" />
      <stop
         id="stop8041"
         offset="0.5"
         style="stop-color:#000000;stop-opacity:1;" />
      <stop
         style="stop-color:#e0e0e0;stop-opacity:1;"
         offset="1"
         id="stop8043" />
    </linearGradient>
    <linearGradient
       inkscape:collect="always"
       xlink:href="#linearGradient5569-1"
       id="linearGradient8045"
       gradientUnits="userSpaceOnUse"
       gradientTransform="matrix(1.0079177,0,0,0.6394415,-0.09501249,389.83146)"
       x1="0"
       y1="964.36218"
       x2="0"
       y2="973.36218" />
    <linearGradient
       id="linearGradient8047">
      <stop
         style="stop-color:#404040;stop-opacity:1;"
         offset="0"
         id="stop8049" />
      <stop
         id="stop8051"
         offset="0.5"
         style="stop-color:#000000;stop-opacity:1;" />
      <stop
         style="stop-color:#e0e0e0;stop-opacity:1;"
         offset="1"
         id="stop8053" />
    </linearGradient>
    <linearGradient
       inkscape:collect="always"
       xlink:href="#linearGradient5569-1"
       id="linearGradient8055"
       gradientUnits="userSpaceOnUse"
       gradientTransform="matrix(1.0079177,0,0,0.6394415,-0.09501249,389.83146)"
       x1="0"
       y1="964.36218"
       x2="0"
       y2="973.36218" />
    <linearGradient
       id="linearGradient8057">
      <stop
         style="stop-color:#404040;stop-opacity:1;"
         offset="0"
         id="stop8059" />
      <stop
         id="stop8061"
         offset="0.5"
         style="stop-color:#000000;stop-opacity:1;" />
      <stop
         style="stop-color:#e0e0e0;stop-opacity:1;"
         offset="1"
         id="stop8063" />
    </linearGradient>
    <linearGradient
       y2="973.36218"
       x2="0"
       y1="964.36218"
       x1="0"
       gradientTransform="matrix(1.0079177,0,0,0.6394415,-0.09501249,389.83146)"
       gradientUnits="userSpaceOnUse"
       id="linearGradient8070"
       xlink:href="#linearGradient5569-1"
       inkscape:collect="always" />
    <linearGradient
       inkscape:collect="always"
       xlink:href="#linearGradient5569-1"
       id="linearGradient8147"
       gradientUnits="userSpaceOnUse"
       gradientTransform="matrix(1.0079177,0,0,0.6394415,-0.09501249,3327.9181)"
       x1="0"
       y1="964.36218"
       x2="0"
       y2="973.36218" />
    <linearGradient
       inkscape:collect="always"
       xlink:href="#linearGradient5569-4"
       id="linearGradient8006-6"
       gradientUnits="userSpaceOnUse"
       gradientTransform="matrix(1.0079177,0,0,0.6394415,-0.09501249,389.83146)"
       x1="0"
       y1="964.36218"
       x2="0"
       y2="973.36218" />
    <linearGradient
       id="linearGradient5569-4">
      <stop
         style="stop-color:#404040;stop-opacity:1;"
         offset="0"
         id="stop5571-6" />
      <stop
         id="stop5577-2"
         offset="0.5"
         style="stop-color:#000000;stop-opacity:1;" />
      <stop
         style="stop-color:#e0e0e0;stop-opacity:1;"
         offset="1"
         id="stop5573-5" />
    </linearGradient>
    <linearGradient
       inkscape:collect="always"
       xlink:href="#linearGradient5569-4"
       id="linearGradient8164"
       gradientUnits="userSpaceOnUse"
       gradientTransform="matrix(1.0079177,0,0,0.6394415,-0.09501249,389.83146)"
       x1="0"
       y1="964.36218"
       x2="0"
       y2="973.36218" />
    <linearGradient
       id="linearGradient8166">
      <stop
         style="stop-color:#404040;stop-opacity:1;"
         offset="0"
         id="stop8168" />
      <stop
         id="stop8170"
         offset="0.5"
         style="stop-color:#000000;stop-opacity:1;" />
      <stop
         style="stop-color:#e0e0e0;stop-opacity:1;"
         offset="1"
         id="stop8172" />
    </linearGradient>
    <linearGradient
       inkscape:collect="always"
       xlink:href="#linearGradient5569-4"
       id="linearGradient8174"
       gradientUnits="userSpaceOnUse"
       gradientTransform="matrix(1.0079177,0,0,0.6394415,-0.09501249,389.83146)"
       x1="0"
       y1="964.36218"
       x2="0"
       y2="973.36218" />
    <linearGradient
       id="linearGradient8176">
      <stop
         style="stop-color:#404040;stop-opacity:1;"
         offset="0"
         id="stop8178" />
      <stop
         id="stop8180"
         offset="0.5"
         style="stop-color:#000000;stop-opacity:1;" />
      <stop
         style="stop-color:#e0e0e0;stop-opacity:1;"
         offset="1"
         id="stop8182" />
    </linearGradient>
    <linearGradient
       y2="973.36218"
       x2="0"
       y1="964.36218"
       x1="0"
       gradientTransform="matrix(1.0079177,0,0,0.6394415,-0.09501249,389.83146)"
       gradientUnits="userSpaceOnUse"
       id="linearGradient8187"
       xlink:href="#linearGradient5569-4"
       inkscape:collect="always" />
    <linearGradient
       inkscape:collect="always"
       xlink:href="#linearGradient5569-4"
       id="linearGradient8240"
       gradientUnits="userSpaceOnUse"
       gradientTransform="matrix(1.0079177,0,0,0.6394415,-0.09501249,2348.5558)"
       x1="0"
       y1="964.36218"
       x2="0"
       y2="973.36218" />
    <linearGradient
       inkscape:collect="always"
       xlink:href="#linearGradient5569-47"
       id="linearGradient8006-8"
       gradientUnits="userSpaceOnUse"
       gradientTransform="matrix(1.0079177,0,0,0.6394415,-0.09501249,389.83146)"
       x1="0"
       y1="964.36218"
       x2="0"
       y2="973.36218" />
    <linearGradient
       id="linearGradient5569-47">
      <stop
         style="stop-color:#404040;stop-opacity:1;"
         offset="0"
         id="stop5571-2" />
      <stop
         id="stop5577-40"
         offset="0.5"
         style="stop-color:#000000;stop-opacity:1;" />
      <stop
         style="stop-color:#e0e0e0;stop-opacity:1;"
         offset="1"
         id="stop5573-62" />
    </linearGradient>
    <linearGradient
       inkscape:collect="always"
       xlink:href="#linearGradient5569-0"
       id="linearGradient8006-9"
       gradientUnits="userSpaceOnUse"
       gradientTransform="matrix(1.0079177,0,0,0.6394415,-0.09501249,389.83146)"
       x1="0"
       y1="964.36218"
       x2="0"
       y2="973.36218" />
    <linearGradient
       id="linearGradient5569-0">
      <stop
         style="stop-color:#404040;stop-opacity:1;"
         offset="0"
         id="stop5571-8" />
      <stop
         id="stop5577-1"
         offset="0.5"
         style="stop-color:#000000;stop-opacity:1;" />
      <stop
         style="stop-color:#e0e0e0;stop-opacity:1;"
         offset="1"
         id="stop5573-3" />
    </linearGradient>
    <linearGradient
       inkscape:collect="always"
       xlink:href="#linearGradient5569-34"
       id="linearGradient8006-0"
       gradientUnits="userSpaceOnUse"
       gradientTransform="matrix(1.0079177,0,0,0.6394415,-0.09501249,389.83146)"
       x1="0"
       y1="964.36218"
       x2="0"
       y2="973.36218" />
    <linearGradient
       id="linearGradient5569-34">
      <stop
         style="stop-color:#404040;stop-opacity:1;"
         offset="0"
         id="stop5571-03" />
      <stop
         id="stop5577-9"
         offset="0.5"
         style="stop-color:#000000;stop-opacity:1;" />
      <stop
         style="stop-color:#e0e0e0;stop-opacity:1;"
         offset="1"
         id="stop5573-19" />
    </linearGradient>
    <linearGradient
       inkscape:collect="always"
       xlink:href="#linearGradient5569-38"
       id="linearGradient8006-93"
       gradientUnits="userSpaceOnUse"
       gradientTransform="matrix(1.0079177,0,0,0.6394415,-0.09501249,389.83146)"
       x1="0"
       y1="964.36218"
       x2="0"
       y2="973.36218" />
    <linearGradient
       id="linearGradient5569-38">
      <stop
         style="stop-color:#404040;stop-opacity:1;"
         offset="0"
         id="stop5571-05" />
      <stop
         id="stop5577-6"
         offset="0.5"
         style="stop-color:#000000;stop-opacity:1;" />
      <stop
         style="stop-color:#e0e0e0;stop-opacity:1;"
         offset="1"
         id="stop5573-64" />
    </linearGradient>
    <linearGradient
       inkscape:collect="always"
       xlink:href="#linearGradient5569-62"
       id="linearGradient8006-04"
       gradientUnits="userSpaceOnUse"
       gradientTransform="matrix(1.0079177,0,0,0.6394415,-0.09501249,389.83146)"
       x1="0"
       y1="964.36218"
       x2="0"
       y2="973.36218" />
    <linearGradient
       id="linearGradient5569-62">
      <stop
         style="stop-color:#404040;stop-opacity:1;"
         offset="0"
         id="stop5571-67" />
      <stop
         id="stop5577-56"
         offset="0.5"
         style="stop-color:#000000;stop-opacity:1;" />
      <stop
         style="stop-color:#e0e0e0;stop-opacity:1;"
         offset="1"
         id="stop5573-9" />
    </linearGradient>
    <linearGradient
       inkscape:collect="always"
       xlink:href="#linearGradient5569-2"
       id="linearGradient8006-7"
       gradientUnits="userSpaceOnUse"
       gradientTransform="matrix(1.0079177,0,0,0.6394415,-0.09501249,389.83146)"
       x1="0"
       y1="964.36218"
       x2="0"
       y2="973.36218" />
    <linearGradient
       id="linearGradient5569-2">
      <stop
         style="stop-color:#404040;stop-opacity:1;"
         offset="0"
         id="stop5571-82" />
      <stop
         id="stop5577-99"
         offset="0.5"
         style="stop-color:#000000;stop-opacity:1;" />
      <stop
         style="stop-color:#e0e0e0;stop-opacity:1;"
         offset="1"
         id="stop5573-60" />
    </linearGradient>
    <linearGradient
       inkscape:collect="always"
       xlink:href="#linearGradient5569-13"
       id="linearGradient8006-76"
       gradientUnits="userSpaceOnUse"
       gradientTransform="matrix(1.0079177,0,0,0.6394415,-0.09501249,389.83146)"
       x1="0"
       y1="964.36218"
       x2="0"
       y2="973.36218" />
    <linearGradient
       id="linearGradient5569-13">
      <stop
         style="stop-color:#404040;stop-opacity:1;"
         offset="0"
         id="stop5571-21" />
      <stop
         id="stop5577-59"
         offset="0.5"
         style="stop-color:#000000;stop-opacity:1;" />
      <stop
         style="stop-color:#e0e0e0;stop-opacity:1;"
         offset="1"
         id="stop5573-91" />
    </linearGradient>
    <linearGradient
       inkscape:collect="always"
       xlink:href="#linearGradient5569-07"
       id="linearGradient8006-91"
       gradientUnits="userSpaceOnUse"
       gradientTransform="matrix(1.0079177,0,0,0.6394415,-0.09501249,389.83146)"
       x1="0"
       y1="964.36218"
       x2="0"
       y2="973.36218" />
    <linearGradient
       id="linearGradient5569-07">
      <stop
         style="stop-color:#404040;stop-opacity:1;"
         offset="0"
         id="stop5571-5" />
      <stop
         id="stop5577-8"
         offset="0.5"
         style="stop-color:#000000;stop-opacity:1;" />
      <stop
         style="stop-color:#e0e0e0;stop-opacity:1;"
         offset="1"
         id="stop5573-7" />
    </linearGradient>
    <linearGradient
       inkscape:collect="always"
       xlink:href="#linearGradient5569-42"
       id="linearGradient8006-80"
       gradientUnits="userSpaceOnUse"
       gradientTransform="matrix(1.0079177,0,0,0.6394415,-0.09501249,389.83146)"
       x1="0"
       y1="964.36218"
       x2="0"
       y2="973.36218" />
    <linearGradient
       id="linearGradient5569-42">
      <stop
         style="stop-color:#404040;stop-opacity:1;"
         offset="0"
         id="stop5571-96" />
      <stop
         id="stop5577-10"
         offset="0.5"
         style="stop-color:#000000;stop-opacity:1;" />
      <stop
         style="stop-color:#e0e0e0;stop-opacity:1;"
         offset="1"
         id="stop5573-4" />
    </linearGradient>
    <linearGradient
       y2="973.36218"
       x2="0"
       y1="964.36218"
       x1="0"
       gradientTransform="matrix(1.0079177,0,0,0.6394415,-0.09501249,389.83146)"
       gradientUnits="userSpaceOnUse"
       id="linearGradient8549"
       xlink:href="#linearGradient5569-42"
       inkscape:collect="always" />
    <linearGradient
       gradientTransform="translate(3.3e-6,4e-6)"
       y2="305.9375"
       x2="612.15625"
       y1="295.9375"
       x1="612.15625"
       gradientUnits="userSpaceOnUse"
       id="linearGradient4378-2"
       xlink:href="#linearGradient4347-9"
       inkscape:collect="always" />
    <linearGradient
       id="linearGradient4347-9">
      <stop
         style="stop-color:#ffffff;stop-opacity:0.75294119;"
         offset="0"
         id="stop4349-9" />
      <stop
         id="stop4355-8"
         offset="0.5"
         style="stop-color:#ffffff;stop-opacity:0.25098041;" />
      <stop
         style="stop-color:#ffffff;stop-opacity:0;"
         offset="0.5"
         id="stop4444" />
      <stop
         style="stop-color:#ffffff;stop-opacity:0;"
         offset="1"
         id="stop4351-0" />
    </linearGradient>
    <linearGradient
       y2="305.9375"
       x2="612.15625"
       y1="295.9375"
       x1="612.15625"
       gradientTransform="matrix(0.14201183,0,0,0.66666667,-87.002539,844.73978)"
       gradientUnits="userSpaceOnUse"
       id="linearGradient8587"
       xlink:href="#linearGradient4347-9"
       inkscape:collect="always" />
    <linearGradient
       y2="305.9375"
       x2="612.15625"
       y1="295.9375"
       x1="612.15625"
       gradientTransform="matrix(0.14201183,0,0,0.66666667,-87.002539,844.73978)"
       gradientUnits="userSpaceOnUse"
       id="linearGradient8587-2"
       xlink:href="#linearGradient4347-9-2"
       inkscape:collect="always" />
    <linearGradient
       id="linearGradient4347-9-2">
      <stop
         style="stop-color:#ffffff;stop-opacity:0.75294119;"
         offset="0"
         id="stop4349-9-0" />
      <stop
         id="stop4355-8-5"
         offset="0.5"
         style="stop-color:#ffffff;stop-opacity:0.25098041;" />
      <stop
         style="stop-color:#ffffff;stop-opacity:0;"
         offset="0.5"
         id="stop4444-5" />
      <stop
         style="stop-color:#ffffff;stop-opacity:0;"
         offset="1"
         id="stop4351-0-2" />
    </linearGradient>
    <linearGradient
       y2="305.9375"
       x2="612.15625"
       y1="295.9375"
       x1="612.15625"
       gradientTransform="matrix(0.14201183,0,0,0.66666667,-87.002539,835.73978)"
       gradientUnits="userSpaceOnUse"
       id="linearGradient8627"
       xlink:href="#linearGradient4347-9-2"
       inkscape:collect="always" />
    <linearGradient
       y2="305.9375"
       x2="612.15625"
       y1="295.9375"
       x1="612.15625"
       gradientTransform="matrix(0.14201183,0,0,0.66666667,-87.002539,844.73978)"
       gradientUnits="userSpaceOnUse"
       id="linearGradient8587-0"
       xlink:href="#linearGradient4347-9-28"
       inkscape:collect="always" />
    <linearGradient
       id="linearGradient4347-9-28">
      <stop
         style="stop-color:#ffffff;stop-opacity:0.75294119;"
         offset="0"
         id="stop4349-9-3" />
      <stop
         id="stop4355-8-8"
         offset="0.5"
         style="stop-color:#ffffff;stop-opacity:0.25098041;" />
      <stop
         style="stop-color:#ffffff;stop-opacity:0;"
         offset="0.5"
         id="stop4444-0" />
      <stop
         style="stop-color:#ffffff;stop-opacity:0;"
         offset="1"
         id="stop4351-0-4" />
    </linearGradient>
    <linearGradient
       y2="305.9375"
       x2="612.15625"
       y1="295.9375"
       x1="612.15625"
       gradientTransform="matrix(0.14201183,0,0,0.66666667,-87.002539,826.73978)"
       gradientUnits="userSpaceOnUse"
       id="linearGradient8627-0"
       xlink:href="#linearGradient4347-9-28"
       inkscape:collect="always" />
    <linearGradient
       y2="305.9375"
       x2="612.15625"
       y1="295.9375"
       x1="612.15625"
       gradientTransform="matrix(0.14201183,0,0,0.66666667,-87.002539,844.73978)"
       gradientUnits="userSpaceOnUse"
       id="linearGradient8587-9"
       xlink:href="#linearGradient4347-9-6"
       inkscape:collect="always" />
    <linearGradient
       id="linearGradient4347-9-6">
      <stop
         style="stop-color:#ffffff;stop-opacity:0.75294119;"
         offset="0"
         id="stop4349-9-2" />
      <stop
         id="stop4355-8-54"
         offset="0.5"
         style="stop-color:#ffffff;stop-opacity:0.25098041;" />
      <stop
         style="stop-color:#ffffff;stop-opacity:0;"
         offset="0.5"
         id="stop4444-4" />
      <stop
         style="stop-color:#ffffff;stop-opacity:0;"
         offset="1"
         id="stop4351-0-9" />
    </linearGradient>
    <linearGradient
       y2="305.9375"
       x2="612.15625"
       y1="295.9375"
       x1="612.15625"
       gradientTransform="matrix(0.14201183,0,0,0.66666667,-87.002539,817.73978)"
       gradientUnits="userSpaceOnUse"
       id="linearGradient8627-9"
       xlink:href="#linearGradient4347-9-6"
       inkscape:collect="always" />
    <linearGradient
       y2="305.9375"
       x2="612.15625"
       y1="295.9375"
       x1="612.15625"
       gradientTransform="matrix(0.14201183,0,0,0.66666667,-87.002539,844.73978)"
       gradientUnits="userSpaceOnUse"
       id="linearGradient8587-6"
       xlink:href="#linearGradient4347-9-0"
       inkscape:collect="always" />
    <linearGradient
       id="linearGradient4347-9-0">
      <stop
         style="stop-color:#ffffff;stop-opacity:0.75294119;"
         offset="0"
         id="stop4349-9-5" />
      <stop
         id="stop4355-8-0"
         offset="0.5"
         style="stop-color:#ffffff;stop-opacity:0.25098041;" />
      <stop
         style="stop-color:#ffffff;stop-opacity:0;"
         offset="0.5"
         id="stop4444-2" />
      <stop
         style="stop-color:#ffffff;stop-opacity:0;"
         offset="1"
         id="stop4351-0-94" />
    </linearGradient>
    <linearGradient
       y2="305.9375"
       x2="612.15625"
       y1="295.9375"
       x1="612.15625"
       gradientTransform="matrix(0.14201183,0,0,0.66666667,-87.002539,808.73978)"
       gradientUnits="userSpaceOnUse"
       id="linearGradient8627-3"
       xlink:href="#linearGradient4347-9-0"
       inkscape:collect="always" />
    <linearGradient
       y2="305.9375"
       x2="612.15625"
       y1="295.9375"
       x1="612.15625"
       gradientTransform="matrix(0.14201183,0,0,0.66666667,-87.002539,844.73978)"
       gradientUnits="userSpaceOnUse"
       id="linearGradient8587-1"
       xlink:href="#linearGradient4347-9-7"
       inkscape:collect="always" />
    <linearGradient
       id="linearGradient4347-9-7">
      <stop
         style="stop-color:#ffffff;stop-opacity:0.75294119;"
         offset="0"
         id="stop4349-9-4" />
      <stop
         id="stop4355-8-3"
         offset="0.5"
         style="stop-color:#ffffff;stop-opacity:0.25098041;" />
      <stop
         style="stop-color:#ffffff;stop-opacity:0;"
         offset="0.5"
         id="stop4444-1" />
      <stop
         style="stop-color:#ffffff;stop-opacity:0;"
         offset="1"
         id="stop4351-0-46" />
    </linearGradient>
    <linearGradient
       y2="305.9375"
       x2="612.15625"
       y1="295.9375"
       x1="612.15625"
       gradientTransform="matrix(0.14201183,0,0,0.66666667,-87.002539,799.73978)"
       gradientUnits="userSpaceOnUse"
       id="linearGradient8627-94"
       xlink:href="#linearGradient4347-9-7"
       inkscape:collect="always" />
    <linearGradient
       y2="305.9375"
       x2="612.15625"
       y1="295.9375"
       x1="612.15625"
       gradientTransform="matrix(0.14201183,0,0,0.66666667,-87.002539,844.73978)"
       gradientUnits="userSpaceOnUse"
       id="linearGradient8587-26"
       xlink:href="#linearGradient4347-9-4"
       inkscape:collect="always" />
    <linearGradient
       id="linearGradient4347-9-4">
      <stop
         style="stop-color:#ffffff;stop-opacity:0.75294119;"
         offset="0"
         id="stop4349-9-1" />
      <stop
         id="stop4355-8-2"
         offset="0.5"
         style="stop-color:#ffffff;stop-opacity:0.25098041;" />
      <stop
         style="stop-color:#ffffff;stop-opacity:0;"
         offset="0.5"
         id="stop4444-8" />
      <stop
         style="stop-color:#ffffff;stop-opacity:0;"
         offset="1"
         id="stop4351-0-8" />
    </linearGradient>
    <linearGradient
       y2="305.9375"
       x2="612.15625"
       y1="295.9375"
       x1="612.15625"
       gradientTransform="matrix(0.14201183,0,0,0.66666667,-87.002539,790.73978)"
       gradientUnits="userSpaceOnUse"
       id="linearGradient8627-92"
       xlink:href="#linearGradient4347-9-4"
       inkscape:collect="always" />
    <linearGradient
       y2="305.9375"
       x2="612.15625"
       y1="295.9375"
       x1="612.15625"
       gradientTransform="matrix(0.14201183,0,0,0.66666667,-87.002539,844.73978)"
       gradientUnits="userSpaceOnUse"
       id="linearGradient8587-8"
       xlink:href="#linearGradient4347-9-8"
       inkscape:collect="always" />
    <linearGradient
       id="linearGradient4347-9-8">
      <stop
         style="stop-color:#ffffff;stop-opacity:0.75294119;"
         offset="0"
         id="stop4349-9-6" />
      <stop
         id="stop4355-8-83"
         offset="0.5"
         style="stop-color:#ffffff;stop-opacity:0.25098041;" />
      <stop
         style="stop-color:#ffffff;stop-opacity:0;"
         offset="0.5"
         id="stop4444-83" />
      <stop
         style="stop-color:#ffffff;stop-opacity:0;"
         offset="1"
         id="stop4351-0-3" />
    </linearGradient>
    <linearGradient
       y2="305.9375"
       x2="612.15625"
       y1="295.9375"
       x1="612.15625"
       gradientTransform="matrix(0.14201183,0,0,0.66666667,-87.002539,781.73978)"
       gradientUnits="userSpaceOnUse"
       id="linearGradient8627-38"
       xlink:href="#linearGradient4347-9-8"
       inkscape:collect="always" />
    <linearGradient
       inkscape:collect="always"
       xlink:href="#linearGradient4347-9"
       id="linearGradient8786"
       gradientUnits="userSpaceOnUse"
       gradientTransform="matrix(0.14201183,0,0,0.66666667,-87.002539,844.73978)"
       x1="612.15625"
       y1="295.9375"
       x2="612.15625"
       y2="305.9375" />
    <linearGradient
       inkscape:collect="always"
       xlink:href="#linearGradient4347-9-2"
       id="linearGradient8788"
       gradientUnits="userSpaceOnUse"
       gradientTransform="matrix(0.14201183,0,0,0.66666667,-87.002539,835.73978)"
       x1="612.15625"
       y1="295.9375"
       x2="612.15625"
       y2="305.9375" />
    <linearGradient
       inkscape:collect="always"
       xlink:href="#linearGradient4347-9-28"
       id="linearGradient8790"
       gradientUnits="userSpaceOnUse"
       gradientTransform="matrix(0.14201183,0,0,0.66666667,-87.002539,826.73978)"
       x1="612.15625"
       y1="295.9375"
       x2="612.15625"
       y2="305.9375" />
    <linearGradient
       inkscape:collect="always"
       xlink:href="#linearGradient4347-9-6"
       id="linearGradient8792"
       gradientUnits="userSpaceOnUse"
       gradientTransform="matrix(0.14201183,0,0,0.66666667,-87.002539,817.73978)"
       x1="612.15625"
       y1="295.9375"
       x2="612.15625"
       y2="305.9375" />
    <linearGradient
       inkscape:collect="always"
       xlink:href="#linearGradient4347-9-0"
       id="linearGradient8794"
       gradientUnits="userSpaceOnUse"
       gradientTransform="matrix(0.14201183,0,0,0.66666667,-87.002539,808.73978)"
       x1="612.15625"
       y1="295.9375"
       x2="612.15625"
       y2="305.9375" />
    <linearGradient
       inkscape:collect="always"
       xlink:href="#linearGradient4347-9-7"
       id="linearGradient8796"
       gradientUnits="userSpaceOnUse"
       gradientTransform="matrix(0.14201183,0,0,0.66666667,-87.002539,799.73978)"
       x1="612.15625"
       y1="295.9375"
       x2="612.15625"
       y2="305.9375" />
    <linearGradient
       inkscape:collect="always"
       xlink:href="#linearGradient4347-9-4"
       id="linearGradient8798"
       gradientUnits="userSpaceOnUse"
       gradientTransform="matrix(0.14201183,0,0,0.66666667,-87.002539,790.73978)"
       x1="612.15625"
       y1="295.9375"
       x2="612.15625"
       y2="305.9375" />
    <linearGradient
       inkscape:collect="always"
       xlink:href="#linearGradient4347-9-8"
       id="linearGradient8800"
       gradientUnits="userSpaceOnUse"
       gradientTransform="matrix(0.14201183,0,0,0.66666667,-87.002539,781.73978)"
       x1="612.15625"
       y1="295.9375"
       x2="612.15625"
       y2="305.9375" />
    <linearGradient
       inkscape:collect="always"
       xlink:href="#linearGradient5569-1"
       id="linearGradient3185"
       gradientUnits="userSpaceOnUse"
       gradientTransform="matrix(1.0079177,0,0,0.6394415,-0.09501243,2357.556)"
       x1="0"
       y1="964.36218"
       x2="0"
       y2="973.36218" />
    <linearGradient
       inkscape:collect="always"
       xlink:href="#linearGradient5569-1"
       id="linearGradient3191"
       gradientUnits="userSpaceOnUse"
       gradientTransform="matrix(1.0079177,0,0,0.6394415,-0.09501243,2339.556)"
       x1="0"
       y1="964.36218"
       x2="0"
       y2="973.36218" />
    <linearGradient
       inkscape:collect="always"
       xlink:href="#linearGradient5569-4"
       id="linearGradient3195"
       gradientUnits="userSpaceOnUse"
       gradientTransform="matrix(1.0079177,0,0,0.6394415,-0.09501243,1360.1937)"
       x1="0"
       y1="964.36218"
       x2="0"
       y2="973.36218" />
    <linearGradient
       inkscape:collect="always"
       xlink:href="#linearGradient5569-1"
       id="linearGradient3199"
       gradientUnits="userSpaceOnUse"
       gradientTransform="matrix(1.0079177,0,0,0.6394415,-0.0950124,1351.1939)"
       x1="0"
       y1="964.36218"
       x2="0"
       y2="973.36218" />
    <linearGradient
       inkscape:collect="always"
       xlink:href="#linearGradient5569"
       id="linearGradient3554"
       gradientUnits="userSpaceOnUse"
       gradientTransform="matrix(1.0079177,0,0,0.6394415,-0.09501249,389.83146)"
       x1="0"
       y1="964.36218"
       x2="0"
       y2="973.36218" />
    <linearGradient
       inkscape:collect="always"
       xlink:href="#linearGradient5569"
       id="linearGradient3564"
       gradientUnits="userSpaceOnUse"
       gradientTransform="matrix(1.0079177,0,0,0.6394415,-0.09501249,389.83146)"
       x1="0"
       y1="964.36218"
       x2="0"
       y2="973.36218" />
    <linearGradient
       inkscape:collect="always"
       xlink:href="#linearGradient4810"
       id="linearGradient4838"
       gradientUnits="userSpaceOnUse"
       x1="28"
       y1="23.999962"
       x2="28"
       y2="24" />
    <linearGradient
       inkscape:collect="always"
       xlink:href="#linearGradient5569"
       id="linearGradient4840"
       gradientUnits="userSpaceOnUse"
       gradientTransform="matrix(3.8563806,0,0,8.1848517,1.7234322,-7893.9938)"
       x1="6.8137898"
       y1="967.39612"
       x2="7.8510323"
       y2="972.2832" />
    <linearGradient
       inkscape:collect="always"
       xlink:href="#linearGradient5569"
       id="linearGradient1101"
       gradientUnits="userSpaceOnUse"
       gradientTransform="matrix(4.0530658,0,0,8.1848517,1.6260598,-7893.9938)"
       x1="6.8137898"
       y1="967.39612"
       x2="7.8510323"
       y2="972.2832" />
  </defs>
  <sodipodi:namedview
     id="base"
     pagecolor="#808080"
     bordercolor="#666666"
     borderopacity="1.0"
     inkscape:pageopacity="0"
     inkscape:pageshadow="2"
     inkscape:zoom="2.6650069"
     inkscape:cx="92.238738"
     inkscape:cy="80.638614"
     inkscape:document-units="px"
     inkscape:current-layer="layer3"
     showgrid="true"
     inkscape:snap-bbox="true"
     inkscape:snap-nodes="false"
     fit-margin-top="0"
     fit-margin-left="0"
     fit-margin-right="0"
     fit-margin-bottom="0"
     inkscape:window-width="1920"
     inkscape:window-height="1026"
     inkscape:window-x="0"
     inkscape:window-y="0"
     inkscape:window-maximized="1"
     inkscape:object-paths="true"
     inkscape:snap-intersection-paths="false"
     inkscape:snap-smooth-nodes="true"
     inkscape:bbox-paths="true"
     inkscape:bbox-nodes="true"
     inkscape:snap-bbox-edge-midpoints="true"
     inkscape:snap-page="true"
     inkscape:snap-grids="true">
    <inkscape:grid
       type="xygrid"
       id="grid5057"
       empspacing="6"
       visible="true"
       enabled="true"
       snapvisiblegridlinesonly="true"
       originx="3"
       originy="0" />
  </sodipodi:namedview>
  <metadata
     id="metadata5054">
    <rdf:RDF>
      <cc:Work
         rdf:about="">
        <dc:format>image/svg+xml</dc:format>
        <dc:type
           rdf:resource="http://purl.org/dc/dcmitype/StillImage" />
        <dc:title></dc:title>
      </cc:Work>
    </rdf:RDF>
  </metadata>
  <g
     inkscape:label="bg"
     inkscape:groupmode="layer"
     id="layer1"
     transform="translate(2.9802005e-8,95.6377)"
     style="display:inline"
     sodipodi:insensitive="true">
    <rect
       style="fill:#20ff00;fill-opacity:1;stroke:none;stroke-width:0.28867537;stroke-miterlimit:4;stroke-dasharray:none;stroke-opacity:1"
       id="rect8828"
       width="112.00017"
       height="143.99997"
       x="-128.36253"
       y="1.490243e-08"
       transform="rotate(-90,4.931792e-5,4.931792e-5)"
       inkscape:tile-cx="46.000012"
       inkscape:tile-cy="36.000062"
       inkscape:tile-w="91.999992"
       inkscape:tile-h="72.000122"
       inkscape:tile-x0="1.6029803e-05"
       inkscape:tile-y0="5.4687496e-07" />
    <rect
       inkscape:tile-y0="5.4687496e-07"
       inkscape:tile-x0="1.6029803e-05"
       transform="rotate(-90,4.931792e-5,4.931792e-5)"
       y="1.490243e-08"
       x="-128.36253"
       height="143.99997"
       width="112.00017"
       id="use4732"
       style="fill:#20ff00;fill-opacity:1;stroke:none;stroke-width:0.28867537;stroke-miterlimit:4;stroke-dasharray:none;stroke-opacity:1" />
    <rect
       inkscape:tile-y0="5.4687496e-07"
       inkscape:tile-x0="1.6029803e-05"
       transform="rotate(-90,4.931792e-5,4.931792e-5)"
       y="1.4902435e-08"
       x="-240.3627"
       height="143.99997"
       width="112.00017"
       id="use4734"
       style="fill:#34ff00;fill-opacity:1;stroke:none;stroke-width:0.28867537;stroke-miterlimit:4;stroke-dasharray:none;stroke-opacity:1" />
    <rect
       inkscape:tile-y0="5.4687496e-07"
       inkscape:tile-x0="1.6029803e-05"
       transform="rotate(-90,4.931792e-5,4.931792e-5)"
       y="1.4902442e-08"
       x="-352.36288"
       height="143.99997"
       width="112.00017"
       id="use4736"
       style="fill:#48ff00;fill-opacity:1;stroke:none;stroke-width:0.28867537;stroke-miterlimit:4;stroke-dasharray:none;stroke-opacity:1" />
    <rect
       inkscape:tile-y0="5.4687496e-07"
       inkscape:tile-x0="1.6029803e-05"
       transform="rotate(-90,4.931792e-5,4.931792e-5)"
       y="1.4902449e-08"
       x="-464.36304"
       height="143.99997"
       width="112.00017"
       id="use4738"
       style="fill:#5cff00;fill-opacity:1;stroke:none;stroke-width:0.28867537;stroke-miterlimit:4;stroke-dasharray:none;stroke-opacity:1" />
    <rect
       inkscape:tile-y0="5.4687496e-07"
       inkscape:tile-x0="1.6029803e-05"
       transform="rotate(-90,4.931792e-5,4.931792e-5)"
       y="1.4902456e-08"
       x="-576.36316"
       height="143.99997"
       width="112.00017"
       id="use4740"
       style="fill:#71ff00;fill-opacity:1;stroke:none;stroke-width:0.28867537;stroke-miterlimit:4;stroke-dasharray:none;stroke-opacity:1" />
    <rect
       inkscape:tile-y0="5.4687496e-07"
       inkscape:tile-x0="1.6029803e-05"
       transform="rotate(-90,4.931792e-5,4.931792e-5)"
       y="1.4902463e-08"
       x="-688.3634"
       height="143.99997"
       width="112.00017"
       id="use4742"
       style="fill:#85ff00;fill-opacity:1;stroke:none;stroke-width:0.28867537;stroke-miterlimit:4;stroke-dasharray:none;stroke-opacity:1" />
    <rect
       inkscape:tile-y0="5.4687496e-07"
       inkscape:tile-x0="1.6029803e-05"
       transform="rotate(-90,4.931792e-5,4.931792e-5)"
       y="1.490247e-08"
       x="-800.36353"
       height="143.99997"
       width="112.00017"
       id="use4744"
       style="fill:#99ff00;fill-opacity:1;stroke:none;stroke-width:0.28867537;stroke-miterlimit:4;stroke-dasharray:none;stroke-opacity:1" />
    <rect
       inkscape:tile-y0="5.4687496e-07"
       inkscape:tile-x0="1.6029803e-05"
       transform="rotate(-90,4.931792e-5,4.931792e-5)"
       y="1.4902477e-08"
       x="-912.36377"
       height="143.99997"
       width="112.00017"
       id="use4746"
       style="fill:#adff00;fill-opacity:1;stroke:none;stroke-width:0.28867537;stroke-miterlimit:4;stroke-dasharray:none;stroke-opacity:1" />
    <rect
       inkscape:tile-y0="5.4687496e-07"
       inkscape:tile-x0="1.6029803e-05"
       transform="rotate(-90,4.931792e-5,4.931792e-5)"
       y="1.4902485e-08"
       x="-1024.3639"
       height="143.99997"
       width="112.00017"
       id="use4748"
       style="fill:#c2ff00;fill-opacity:1;stroke:none;stroke-width:0.28867537;stroke-miterlimit:4;stroke-dasharray:none;stroke-opacity:1" />
    <rect
       inkscape:tile-y0="5.4687496e-07"
       inkscape:tile-x0="1.6029803e-05"
       transform="rotate(-90,4.931792e-5,4.931792e-5)"
       y="1.490249e-08"
       x="-1136.3641"
       height="143.99997"
       width="112.00017"
       id="use4750"
       style="fill:#d6ff00;fill-opacity:1;stroke:none;stroke-width:0.28867537;stroke-miterlimit:4;stroke-dasharray:none;stroke-opacity:1" />
    <rect
       inkscape:tile-y0="5.4687496e-07"
       inkscape:tile-x0="1.6029803e-05"
       transform="rotate(-90,4.931792e-5,4.931792e-5)"
       y="1.4902497e-08"
       x="-1248.3641"
       height="143.99997"
       width="112.00017"
       id="use4753"
       style="fill:#eaff00;fill-opacity:1;stroke:none;stroke-width:0.28867537;stroke-miterlimit:4;stroke-dasharray:none;stroke-opacity:1" />
    <rect
       inkscape:tile-y0="5.4687496e-07"
       inkscape:tile-x0="1.6029803e-05"
       transform="rotate(-90,4.931792e-5,4.931792e-5)"
       y="1.4902504e-08"
       x="-1360.3643"
       height="143.99997"
       width="112.00017"
       id="use4755"
       style="fill:#ffff00;fill-opacity:1;stroke:none;stroke-width:0.28867537;stroke-miterlimit:4;stroke-dasharray:none;stroke-opacity:1" />
    <rect
       inkscape:tile-y0="5.4687496e-07"
       inkscape:tile-x0="1.6029803e-05"
       transform="rotate(-90,4.931792e-5,4.931792e-5)"
       y="1.4902511e-08"
       x="-1472.3644"
       height="143.99997"
       width="112.00017"
       id="use4757"
       style="fill:#ffea00;fill-opacity:1;stroke:none;stroke-width:0.28867537;stroke-miterlimit:4;stroke-dasharray:none;stroke-opacity:1" />
    <rect
       inkscape:tile-y0="5.4687496e-07"
       inkscape:tile-x0="1.6029803e-05"
       transform="rotate(-90,4.931792e-5,4.931792e-5)"
       y="1.4902518e-08"
       x="-1584.3647"
       height="143.99997"
       width="112.00017"
       id="use4759"
       style="fill:#ffd600;fill-opacity:1;stroke:none;stroke-width:0.28867537;stroke-miterlimit:4;stroke-dasharray:none;stroke-opacity:1" />
    <rect
       inkscape:tile-y0="5.4687496e-07"
       inkscape:tile-x0="1.6029803e-05"
       transform="rotate(-90,4.931792e-5,4.931792e-5)"
       y="1.4902525e-08"
       x="-1696.3647"
       height="143.99997"
       width="112.00017"
       id="use4761"
       style="fill:#ffc200;fill-opacity:1;stroke:none;stroke-width:0.28867537;stroke-miterlimit:4;stroke-dasharray:none;stroke-opacity:1" />
    <rect
       inkscape:tile-y0="5.4687496e-07"
       inkscape:tile-x0="1.6029803e-05"
       transform="rotate(-90,4.931792e-5,4.931792e-5)"
       y="1.4902533e-08"
       x="-1808.365"
       height="143.99997"
       width="112.00017"
       id="use4763"
       style="fill:#ffad00;fill-opacity:1;stroke:none;stroke-width:0.28867537;stroke-miterlimit:4;stroke-dasharray:none;stroke-opacity:1" />
    <rect
       inkscape:tile-y0="5.4687496e-07"
       inkscape:tile-x0="1.6029803e-05"
       transform="rotate(-90,4.931792e-5,4.931792e-5)"
       y="1.490254e-08"
       x="-1920.3655"
       height="143.99997"
       width="112.00017"
       id="use4765"
       style="fill:#ff9900;fill-opacity:1;stroke:none;stroke-width:0.28867537;stroke-miterlimit:4;stroke-dasharray:none;stroke-opacity:1" />
    <rect
       inkscape:tile-y0="5.4687496e-07"
       inkscape:tile-x0="1.6029803e-05"
       transform="rotate(-90,4.931792e-5,4.931792e-5)"
       y="1.4902547e-08"
       x="-2032.3652"
       height="143.99997"
       width="112.00017"
       id="use4767"
       style="fill:#ff8500;fill-opacity:1;stroke:none;stroke-width:0.28867537;stroke-miterlimit:4;stroke-dasharray:none;stroke-opacity:1" />
    <rect
       inkscape:tile-y0="5.4687496e-07"
       inkscape:tile-x0="1.6029803e-05"
       transform="rotate(-90,4.931792e-5,4.931792e-5)"
       y="1.4902552e-08"
       x="-2144.366"
       height="143.99997"
       width="112.00017"
       id="use4769"
       style="fill:#ff7100;fill-opacity:1;stroke:none;stroke-width:0.28867537;stroke-miterlimit:4;stroke-dasharray:none;stroke-opacity:1" />
    <rect
       inkscape:tile-y0="5.4687496e-07"
       inkscape:tile-x0="1.6029803e-05"
       transform="rotate(-90,4.931792e-5,4.931792e-5)"
       y="1.4902559e-08"
       x="-2256.3655"
       height="143.99997"
       width="112.00017"
       id="use4771"
       style="fill:#ff5c00;fill-opacity:1;stroke:none;stroke-width:0.28867537;stroke-miterlimit:4;stroke-dasharray:none;stroke-opacity:1" />
    <rect
       inkscape:tile-y0="5.4687496e-07"
       inkscape:tile-x0="1.6029803e-05"
       transform="rotate(-90,4.931792e-5,4.931792e-5)"
       y="1.4902566e-08"
       x="-2368.3657"
       height="143.99997"
       width="112.00017"
       id="use4773"
       style="fill:#ff4800;fill-opacity:1;stroke:none;stroke-width:0.28867537;stroke-miterlimit:4;stroke-dasharray:none;stroke-opacity:1" />
    <rect
       inkscape:tile-y0="5.4687496e-07"
       inkscape:tile-x0="1.6029803e-05"
       transform="rotate(-90,4.931792e-5,4.931792e-5)"
       y="1.4902573e-08"
       x="-2480.3662"
       height="143.99997"
       width="112.00017"
       id="use4775"
       style="fill:#ff3400;fill-opacity:1;stroke:none;stroke-width:0.28867537;stroke-miterlimit:4;stroke-dasharray:none;stroke-opacity:1" />
    <rect
       inkscape:tile-y0="5.4687496e-07"
       inkscape:tile-x0="1.6029803e-05"
       transform="rotate(-90,4.931792e-5,4.931792e-5)"
       y="1.4902581e-08"
       x="-2592.3662"
       height="143.99997"
       width="112.00017"
       id="use4777"
       style="fill:#ff2000;fill-opacity:1;stroke:none;stroke-width:0.28867537;stroke-miterlimit:4;stroke-dasharray:none;stroke-opacity:1" />
    <rect
       inkscape:tile-y0="5.4687496e-07"
       inkscape:tile-x0="1.6029803e-05"
       transform="rotate(-90,4.931792e-5,4.931792e-5)"
       y="-2.9801834e-08"
       x="-2704.3623"
       height="144"
       width="112.00016"
       id="use4777-3"
       style="display:inline;fill:#ff2088;fill-opacity:1;stroke:none;stroke-width:0.28867537;stroke-miterlimit:4;stroke-dasharray:none;stroke-opacity:1" />
    <rect
       inkscape:tile-y0="5.4687496e-07"
       inkscape:tile-x0="1.6029803e-05"
       transform="rotate(-90,4.931792e-5,4.931792e-5)"
       y="1.5243888e-05"
       x="-16.362366"
       height="143.99997"
       width="112.00017"
       id="use4732-3"
       style="display:inline;fill:#0080ff;fill-opacity:1;stroke:none;stroke-width:0.28867537;stroke-miterlimit:4;stroke-dasharray:none;stroke-opacity:1" />
  </g>
  <g
     inkscape:groupmode="layer"
     id="layer3"
     inkscape:label="value"
     transform="translate(0,1071.9999)"
     style="display:inline">
    <rect
       inkscape:tile-y0="0"
       inkscape:tile-x0="92"
       y="-959.99994"
       x="9"
       height="111.99998"
       width="135"
       id="use4778"
       style="color:#000000;display:inline;overflow:visible;visibility:visible;opacity:1;vector-effect:none;fill:#000000;fill-opacity:1;fill-rule:nonzero;stroke:none;stroke-width:4.89897966;stroke-linecap:square;stroke-linejoin:miter;stroke-miterlimit:4;stroke-dasharray:none;stroke-dashoffset:0;stroke-opacity:1;marker:none;paint-order:stroke markers fill;enable-background:accumulate" />
    <use
       x="0"
       y="0"
       inkscape:tiled-clone-of="#use4778"
       xlink:href="#use4778"
       transform="matrix(0.95555556,0,0,1,6.3999999,112)"
       id="use4747"
       width="100%"
       height="100%"
       style="stroke-width:0.64470726" />
    <use
       x="0"
       y="0"
       inkscape:tiled-clone-of="#use4778"
       xlink:href="#use4778"
       transform="matrix(0.91111111,0,0,1,12.8,223.99998)"
       id="use4749"
       width="100%"
       height="100%"
       style="stroke-width:0.64506453" />
    <use
       x="0"
       y="0"
       inkscape:tiled-clone-of="#use4778"
       xlink:href="#use4778"
       transform="matrix(0.86666666,0,0,1,19.2,335.99998)"
       id="use4752"
       width="100%"
       height="100%"
       style="stroke-width:0.64545822" />
    <use
       x="0"
       y="0"
       inkscape:tiled-clone-of="#use4778"
       xlink:href="#use4778"
       transform="matrix(0.82222224,0,0,1,25.6,447.99996)"
       id="use4754"
       width="100%"
       height="100%"
       style="stroke-width:0.64589417" />
    <use
       x="0"
       y="0"
       inkscape:tiled-clone-of="#use4778"
       xlink:href="#use4778"
       transform="matrix(0.77777778,0,0,1,32,559.99996)"
       id="use4756"
       width="100%"
       height="100%"
       style="stroke-width:0.64637965" />
    <use
       x="0"
       y="0"
       inkscape:tiled-clone-of="#use4778"
       xlink:href="#use4778"
       transform="matrix(0.73333333,0,0,1,38.4,671.99998)"
       id="use4758"
       width="100%"
       height="100%"
       style="stroke-width:0.64692348" />
    <use
       x="0"
       y="0"
       inkscape:tiled-clone-of="#use4778"
       xlink:href="#use4778"
       transform="matrix(0.6888889,0,0,1,44.8,783.99998)"
       id="use4760"
       width="100%"
       height="100%"
       style="stroke-width:0.64753693" />
    <use
       x="0"
       y="0"
       inkscape:tiled-clone-of="#use4778"
       xlink:href="#use4778"
       transform="matrix(0.64444443,0,0,1,51.2,895.99997)"
       id="use4762"
       width="100%"
       height="100%"
       style="stroke-width:0.64823443" />
    <use
       x="0"
       y="0"
       inkscape:tiled-clone-of="#use4778"
       xlink:href="#use4778"
       transform="matrix(0.6,0,0,1,57.6,1008)"
       id="use4764"
       width="100%"
       height="100%"
       style="stroke-width:0.64903414" />
    <use
       x="0"
       y="0"
       inkscape:tiled-clone-of="#use4778"
       xlink:href="#use4778"
       transform="matrix(0.55555556,0,0,1,64,1120)"
       id="use4766"
       width="100%"
       height="100%"
       style="stroke-width:0.64996064" />
    <use
       x="0"
       y="0"
       inkscape:tiled-clone-of="#use4778"
       xlink:href="#use4778"
       transform="matrix(0.51111111,0,0,1,70.4,1232)"
       id="use4768"
       width="100%"
       height="100%"
       style="stroke-width:0.65104663" />
    <use
       x="0"
       y="0"
       inkscape:tiled-clone-of="#use4778"
       xlink:href="#use4778"
       transform="matrix(0.46666667,0,0,1,76.8,1343.9999)"
       id="use4770"
       width="100%"
       height="100%"
       style="stroke-width:0.65233713" />
    <use
       x="0"
       y="0"
       inkscape:tiled-clone-of="#use4778"
       xlink:href="#use4778"
       transform="matrix(0.42222223,0,0,1,83.2,1455.9998)"
       id="use4772"
       width="100%"
       height="100%"
       style="stroke-width:0.65389585" />
    <use
       x="0"
       y="0"
       inkscape:tiled-clone-of="#use4778"
       xlink:href="#use4778"
       transform="matrix(0.37777777,0,0,1,89.6,1567.9998)"
       id="use4774"
       width="100%"
       height="100%"
       style="stroke-width:0.65581632" />
    <use
       x="0"
       y="0"
       inkscape:tiled-clone-of="#use4778"
       xlink:href="#use4778"
       transform="matrix(0.33333334,0,0,1,96,1679.9998)"
       id="use4776"
       width="100%"
       height="100%"
       style="stroke-width:0.65824068" />
    <use
       x="0"
       y="0"
       inkscape:tiled-clone-of="#use4778"
       xlink:href="#use4778"
       transform="matrix(0.28888888,0,0,1,102.4,1791.9998)"
       id="use4779"
       width="100%"
       height="100%"
       style="stroke-width:0.66139776" />
    <use
       x="0"
       y="0"
       inkscape:tiled-clone-of="#use4778"
       xlink:href="#use4778"
       transform="matrix(0.24444444,0,0,1,108.8,1903.9998)"
       id="use4781"
       width="100%"
       height="100%"
       style="stroke-width:0.66567868" />
    <use
       x="0"
       y="0"
       inkscape:tiled-clone-of="#use4778"
       xlink:href="#use4778"
       transform="matrix(0.19999999,0,0,1,115.2,2015.9998)"
       id="use4783"
       width="100%"
       height="100%"
       style="stroke-width:0.67181408" />
    <use
       x="0"
       y="0"
       inkscape:tiled-clone-of="#use4778"
       xlink:href="#use4778"
       transform="matrix(0.15555555,0,0,1,121.6,2127.9998)"
       id="use4785"
       width="100%"
       height="100%"
       style="stroke-width:0.68134385" />
    <use
       x="0"
       y="0"
       inkscape:tiled-clone-of="#use4778"
       xlink:href="#use4778"
       transform="matrix(0.11111111,0,0,1,128,2239.9998)"
       id="use4787"
       width="100%"
       height="100%"
       style="stroke-width:0.69816965" />
    <use
       x="0"
       y="0"
       inkscape:tiled-clone-of="#use4778"
       xlink:href="#use4778"
       transform="matrix(0.06666665,0,0,1,134.4,2351.9998)"
       id="use4789"
       width="100%"
       height="100%"
       style="stroke-width:0.73593539" />
    <use
       x="0"
       y="0"
       inkscape:tiled-clone-of="#use4778"
       xlink:href="#use4778"
       transform="matrix(0.0222222,0,0,1,140.8,2463.9998)"
       id="use4791"
       width="100%"
       height="100%"
       style="stroke-width:0.90133286" />
    <rect
       inkscape:tile-y0="0"
       inkscape:tile-x0="92"
       y="-1071.9999"
       x="-4.4408921e-16"
       height="111.99998"
       width="144"
       id="use4778-3"
       style="color:#000000;display:inline;overflow:visible;visibility:visible;opacity:1;vector-effect:none;fill:#000000;fill-opacity:1;fill-rule:nonzero;stroke:none;stroke-width:4.89897919;stroke-linecap:square;stroke-linejoin:miter;stroke-miterlimit:4;stroke-dasharray:none;stroke-dashoffset:0;stroke-opacity:1;marker:none;paint-order:stroke markers fill;enable-background:accumulate" />
    <use
       x="0"
       y="0"
       inkscape:tiled-clone-of="#use4778"
       xlink:href="#use4778"
       transform="matrix(0.0222222,0,0,1,140.8,2575.9998)"
       id="use4791-6"
       width="100%"
       height="100%"
       style="display:inline;stroke-width:0.90133286" />
  </g>
  <g
     inkscape:groupmode="layer"
     id="layer2"
     inkscape:label="mask"
     style="display:inline"
     transform="translate(0,1071.9999)">
    <g
       id="g4804"
       inkscape:tile-cx="48"
       inkscape:tile-cy="36"
       inkscape:tile-w="96"
       inkscape:tile-h="72"
       inkscape:tile-x0="0"
       inkscape:tile-y0="0"
       transform="matrix(1.44,0,0,1.5555555,0,-959.9999)"
       style="stroke-width:0.66815311">
      <path
         inkscape:tile-y0="0"
         inkscape:tile-x0="0"
         sodipodi:nodetypes="cccccsssssss"
         inkscape:connector-curvature="0"
         id="use4751"
         d="m 0,0 v 72 l 100,3e-6 V 0 Z m 93.75,3.857143 c 1.616061,-1.0734731 4.166667,1.2841899 4.166667,3.857143 v 55.928573 c 0,1.928572 -2.083377,3.842194 -4.166667,3.857143 L 4.1666667,68.14286 C 2.0833889,68.15781 1.1617176,65.359189 2.7777778,64.285717 Z"
         style="display:inline;fill:#000000;fill-opacity:1;fill-rule:nonzero;stroke:none;stroke-width:3.97497535;stroke-linecap:round;stroke-linejoin:round;stroke-miterlimit:4;stroke-dasharray:none;stroke-dashoffset:0;stroke-opacity:1" />
      <path
         sodipodi:nodetypes="sssssss"
         inkscape:connector-curvature="0"
         id="use5665"
         d="m 93.75,3.857143 c 1.625432,-1.0796983 4.513889,1.2857143 4.513889,3.857143 v 55.928573 c 0,1.885618 -2.430556,4.163622 -4.513889,4.178572 L 4.1666667,68.464288 c -2.083274,0.01495 -3.0143159,-3.098876 -1.3888889,-4.178571 z"
         style="fill:none;fill-opacity:1;stroke:url(#linearGradient1101);stroke-width:0.66815311;stroke-linecap:round;stroke-miterlimit:4;stroke-dasharray:none;stroke-opacity:1" />
    </g>
    <use
       x="0"
       y="0"
       inkscape:tiled-clone-of="#g4804"
       xlink:href="#g4804"
       transform="translate(0,112.00003)"
       id="use4701"
       width="100%"
       height="100%"
       style="stroke-width:0.66815311" />
    <use
       x="0"
       y="0"
       inkscape:tiled-clone-of="#g4804"
       xlink:href="#g4804"
       transform="translate(0,224.00003)"
       id="use4703"
       width="100%"
       height="100%"
       style="stroke-width:0.66815311" />
    <use
       x="0"
       y="0"
       inkscape:tiled-clone-of="#g4804"
       xlink:href="#g4804"
       transform="translate(0,336.00003)"
       id="use4705"
       width="100%"
       height="100%"
       style="stroke-width:0.66815311" />
    <use
       x="0"
       y="0"
       inkscape:tiled-clone-of="#g4804"
       xlink:href="#g4804"
       transform="translate(0,448.00003)"
       id="use4707"
       width="100%"
       height="100%"
       style="stroke-width:0.66815311" />
    <use
       x="0"
       y="0"
       inkscape:tiled-clone-of="#g4804"
       xlink:href="#g4804"
       transform="translate(0,560.00003)"
       id="use4709"
       width="100%"
       height="100%"
       style="stroke-width:0.66815311" />
    <use
       x="0"
       y="0"
       inkscape:tiled-clone-of="#g4804"
       xlink:href="#g4804"
       transform="translate(0,672.00003)"
       id="use4711"
       width="100%"
       height="100%"
       style="stroke-width:0.66815311" />
    <use
       x="0"
       y="0"
       inkscape:tiled-clone-of="#g4804"
       xlink:href="#g4804"
       transform="translate(0,784.00003)"
       id="use4713"
       width="100%"
       height="100%"
       style="stroke-width:0.66815311" />
    <use
       x="0"
       y="0"
       inkscape:tiled-clone-of="#g4804"
       xlink:href="#g4804"
       transform="translate(0,896.00003)"
       id="use4715"
       width="100%"
       height="100%"
       style="stroke-width:0.66815311" />
    <use
       x="0"
       y="0"
       inkscape:tiled-clone-of="#g4804"
       xlink:href="#g4804"
       transform="translate(0,1008)"
       id="use4717"
       width="100%"
       height="100%"
       style="stroke-width:0.66815311" />
    <use
       x="0"
       y="0"
       inkscape:tiled-clone-of="#g4804"
       xlink:href="#g4804"
       transform="translate(0,1120)"
       id="use4719"
       width="100%"
       height="100%"
       style="stroke-width:0.66815311" />
    <use
       x="0"
       y="0"
       inkscape:tiled-clone-of="#g4804"
       xlink:href="#g4804"
       transform="translate(0,1232)"
       id="use4721"
       width="100%"
       height="100%"
       style="stroke-width:0.66815311" />
    <use
       x="0"
       y="0"
       inkscape:tiled-clone-of="#g4804"
       xlink:href="#g4804"
       transform="translate(0,1344)"
       id="use4723"
       width="100%"
       height="100%"
       style="stroke-width:0.66815311" />
    <use
       x="0"
       y="0"
       inkscape:tiled-clone-of="#g4804"
       xlink:href="#g4804"
       transform="translate(0,1456)"
       id="use4725"
       width="100%"
       height="100%"
       style="stroke-width:0.66815311" />
    <use
       x="0"
       y="0"
       inkscape:tiled-clone-of="#g4804"
       xlink:href="#g4804"
       transform="translate(0,1568)"
       id="use4727"
       width="100%"
       height="100%"
       style="stroke-width:0.66815311" />
    <use
       x="0"
       y="0"
       inkscape:tiled-clone-of="#g4804"
       xlink:href="#g4804"
       transform="translate(0,1680)"
       id="use4729"
       width="100%"
       height="100%"
       style="stroke-width:0.66815311" />
    <use
       x="0"
       y="0"
       inkscape:tiled-clone-of="#g4804"
       xlink:href="#g4804"
       transform="translate(0,1792)"
       id="use4731"
       width="100%"
       height="100%"
       style="stroke-width:0.66815311" />
    <use
       x="0"
       y="0"
       inkscape:tiled-clone-of="#g4804"
       xlink:href="#g4804"
       transform="translate(0,1904)"
       id="use4733"
       width="100%"
       height="100%"
       style="stroke-width:0.66815311" />
    <use
       x="0"
       y="0"
       inkscape:tiled-clone-of="#g4804"
       xlink:href="#g4804"
       transform="translate(0,2016)"
       id="use4735"
       width="100%"
       height="100%"
       style="stroke-width:0.66815311" />
    <use
       x="0"
       y="0"
       inkscape:tiled-clone-of="#g4804"
       xlink:href="#g4804"
       transform="translate(0,2128)"
       id="use4737"
       width="100%"
       height="100%"
       style="stroke-width:0.66815311" />
    <use
       x="0"
       y="0"
       inkscape:tiled-clone-of="#g4804"
       xlink:href="#g4804"
       transform="translate(0,2240)"
       id="use4739"
       width="100%"
       height="100%"
       style="stroke-width:0.66815311" />
    <use
       x="0"
       y="0"
       inkscape:tiled-clone-of="#g4804"
       xlink:href="#g4804"
       transform="translate(0,2352)"
       id="use4741"
       width="100%"
       height="100%"
       style="stroke-width:0.66815311" />
    <use
       x="0"
       y="0"
       inkscape:tiled-clone-of="#g4804"
       xlink:href="#g4804"
       transform="translate(0,2464)"
       id="use4743"
       width="100%"
       height="100%"
       style="stroke-width:0.66815311" />
    <use
       x="0"
       y="0"
       xlink:href="#g4804"
       id="use5030"
       transform="translate(0,-112)"
       width="100%"
       height="100%"
       style="stroke-width:0.66815311" />
    <use
       x="0"
       y="0"
       xlink:href="#use4743"
       id="use4780"
       transform="translate(0,112.00001)"
       width="100%"
       height="100%"
       style="stroke-width:0.66815311" />
  </g>
</svg>
