<?xml version="1.0" encoding="UTF-8" standalone="no"?>
<!-- Created with Inkscape (http://www.inkscape.org/) -->

<svg
   xmlns:dc="http://purl.org/dc/elements/1.1/"
   xmlns:cc="http://creativecommons.org/ns#"
   xmlns:rdf="http://www.w3.org/1999/02/22-rdf-syntax-ns#"
   xmlns:svg="http://www.w3.org/2000/svg"
   xmlns="http://www.w3.org/2000/svg"
   xmlns:xlink="http://www.w3.org/1999/xlink"
   xmlns:sodipodi="http://sodipodi.sourceforge.net/DTD/sodipodi-0.dtd"
   xmlns:inkscape="http://www.inkscape.org/namespaces/inkscape"
   width="16"
   height="36"
   viewBox="0 0 4.2333332 9.5249994"
   version="1.1"
   id="svg4687"
   inkscape:version="0.92.4 (5da689c313, 2019-01-14)"
   sodipodi:docname="hold.svg"
   inkscape:export-filename="/home/tcrass/devlp/rockbox/themes/e200/cyan/playmode.png"
   inkscape:export-xdpi="96"
   inkscape:export-ydpi="96">
  <defs
     id="defs4681">
    <linearGradient
       id="linearGradient1027">
      <stop
         style="stop-color:#ffffff;stop-opacity:0.75294119;"
         offset="0"
         id="stop1019" />
      <stop
         id="stop1021"
         offset="0.37500006"
         style="stop-color:#ffffff;stop-opacity:0.25098041;" />
      <stop
         style="stop-color:#ffffff;stop-opacity:0;"
         offset="0.66666669"
         id="stop1023" />
      <stop
         style="stop-color:#ffffff;stop-opacity:0;"
         offset="1"
         id="stop1025" />
    </linearGradient>
    <inkscape:path-effect
       effect="skeletal"
       id="path-effect4720"
       is_visible="true"
       pattern="M 0,5 C 0,2.24 2.24,0 5,0 7.76,0 10,2.24 10,5 10,7.76 7.76,10 5,10 2.24,10 0,7.76 0,5 Z"
       copytype="single_stretched"
       prop_scale="0.26458332"
       scale_y_rel="false"
       spacing="0"
       normal_offset="0"
       tang_offset="0"
       prop_units="false"
       vertical_pattern="false"
       fuse_tolerance="0" />
    <linearGradient
       id="linearGradient5847">
      <stop
         style="stop-color:#ffffff;stop-opacity:0.94117647"
         offset="0"
         id="stop5839" />
      <stop
         id="stop5841"
         offset="0.5"
         style="stop-color:#ffffff;stop-opacity:0.3764706" />
      <stop
         style="stop-color:#ffffff;stop-opacity:0;"
         offset="0.50092071"
         id="stop5843" />
      <stop
         style="stop-color:#ffffff;stop-opacity:0;"
         offset="1"
         id="stop5845" />
    </linearGradient>
    <linearGradient
       id="linearGradient5835">
      <stop
         id="stop5827"
         offset="0"
         style="stop-color:#ffffff;stop-opacity:0.75294119;" />
      <stop
         style="stop-color:#ffffff;stop-opacity:0.3764706"
         offset="0.5"
         id="stop5829" />
      <stop
         id="stop5831"
         offset="0.50092071"
         style="stop-color:#ffffff;stop-opacity:0;" />
      <stop
         id="stop5833"
         offset="1"
         style="stop-color:#ffffff;stop-opacity:0;" />
    </linearGradient>
    <linearGradient
       id="linearGradient5823">
      <stop
         style="stop-color:#ffffff;stop-opacity:0.75294119;"
         offset="0"
         id="stop5815" />
      <stop
         id="stop5817"
         offset="0.5"
         style="stop-color:#ffffff;stop-opacity:0.3764706" />
      <stop
         style="stop-color:#ffffff;stop-opacity:0;"
         offset="0.59575498"
         id="stop5819" />
      <stop
         style="stop-color:#ffffff;stop-opacity:0;"
         offset="1"
         id="stop5821" />
    </linearGradient>
    <linearGradient
       id="linearGradient5811">
      <stop
         id="stop5803"
         offset="0"
         style="stop-color:#ffffff;stop-opacity:0.75294119;" />
      <stop
         style="stop-color:#ffffff;stop-opacity:0.3764706"
         offset="0.5"
         id="stop5805" />
      <stop
         id="stop5807"
         offset="0.59575498"
         style="stop-color:#ffffff;stop-opacity:0;" />
      <stop
         id="stop5809"
         offset="1"
         style="stop-color:#ffffff;stop-opacity:0;" />
    </linearGradient>
    <linearGradient
       id="linearGradient5799">
      <stop
         style="stop-color:#ffffff;stop-opacity:0.75294119;"
         offset="0"
         id="stop5791" />
      <stop
         id="stop5793"
         offset="0.5"
         style="stop-color:#ffffff;stop-opacity:0.3764706" />
      <stop
         style="stop-color:#ffffff;stop-opacity:0;"
         offset="0.59575498"
         id="stop5795" />
      <stop
         style="stop-color:#ffffff;stop-opacity:0;"
         offset="1"
         id="stop5797" />
    </linearGradient>
    <linearGradient
       id="linearGradient5787">
      <stop
         id="stop5779"
         offset="0"
         style="stop-color:#ffffff;stop-opacity:0.75294119;" />
      <stop
         style="stop-color:#ffffff;stop-opacity:0.3764706"
         offset="0.5"
         id="stop5781" />
      <stop
         id="stop5783"
         offset="0.59575498"
         style="stop-color:#ffffff;stop-opacity:0;" />
      <stop
         id="stop5785"
         offset="1"
         style="stop-color:#ffffff;stop-opacity:0;" />
    </linearGradient>
    <linearGradient
       id="linearGradient5775">
      <stop
         style="stop-color:#ffffff;stop-opacity:0.75294119;"
         offset="0"
         id="stop5767" />
      <stop
         id="stop5769"
         offset="0.5"
         style="stop-color:#ffffff;stop-opacity:0.3764706" />
      <stop
         style="stop-color:#ffffff;stop-opacity:0;"
         offset="0.59575498"
         id="stop5771" />
      <stop
         style="stop-color:#ffffff;stop-opacity:0;"
         offset="1"
         id="stop5773" />
    </linearGradient>
    <linearGradient
       id="linearGradient5763">
      <stop
         id="stop5755"
         offset="0"
         style="stop-color:#ffffff;stop-opacity:0.75294119;" />
      <stop
         style="stop-color:#ffffff;stop-opacity:0.3764706"
         offset="0.5"
         id="stop5757" />
      <stop
         id="stop5759"
         offset="0.59575498"
         style="stop-color:#ffffff;stop-opacity:0;" />
      <stop
         id="stop5761"
         offset="1"
         style="stop-color:#ffffff;stop-opacity:0;" />
    </linearGradient>
    <linearGradient
       id="linearGradient5751">
      <stop
         style="stop-color:#ffffff;stop-opacity:0.75294119;"
         offset="0"
         id="stop5743" />
      <stop
         id="stop5745"
         offset="0.5"
         style="stop-color:#ffffff;stop-opacity:0.3764706" />
      <stop
         style="stop-color:#ffffff;stop-opacity:0;"
         offset="0.59575498"
         id="stop5747" />
      <stop
         style="stop-color:#ffffff;stop-opacity:0;"
         offset="1"
         id="stop5749" />
    </linearGradient>
    <linearGradient
       id="linearGradient5739">
      <stop
         id="stop5731"
         offset="0"
         style="stop-color:#ffffff;stop-opacity:0.75294119;" />
      <stop
         style="stop-color:#ffffff;stop-opacity:0.3764706"
         offset="0.5"
         id="stop5733" />
      <stop
         id="stop5735"
         offset="0.59575498"
         style="stop-color:#ffffff;stop-opacity:0;" />
      <stop
         id="stop5737"
         offset="1"
         style="stop-color:#ffffff;stop-opacity:0;" />
    </linearGradient>
    <linearGradient
       id="linearGradient5727">
      <stop
         style="stop-color:#ffffff;stop-opacity:0.75294119;"
         offset="0"
         id="stop5719" />
      <stop
         id="stop5721"
         offset="0.5"
         style="stop-color:#ffffff;stop-opacity:0.3764706" />
      <stop
         style="stop-color:#ffffff;stop-opacity:0;"
         offset="0.59575498"
         id="stop5723" />
      <stop
         style="stop-color:#ffffff;stop-opacity:0;"
         offset="1"
         id="stop5725" />
    </linearGradient>
    <linearGradient
       id="linearGradient5715">
      <stop
         id="stop5707"
         offset="0"
         style="stop-color:#ffffff;stop-opacity:0.75294119;" />
      <stop
         style="stop-color:#ffffff;stop-opacity:0.3764706"
         offset="0.5"
         id="stop5709" />
      <stop
         id="stop5711"
         offset="0.59575498"
         style="stop-color:#ffffff;stop-opacity:0;" />
      <stop
         id="stop5713"
         offset="1"
         style="stop-color:#ffffff;stop-opacity:0;" />
    </linearGradient>
    <linearGradient
       id="linearGradient5703">
      <stop
         style="stop-color:#ffffff;stop-opacity:0.75294119;"
         offset="0"
         id="stop5695" />
      <stop
         id="stop5697"
         offset="0.5"
         style="stop-color:#ffffff;stop-opacity:0.3764706" />
      <stop
         style="stop-color:#ffffff;stop-opacity:0;"
         offset="0.59575498"
         id="stop5699" />
      <stop
         style="stop-color:#ffffff;stop-opacity:0;"
         offset="1"
         id="stop5701" />
    </linearGradient>
    <linearGradient
       id="linearGradient5691">
      <stop
         id="stop5683"
         offset="0"
         style="stop-color:#ffffff;stop-opacity:0.75294119;" />
      <stop
         style="stop-color:#ffffff;stop-opacity:0.3764706"
         offset="0.5"
         id="stop5685" />
      <stop
         id="stop5687"
         offset="0.59575498"
         style="stop-color:#ffffff;stop-opacity:0;" />
      <stop
         id="stop5689"
         offset="1"
         style="stop-color:#ffffff;stop-opacity:0;" />
    </linearGradient>
    <linearGradient
       id="linearGradient5679">
      <stop
         style="stop-color:#ffffff;stop-opacity:0.75294119;"
         offset="0"
         id="stop5671" />
      <stop
         id="stop5673"
         offset="0.5"
         style="stop-color:#ffffff;stop-opacity:0.3764706" />
      <stop
         style="stop-color:#ffffff;stop-opacity:0;"
         offset="0.59575498"
         id="stop5675" />
      <stop
         style="stop-color:#ffffff;stop-opacity:0;"
         offset="1"
         id="stop5677" />
    </linearGradient>
    <linearGradient
       id="linearGradient5667">
      <stop
         id="stop5659"
         offset="0"
         style="stop-color:#ffffff;stop-opacity:0.75294119;" />
      <stop
         style="stop-color:#ffffff;stop-opacity:0.3764706"
         offset="0.5"
         id="stop5661" />
      <stop
         id="stop5663"
         offset="0.59575498"
         style="stop-color:#ffffff;stop-opacity:0;" />
      <stop
         id="stop5665"
         offset="1"
         style="stop-color:#ffffff;stop-opacity:0;" />
    </linearGradient>
    <linearGradient
       id="linearGradient5655">
      <stop
         style="stop-color:#ffffff;stop-opacity:0.75294119;"
         offset="0"
         id="stop5647" />
      <stop
         id="stop5649"
         offset="0.5"
         style="stop-color:#ffffff;stop-opacity:0.3764706" />
      <stop
         style="stop-color:#ffffff;stop-opacity:0;"
         offset="0.59575498"
         id="stop5651" />
      <stop
         style="stop-color:#ffffff;stop-opacity:0;"
         offset="1"
         id="stop5653" />
    </linearGradient>
    <linearGradient
       id="linearGradient5643">
      <stop
         id="stop5635"
         offset="0"
         style="stop-color:#ffffff;stop-opacity:0.75294119;" />
      <stop
         style="stop-color:#ffffff;stop-opacity:0.3764706"
         offset="0.5"
         id="stop5637" />
      <stop
         id="stop5639"
         offset="0.59575498"
         style="stop-color:#ffffff;stop-opacity:0;" />
      <stop
         id="stop5641"
         offset="1"
         style="stop-color:#ffffff;stop-opacity:0;" />
    </linearGradient>
    <linearGradient
       id="linearGradient5631">
      <stop
         style="stop-color:#ffffff;stop-opacity:0.75294119;"
         offset="0"
         id="stop5623" />
      <stop
         id="stop5625"
         offset="0.5"
         style="stop-color:#ffffff;stop-opacity:0.3764706" />
      <stop
         style="stop-color:#ffffff;stop-opacity:0;"
         offset="0.59575498"
         id="stop5627" />
      <stop
         style="stop-color:#ffffff;stop-opacity:0;"
         offset="1"
         id="stop5629" />
    </linearGradient>
    <linearGradient
       id="linearGradient5619">
      <stop
         id="stop5611"
         offset="0"
         style="stop-color:#ffffff;stop-opacity:0.75294119;" />
      <stop
         style="stop-color:#ffffff;stop-opacity:0.3764706"
         offset="0.5"
         id="stop5613" />
      <stop
         id="stop5615"
         offset="0.59575498"
         style="stop-color:#ffffff;stop-opacity:0;" />
      <stop
         id="stop5617"
         offset="1"
         style="stop-color:#ffffff;stop-opacity:0;" />
    </linearGradient>
    <linearGradient
       id="linearGradient5607">
      <stop
         style="stop-color:#ffffff;stop-opacity:0.75294119;"
         offset="0"
         id="stop5599" />
      <stop
         id="stop5601"
         offset="0.5"
         style="stop-color:#ffffff;stop-opacity:0.3764706" />
      <stop
         style="stop-color:#ffffff;stop-opacity:0;"
         offset="0.59575498"
         id="stop5603" />
      <stop
         style="stop-color:#ffffff;stop-opacity:0;"
         offset="1"
         id="stop5605" />
    </linearGradient>
    <linearGradient
       id="linearGradient5595">
      <stop
         id="stop5587"
         offset="0"
         style="stop-color:#ffffff;stop-opacity:0.75294119;" />
      <stop
         style="stop-color:#ffffff;stop-opacity:0.25098041;"
         offset="0.5"
         id="stop5589" />
      <stop
         id="stop5591"
         offset="0.5"
         style="stop-color:#ffffff;stop-opacity:0;" />
      <stop
         id="stop5593"
         offset="1"
         style="stop-color:#ffffff;stop-opacity:0;" />
    </linearGradient>
    <linearGradient
       id="linearGradient5583">
      <stop
         style="stop-color:#ffffff;stop-opacity:0.75294119;"
         offset="0"
         id="stop5575" />
      <stop
         id="stop5577"
         offset="0.5"
         style="stop-color:#ffffff;stop-opacity:0.25098041;" />
      <stop
         style="stop-color:#ffffff;stop-opacity:0;"
         offset="0.5"
         id="stop5579" />
      <stop
         style="stop-color:#ffffff;stop-opacity:0;"
         offset="1"
         id="stop5581" />
    </linearGradient>
    <linearGradient
       id="linearGradient5571">
      <stop
         id="stop5563"
         offset="0"
         style="stop-color:#ffffff;stop-opacity:0.75294119;" />
      <stop
         style="stop-color:#ffffff;stop-opacity:0.25098041;"
         offset="0.5"
         id="stop5565" />
      <stop
         id="stop5567"
         offset="0.5"
         style="stop-color:#ffffff;stop-opacity:0;" />
      <stop
         id="stop5569"
         offset="1"
         style="stop-color:#ffffff;stop-opacity:0;" />
    </linearGradient>
    <linearGradient
       id="linearGradient5559">
      <stop
         style="stop-color:#ffffff;stop-opacity:0.75294119;"
         offset="0"
         id="stop5551" />
      <stop
         id="stop5553"
         offset="0.5"
         style="stop-color:#ffffff;stop-opacity:0.25098041;" />
      <stop
         style="stop-color:#ffffff;stop-opacity:0;"
         offset="0.5"
         id="stop5555" />
      <stop
         style="stop-color:#ffffff;stop-opacity:0;"
         offset="1"
         id="stop5557" />
    </linearGradient>
    <linearGradient
       id="linearGradient5547">
      <stop
         id="stop5539"
         offset="0"
         style="stop-color:#ffffff;stop-opacity:0.75294119;" />
      <stop
         style="stop-color:#ffffff;stop-opacity:0.25098041;"
         offset="0.5"
         id="stop5541" />
      <stop
         id="stop5543"
         offset="0.5"
         style="stop-color:#ffffff;stop-opacity:0;" />
      <stop
         id="stop5545"
         offset="1"
         style="stop-color:#ffffff;stop-opacity:0;" />
    </linearGradient>
    <linearGradient
       id="linearGradient5535">
      <stop
         style="stop-color:#ffffff;stop-opacity:0.75294119;"
         offset="0"
         id="stop5527" />
      <stop
         id="stop5529"
         offset="0.5"
         style="stop-color:#ffffff;stop-opacity:0.25098041;" />
      <stop
         style="stop-color:#ffffff;stop-opacity:0;"
         offset="0.5"
         id="stop5531" />
      <stop
         style="stop-color:#ffffff;stop-opacity:0;"
         offset="1"
         id="stop5533" />
    </linearGradient>
    <linearGradient
       id="linearGradient5523">
      <stop
         id="stop5515"
         offset="0"
         style="stop-color:#ffffff;stop-opacity:0.75294119;" />
      <stop
         style="stop-color:#ffffff;stop-opacity:0.25098041;"
         offset="0.5"
         id="stop5517" />
      <stop
         id="stop5519"
         offset="0.5"
         style="stop-color:#ffffff;stop-opacity:0;" />
      <stop
         id="stop5521"
         offset="1"
         style="stop-color:#ffffff;stop-opacity:0;" />
    </linearGradient>
    <linearGradient
       id="linearGradient5511">
      <stop
         style="stop-color:#ffffff;stop-opacity:0.75294119;"
         offset="0"
         id="stop5503" />
      <stop
         id="stop5505"
         offset="0.5"
         style="stop-color:#ffffff;stop-opacity:0.25098041;" />
      <stop
         style="stop-color:#ffffff;stop-opacity:0;"
         offset="0.5"
         id="stop5507" />
      <stop
         style="stop-color:#ffffff;stop-opacity:0;"
         offset="1"
         id="stop5509" />
    </linearGradient>
    <linearGradient
       id="linearGradient5499">
      <stop
         id="stop5491"
         offset="0"
         style="stop-color:#ffffff;stop-opacity:0.75294119;" />
      <stop
         style="stop-color:#ffffff;stop-opacity:0.25098041;"
         offset="0.5"
         id="stop5493" />
      <stop
         id="stop5495"
         offset="0.5"
         style="stop-color:#ffffff;stop-opacity:0;" />
      <stop
         id="stop5497"
         offset="1"
         style="stop-color:#ffffff;stop-opacity:0;" />
    </linearGradient>
    <linearGradient
       id="linearGradient5487">
      <stop
         style="stop-color:#ffffff;stop-opacity:0.75294119;"
         offset="0"
         id="stop5479" />
      <stop
         id="stop5481"
         offset="0.5"
         style="stop-color:#ffffff;stop-opacity:0.25098041;" />
      <stop
         style="stop-color:#ffffff;stop-opacity:0;"
         offset="0.5"
         id="stop5483" />
      <stop
         style="stop-color:#ffffff;stop-opacity:0;"
         offset="1"
         id="stop5485" />
    </linearGradient>
    <linearGradient
       id="linearGradient5475">
      <stop
         id="stop5467"
         offset="0"
         style="stop-color:#ffffff;stop-opacity:0.75294119;" />
      <stop
         style="stop-color:#ffffff;stop-opacity:0.25098041;"
         offset="0.5"
         id="stop5469" />
      <stop
         id="stop5471"
         offset="0.5"
         style="stop-color:#ffffff;stop-opacity:0;" />
      <stop
         id="stop5473"
         offset="1"
         style="stop-color:#ffffff;stop-opacity:0;" />
    </linearGradient>
    <linearGradient
       id="linearGradient5463">
      <stop
         style="stop-color:#ffffff;stop-opacity:0.75294119;"
         offset="0"
         id="stop5455" />
      <stop
         id="stop5457"
         offset="0.5"
         style="stop-color:#ffffff;stop-opacity:0.25098041;" />
      <stop
         style="stop-color:#ffffff;stop-opacity:0;"
         offset="0.5"
         id="stop5459" />
      <stop
         style="stop-color:#ffffff;stop-opacity:0;"
         offset="1"
         id="stop5461" />
    </linearGradient>
    <linearGradient
       id="linearGradient5451">
      <stop
         id="stop5443"
         offset="0"
         style="stop-color:#ffffff;stop-opacity:0.75294119;" />
      <stop
         style="stop-color:#ffffff;stop-opacity:0.25098041;"
         offset="0.5"
         id="stop5445" />
      <stop
         id="stop5447"
         offset="0.5"
         style="stop-color:#ffffff;stop-opacity:0;" />
      <stop
         id="stop5449"
         offset="1"
         style="stop-color:#ffffff;stop-opacity:0;" />
    </linearGradient>
    <linearGradient
       id="linearGradient5439">
      <stop
         style="stop-color:#ffffff;stop-opacity:0.75294119;"
         offset="0"
         id="stop5431" />
      <stop
         id="stop5433"
         offset="0.5"
         style="stop-color:#ffffff;stop-opacity:0.25098041;" />
      <stop
         style="stop-color:#ffffff;stop-opacity:0;"
         offset="0.5"
         id="stop5435" />
      <stop
         style="stop-color:#ffffff;stop-opacity:0;"
         offset="1"
         id="stop5437" />
    </linearGradient>
    <linearGradient
       id="linearGradient5427">
      <stop
         id="stop5419"
         offset="0"
         style="stop-color:#ffffff;stop-opacity:0.75294119;" />
      <stop
         style="stop-color:#ffffff;stop-opacity:0.25098041;"
         offset="0.5"
         id="stop5421" />
      <stop
         id="stop5423"
         offset="0.5"
         style="stop-color:#ffffff;stop-opacity:0;" />
      <stop
         id="stop5425"
         offset="1"
         style="stop-color:#ffffff;stop-opacity:0;" />
    </linearGradient>
    <linearGradient
       id="linearGradient5415">
      <stop
         style="stop-color:#ffffff;stop-opacity:0.75294119;"
         offset="0"
         id="stop5407" />
      <stop
         id="stop5409"
         offset="0.5"
         style="stop-color:#ffffff;stop-opacity:0.25098041;" />
      <stop
         style="stop-color:#ffffff;stop-opacity:0;"
         offset="0.5"
         id="stop5411" />
      <stop
         style="stop-color:#ffffff;stop-opacity:0;"
         offset="1"
         id="stop5413" />
    </linearGradient>
    <linearGradient
       id="linearGradient5403">
      <stop
         id="stop5395"
         offset="0"
         style="stop-color:#ffffff;stop-opacity:0.75294119;" />
      <stop
         style="stop-color:#ffffff;stop-opacity:0.25098041;"
         offset="0.37500331"
         id="stop5397" />
      <stop
         id="stop5399"
         offset="0.66666669"
         style="stop-color:#ffffff;stop-opacity:0;" />
      <stop
         id="stop5401"
         offset="1"
         style="stop-color:#ffffff;stop-opacity:0;" />
    </linearGradient>
    <linearGradient
       id="linearGradient4347-9">
      <stop
         style="stop-color:#ffffff;stop-opacity:0.1882353"
         offset="0"
         id="stop4349-9" />
      <stop
         id="stop4355-8"
         offset="0.24999999"
         style="stop-color:#ffffff;stop-opacity:0.25098041;" />
      <stop
         style="stop-color:#ffffff;stop-opacity:0;"
         offset="0.42857137"
         id="stop4444" />
      <stop
         style="stop-color:#ffffff;stop-opacity:0;"
         offset="1"
         id="stop4351-0" />
    </linearGradient>
    <linearGradient
       inkscape:collect="always"
       xlink:href="#linearGradient1027"
       id="linearGradient1082"
       x1="0.52916664"
       y1="2.9104159"
       x2="3.7041667"
       y2="5.0270824"
       gradientUnits="userSpaceOnUse" />
    <linearGradient
       inkscape:collect="always"
       xlink:href="#linearGradient5403"
       id="linearGradient1133"
       x1="0.52916664"
       y1="279.27289"
       x2="3.7041667"
       y2="281.38956"
       gradientUnits="userSpaceOnUse" />
  </defs>
  <sodipodi:namedview
     id="base"
     pagecolor="#808080"
     bordercolor="#666666"
     borderopacity="1.0"
     inkscape:pageopacity="0"
     inkscape:pageshadow="2"
     inkscape:zoom="17.666667"
     inkscape:cx="4.3936498"
     inkscape:cy="20.17098"
     inkscape:document-units="mm"
     inkscape:current-layer="layer1"
     showgrid="true"
     units="px"
     showguides="false"
     inkscape:window-width="1920"
     inkscape:window-height="1012"
     inkscape:window-x="0"
     inkscape:window-y="0"
     inkscape:window-maximized="1"
     inkscape:snap-nodes="true"
     inkscape:snap-bbox="true"
     inkscape:bbox-nodes="true"
     inkscape:bbox-paths="true"
     fit-margin-top="0"
     fit-margin-left="0"
     fit-margin-right="0"
     fit-margin-bottom="0"
     inkscape:snap-intersection-paths="true"
     inkscape:snap-smooth-nodes="true">
    <inkscape:grid
       type="xygrid"
       id="grid5232"
       empspacing="4"
       originx="0"
       originy="-9.5249993" />
    <sodipodi:guide
       position="-8.9958327,5.2916683"
       orientation="1,0"
       id="guide5243"
       inkscape:locked="false" />
  </sodipodi:namedview>
  <metadata
     id="metadata4684">
    <rdf:RDF>
      <cc:Work
         rdf:about="">
        <dc:format>image/svg+xml</dc:format>
        <dc:type
           rdf:resource="http://purl.org/dc/dcmitype/StillImage" />
        <dc:title />
      </cc:Work>
    </rdf:RDF>
  </metadata>
  <g
     inkscape:groupmode="layer"
     id="layer2"
     inkscape:label="bg"
     transform="translate(0,3.1749961)">
    <rect
       style="color:#000000;display:inline;overflow:visible;visibility:visible;opacity:1;vector-effect:none;fill:#000000;fill-opacity:1;fill-rule:nonzero;stroke:none;stroke-width:1.71420014;stroke-linecap:square;stroke-linejoin:miter;stroke-miterlimit:4;stroke-dasharray:none;stroke-dashoffset:0;stroke-opacity:1;marker:none;paint-order:stroke markers fill;enable-background:accumulate"
       id="rect5245"
       width="4.2333336"
       height="9.5250006"
       x="0"
       y="-3.1749969" />
  </g>
  <g
     inkscape:label="icons"
     inkscape:groupmode="layer"
     id="layer1"
     transform="translate(0,-277.94998)">
    <path
       style="fill:#ff2000;fill-opacity:1;fill-rule:evenodd;stroke:none;stroke-width:0.99999994px;stroke-linecap:butt;stroke-linejoin:miter;stroke-opacity:1"
       d="M 7.9316406 20 C 5.8630345 19.999357 4 20.999987 4 23 L 4 26 L 2 26 L 2 31.142578 C 2 33.059214 6.3333334 35 8 35 C 9.6666666 35 14 33.059214 14 31.142578 L 14 26 L 12 26 C 11.999654 25.342959 11.998894 24.497458 12 23 C 12.001474 21.003389 10.000247 20.000643 7.9316406 20 z M 7.9316406 22 C 9.0002461 21.999962 9.9980335 22.496233 10 23.5 C 10.001405 24.216706 10.000459 25.21362 10 26 L 6 26 C 6.000574 25.21362 6.0017578 24.216706 6 23.5 C 5.9975391 22.496611 6.8630351 22.000038 7.9316406 22 z M 8 27.5 A 1.5 1.5 0 0 1 9.5 29 A 1.5 1.5 0 0 1 9 30.115234 L 9 33 L 7 33 L 7.8359375 30.490234 A 1.5 1.5 0 0 1 6.5 29 A 1.5 1.5 0 0 1 8 27.5 z "
       transform="matrix(0.26458333,0,0,0.26458333,0,277.94998)"
       id="path4716-3" />
    <path
       style="fill:#20ff00;fill-opacity:1;fill-rule:evenodd;stroke:none;stroke-width:0.99999994px;stroke-linecap:butt;stroke-linejoin:miter;stroke-opacity:1"
       d="M 8,1 C 5.9313939,0.99935748 4,1.9999874 4,4 V 8 H 2 v 5.142578 C 2,15.059214 6.3333334,17 8,17 c 1.6666666,0 6,-1.940786 6,-3.857422 V 8 H 6.015625 C 6.0346042,7.021349 6.0702701,5.2804122 6.0683594,4.5 6.0658981,3.496611 6.9313941,3.0000378 8,3 c 1.0686055,-3.78e-5 1.9980335,0.4962331 2,1.5 0.002,1.003389 0,1.5 0,1.5 L 12,5.5000001 V 4 C 12,2.003389 10.068608,1.0006425 8,1 Z m 0,8.5 c 0.8284271,0 1.5,0.671573 1.5,1.5 -7.956e-4,0.425867 -0.1825759,0.831323 -0.5,1.115234 V 15 H 7 L 7.8359375,12.490234 C 7.0758848,12.406602 6.5003909,11.76464 6.5,11 6.5,10.171573 7.1715729,9.5 8,9.5 Z"
       transform="matrix(0.26458333,0,0,0.26458333,0,277.94998)"
       id="path4716-3-3"
       inkscape:connector-curvature="0"
       sodipodi:nodetypes="ssccssscccscccsssccccccs" />
    <path
       style="fill:url(#linearGradient1133);fill-opacity:1;fill-rule:evenodd;stroke:none;stroke-width:0.26458332px;stroke-linecap:butt;stroke-linejoin:miter;stroke-opacity:1"
       d="m 2.1166666,278.21457 c -0.5473187,-1.7e-4 -1.0583333,0.26458 -1.0583333,0.79375 v 1.05833 H 0.52916667 v 1.36064 c 0,0.50711 1.14652773,1.02061 1.58749993,1.02061 0.4409722,0 1.5875,-0.5135 1.5875,-1.02061 v -1.36064 H 1.591634 c 0.00502,-0.25893 0.014458,-0.71955 0.013953,-0.92604 -6.509e-4,-0.26548 0.2283446,-0.39686 0.5110799,-0.39687 0.2827352,-10e-6 0.5286464,0.13129 0.5291667,0.39687 5.291e-4,0.26548 0,0.39688 0,0.39688 l 0.5291667,-0.13229 v -0.39688 c 0,-0.52827 -0.5110141,-0.79358 -1.0583337,-0.79375 z m 0,2.24896 c 0.219188,0 0.396875,0.17769 0.396875,0.39687 -2.105e-4,0.11268 -0.048307,0.21996 -0.1322917,0.29508 v 0.76326 H 1.8520833 l 0.2211751,-0.66405 c -0.2010973,-0.0221 -0.3533634,-0.19198 -0.3534668,-0.39429 0,-0.21918 0.177687,-0.39687 0.396875,-0.39687 z"
       id="path4716-3-3-2"
       inkscape:connector-curvature="0"
       sodipodi:nodetypes="ssccssscccscccsssccccccs" />
  </g>
  <g
     inkscape:groupmode="layer"
     id="layer3"
     inkscape:label="gloss"
     transform="translate(0,3.175)">
    <path
       inkscape:connector-curvature="0"
       style="fill:url(#linearGradient1082);fill-opacity:1;fill-rule:evenodd;stroke:none;stroke-width:0.26458332px;stroke-linecap:butt;stroke-linejoin:miter;stroke-opacity:1"
       d="M 2.0985799,2.1166666 C 1.5512612,2.1164965 1.0583333,2.3812465 1.0583333,2.9104166 v 0.79375 H 0.52916667 v 1.3606405 c 0,0.5071099 1.14652783,1.0206095 1.58750003,1.0206095 0.4409722,0 1.5875,-0.5134996 1.5875,-1.0206095 V 3.7041666 H 3.175 c -9.15e-5,-0.1738421 -2.91e-4,-0.3975475 0,-0.79375 3.969e-4,-0.52827 -0.5291013,-0.7935798 -1.0764201,-0.79375 z m 0,0.5291667 c 0.2827352,-1.01e-5 0.5467332,0.131295 0.5472535,0.396875 3.704e-4,0.1896285 1.214e-4,0.4533953 0,0.6614583 H 1.5875 c 1.519e-4,-0.208063 4.657e-4,-0.4718298 0,-0.6614583 -6.508e-4,-0.26548 0.2283447,-0.3968649 0.5110799,-0.396875 z m 0.018087,1.4552083 A 0.396875,0.396875 0 0 1 2.5135417,4.4979166 0.396875,0.396875 0 0 1 2.38125,4.792989 V 5.55625 H 1.8520834 L 2.0732585,4.8922077 A 0.396875,0.396875 0 0 1 1.7197917,4.4979166 0.396875,0.396875 0 0 1 2.1166667,4.1010416 Z"
       id="path4716-3-7" />
  </g>
</svg>
