<?xml version="1.0" encoding="UTF-8" standalone="no"?>
<!-- Created with Inkscape (http://www.inkscape.org/) -->

<svg
   xmlns:dc="http://purl.org/dc/elements/1.1/"
   xmlns:cc="http://creativecommons.org/ns#"
   xmlns:rdf="http://www.w3.org/1999/02/22-rdf-syntax-ns#"
   xmlns:svg="http://www.w3.org/2000/svg"
   xmlns="http://www.w3.org/2000/svg"
   xmlns:xlink="http://www.w3.org/1999/xlink"
   xmlns:sodipodi="http://sodipodi.sourceforge.net/DTD/sodipodi-0.dtd"
   xmlns:inkscape="http://www.inkscape.org/namespaces/inkscape"
   width="12"
   height="24"
   viewBox="0 0 3.1749999 6.3499996"
   version="1.1"
   id="svg4687"
   inkscape:version="0.92.1 r15371"
   sodipodi:docname="repeat.svg"
   inkscape:export-filename="/home/tcrass/devlp/rockbox/themes/e200/cyan/playmode.png"
   inkscape:export-xdpi="96"
   inkscape:export-ydpi="96">
  <defs
     id="defs4681">
    <inkscape:path-effect
       effect="skeletal"
       id="path-effect4720"
       is_visible="true"
       pattern="M 0,5 C 0,2.24 2.24,0 5,0 7.76,0 10,2.24 10,5 10,7.76 7.76,10 5,10 2.24,10 0,7.76 0,5 Z"
       copytype="single_stretched"
       prop_scale="0.26458332"
       scale_y_rel="false"
       spacing="0"
       normal_offset="0"
       tang_offset="0"
       prop_units="false"
       vertical_pattern="false"
       fuse_tolerance="0" />
    <linearGradient
       id="linearGradient5847">
      <stop
         style="stop-color:#ffffff;stop-opacity:0.94117647"
         offset="0"
         id="stop5839" />
      <stop
         id="stop5841"
         offset="0.5"
         style="stop-color:#ffffff;stop-opacity:0.3764706" />
      <stop
         style="stop-color:#ffffff;stop-opacity:0;"
         offset="0.50092071"
         id="stop5843" />
      <stop
         style="stop-color:#ffffff;stop-opacity:0;"
         offset="1"
         id="stop5845" />
    </linearGradient>
    <linearGradient
       id="linearGradient5835">
      <stop
         id="stop5827"
         offset="0"
         style="stop-color:#ffffff;stop-opacity:0.75294119;" />
      <stop
         style="stop-color:#ffffff;stop-opacity:0.3764706"
         offset="0.5"
         id="stop5829" />
      <stop
         id="stop5831"
         offset="0.50092071"
         style="stop-color:#ffffff;stop-opacity:0;" />
      <stop
         id="stop5833"
         offset="1"
         style="stop-color:#ffffff;stop-opacity:0;" />
    </linearGradient>
    <linearGradient
       id="linearGradient5823">
      <stop
         style="stop-color:#ffffff;stop-opacity:0.75294119;"
         offset="0"
         id="stop5815" />
      <stop
         id="stop5817"
         offset="0.5"
         style="stop-color:#ffffff;stop-opacity:0.3764706" />
      <stop
         style="stop-color:#ffffff;stop-opacity:0;"
         offset="0.59575498"
         id="stop5819" />
      <stop
         style="stop-color:#ffffff;stop-opacity:0;"
         offset="1"
         id="stop5821" />
    </linearGradient>
    <linearGradient
       id="linearGradient5811">
      <stop
         id="stop5803"
         offset="0"
         style="stop-color:#ffffff;stop-opacity:0.75294119;" />
      <stop
         style="stop-color:#ffffff;stop-opacity:0.3764706"
         offset="0.5"
         id="stop5805" />
      <stop
         id="stop5807"
         offset="0.59575498"
         style="stop-color:#ffffff;stop-opacity:0;" />
      <stop
         id="stop5809"
         offset="1"
         style="stop-color:#ffffff;stop-opacity:0;" />
    </linearGradient>
    <linearGradient
       id="linearGradient5799">
      <stop
         style="stop-color:#ffffff;stop-opacity:0.75294119;"
         offset="0"
         id="stop5791" />
      <stop
         id="stop5793"
         offset="0.5"
         style="stop-color:#ffffff;stop-opacity:0.3764706" />
      <stop
         style="stop-color:#ffffff;stop-opacity:0;"
         offset="0.59575498"
         id="stop5795" />
      <stop
         style="stop-color:#ffffff;stop-opacity:0;"
         offset="1"
         id="stop5797" />
    </linearGradient>
    <linearGradient
       id="linearGradient5787">
      <stop
         id="stop5779"
         offset="0"
         style="stop-color:#ffffff;stop-opacity:0.75294119;" />
      <stop
         style="stop-color:#ffffff;stop-opacity:0.3764706"
         offset="0.5"
         id="stop5781" />
      <stop
         id="stop5783"
         offset="0.59575498"
         style="stop-color:#ffffff;stop-opacity:0;" />
      <stop
         id="stop5785"
         offset="1"
         style="stop-color:#ffffff;stop-opacity:0;" />
    </linearGradient>
    <linearGradient
       id="linearGradient5775">
      <stop
         style="stop-color:#ffffff;stop-opacity:0.75294119;"
         offset="0"
         id="stop5767" />
      <stop
         id="stop5769"
         offset="0.5"
         style="stop-color:#ffffff;stop-opacity:0.3764706" />
      <stop
         style="stop-color:#ffffff;stop-opacity:0;"
         offset="0.59575498"
         id="stop5771" />
      <stop
         style="stop-color:#ffffff;stop-opacity:0;"
         offset="1"
         id="stop5773" />
    </linearGradient>
    <linearGradient
       id="linearGradient5763">
      <stop
         id="stop5755"
         offset="0"
         style="stop-color:#ffffff;stop-opacity:0.75294119;" />
      <stop
         style="stop-color:#ffffff;stop-opacity:0.3764706"
         offset="0.5"
         id="stop5757" />
      <stop
         id="stop5759"
         offset="0.59575498"
         style="stop-color:#ffffff;stop-opacity:0;" />
      <stop
         id="stop5761"
         offset="1"
         style="stop-color:#ffffff;stop-opacity:0;" />
    </linearGradient>
    <linearGradient
       id="linearGradient5751">
      <stop
         style="stop-color:#ffffff;stop-opacity:0.75294119;"
         offset="0"
         id="stop5743" />
      <stop
         id="stop5745"
         offset="0.5"
         style="stop-color:#ffffff;stop-opacity:0.3764706" />
      <stop
         style="stop-color:#ffffff;stop-opacity:0;"
         offset="0.59575498"
         id="stop5747" />
      <stop
         style="stop-color:#ffffff;stop-opacity:0;"
         offset="1"
         id="stop5749" />
    </linearGradient>
    <linearGradient
       id="linearGradient5739">
      <stop
         id="stop5731"
         offset="0"
         style="stop-color:#ffffff;stop-opacity:0.75294119;" />
      <stop
         style="stop-color:#ffffff;stop-opacity:0.3764706"
         offset="0.5"
         id="stop5733" />
      <stop
         id="stop5735"
         offset="0.59575498"
         style="stop-color:#ffffff;stop-opacity:0;" />
      <stop
         id="stop5737"
         offset="1"
         style="stop-color:#ffffff;stop-opacity:0;" />
    </linearGradient>
    <linearGradient
       id="linearGradient5727">
      <stop
         style="stop-color:#ffffff;stop-opacity:0.75294119;"
         offset="0"
         id="stop5719" />
      <stop
         id="stop5721"
         offset="0.5"
         style="stop-color:#ffffff;stop-opacity:0.3764706" />
      <stop
         style="stop-color:#ffffff;stop-opacity:0;"
         offset="0.59575498"
         id="stop5723" />
      <stop
         style="stop-color:#ffffff;stop-opacity:0;"
         offset="1"
         id="stop5725" />
    </linearGradient>
    <linearGradient
       id="linearGradient5715">
      <stop
         id="stop5707"
         offset="0"
         style="stop-color:#ffffff;stop-opacity:0.75294119;" />
      <stop
         style="stop-color:#ffffff;stop-opacity:0.3764706"
         offset="0.5"
         id="stop5709" />
      <stop
         id="stop5711"
         offset="0.59575498"
         style="stop-color:#ffffff;stop-opacity:0;" />
      <stop
         id="stop5713"
         offset="1"
         style="stop-color:#ffffff;stop-opacity:0;" />
    </linearGradient>
    <linearGradient
       id="linearGradient5703">
      <stop
         style="stop-color:#ffffff;stop-opacity:0.75294119;"
         offset="0"
         id="stop5695" />
      <stop
         id="stop5697"
         offset="0.5"
         style="stop-color:#ffffff;stop-opacity:0.3764706" />
      <stop
         style="stop-color:#ffffff;stop-opacity:0;"
         offset="0.59575498"
         id="stop5699" />
      <stop
         style="stop-color:#ffffff;stop-opacity:0;"
         offset="1"
         id="stop5701" />
    </linearGradient>
    <linearGradient
       id="linearGradient5691">
      <stop
         id="stop5683"
         offset="0"
         style="stop-color:#ffffff;stop-opacity:0.75294119;" />
      <stop
         style="stop-color:#ffffff;stop-opacity:0.3764706"
         offset="0.5"
         id="stop5685" />
      <stop
         id="stop5687"
         offset="0.59575498"
         style="stop-color:#ffffff;stop-opacity:0;" />
      <stop
         id="stop5689"
         offset="1"
         style="stop-color:#ffffff;stop-opacity:0;" />
    </linearGradient>
    <linearGradient
       id="linearGradient5679">
      <stop
         style="stop-color:#ffffff;stop-opacity:0.75294119;"
         offset="0"
         id="stop5671" />
      <stop
         id="stop5673"
         offset="0.5"
         style="stop-color:#ffffff;stop-opacity:0.3764706" />
      <stop
         style="stop-color:#ffffff;stop-opacity:0;"
         offset="0.59575498"
         id="stop5675" />
      <stop
         style="stop-color:#ffffff;stop-opacity:0;"
         offset="1"
         id="stop5677" />
    </linearGradient>
    <linearGradient
       id="linearGradient5667">
      <stop
         id="stop5659"
         offset="0"
         style="stop-color:#ffffff;stop-opacity:0.75294119;" />
      <stop
         style="stop-color:#ffffff;stop-opacity:0.3764706"
         offset="0.5"
         id="stop5661" />
      <stop
         id="stop5663"
         offset="0.59575498"
         style="stop-color:#ffffff;stop-opacity:0;" />
      <stop
         id="stop5665"
         offset="1"
         style="stop-color:#ffffff;stop-opacity:0;" />
    </linearGradient>
    <linearGradient
       id="linearGradient5655">
      <stop
         style="stop-color:#ffffff;stop-opacity:0.75294119;"
         offset="0"
         id="stop5647" />
      <stop
         id="stop5649"
         offset="0.5"
         style="stop-color:#ffffff;stop-opacity:0.3764706" />
      <stop
         style="stop-color:#ffffff;stop-opacity:0;"
         offset="0.59575498"
         id="stop5651" />
      <stop
         style="stop-color:#ffffff;stop-opacity:0;"
         offset="1"
         id="stop5653" />
    </linearGradient>
    <linearGradient
       id="linearGradient5643">
      <stop
         id="stop5635"
         offset="0"
         style="stop-color:#ffffff;stop-opacity:0.75294119;" />
      <stop
         style="stop-color:#ffffff;stop-opacity:0.3764706"
         offset="0.5"
         id="stop5637" />
      <stop
         id="stop5639"
         offset="0.59575498"
         style="stop-color:#ffffff;stop-opacity:0;" />
      <stop
         id="stop5641"
         offset="1"
         style="stop-color:#ffffff;stop-opacity:0;" />
    </linearGradient>
    <linearGradient
       id="linearGradient5631">
      <stop
         style="stop-color:#ffffff;stop-opacity:0.75294119;"
         offset="0"
         id="stop5623" />
      <stop
         id="stop5625"
         offset="0.5"
         style="stop-color:#ffffff;stop-opacity:0.3764706" />
      <stop
         style="stop-color:#ffffff;stop-opacity:0;"
         offset="0.59575498"
         id="stop5627" />
      <stop
         style="stop-color:#ffffff;stop-opacity:0;"
         offset="1"
         id="stop5629" />
    </linearGradient>
    <linearGradient
       id="linearGradient5619">
      <stop
         id="stop5611"
         offset="0"
         style="stop-color:#ffffff;stop-opacity:0.75294119;" />
      <stop
         style="stop-color:#ffffff;stop-opacity:0.3764706"
         offset="0.5"
         id="stop5613" />
      <stop
         id="stop5615"
         offset="0.59575498"
         style="stop-color:#ffffff;stop-opacity:0;" />
      <stop
         id="stop5617"
         offset="1"
         style="stop-color:#ffffff;stop-opacity:0;" />
    </linearGradient>
    <linearGradient
       id="linearGradient5607">
      <stop
         style="stop-color:#ffffff;stop-opacity:0.75294119;"
         offset="0"
         id="stop5599" />
      <stop
         id="stop5601"
         offset="0.5"
         style="stop-color:#ffffff;stop-opacity:0.3764706" />
      <stop
         style="stop-color:#ffffff;stop-opacity:0;"
         offset="0.59575498"
         id="stop5603" />
      <stop
         style="stop-color:#ffffff;stop-opacity:0;"
         offset="1"
         id="stop5605" />
    </linearGradient>
    <linearGradient
       id="linearGradient5595">
      <stop
         id="stop5587"
         offset="0"
         style="stop-color:#ffffff;stop-opacity:0.75294119;" />
      <stop
         style="stop-color:#ffffff;stop-opacity:0.25098041;"
         offset="0.5"
         id="stop5589" />
      <stop
         id="stop5591"
         offset="0.5"
         style="stop-color:#ffffff;stop-opacity:0;" />
      <stop
         id="stop5593"
         offset="1"
         style="stop-color:#ffffff;stop-opacity:0;" />
    </linearGradient>
    <linearGradient
       id="linearGradient5583">
      <stop
         style="stop-color:#ffffff;stop-opacity:0.75294119;"
         offset="0"
         id="stop5575" />
      <stop
         id="stop5577"
         offset="0.5"
         style="stop-color:#ffffff;stop-opacity:0.25098041;" />
      <stop
         style="stop-color:#ffffff;stop-opacity:0;"
         offset="0.5"
         id="stop5579" />
      <stop
         style="stop-color:#ffffff;stop-opacity:0;"
         offset="1"
         id="stop5581" />
    </linearGradient>
    <linearGradient
       id="linearGradient5571">
      <stop
         id="stop5563"
         offset="0"
         style="stop-color:#ffffff;stop-opacity:0.75294119;" />
      <stop
         style="stop-color:#ffffff;stop-opacity:0.25098041;"
         offset="0.5"
         id="stop5565" />
      <stop
         id="stop5567"
         offset="0.5"
         style="stop-color:#ffffff;stop-opacity:0;" />
      <stop
         id="stop5569"
         offset="1"
         style="stop-color:#ffffff;stop-opacity:0;" />
    </linearGradient>
    <linearGradient
       id="linearGradient5559">
      <stop
         style="stop-color:#ffffff;stop-opacity:0.75294119;"
         offset="0"
         id="stop5551" />
      <stop
         id="stop5553"
         offset="0.5"
         style="stop-color:#ffffff;stop-opacity:0.25098041;" />
      <stop
         style="stop-color:#ffffff;stop-opacity:0;"
         offset="0.5"
         id="stop5555" />
      <stop
         style="stop-color:#ffffff;stop-opacity:0;"
         offset="1"
         id="stop5557" />
    </linearGradient>
    <linearGradient
       id="linearGradient5547">
      <stop
         id="stop5539"
         offset="0"
         style="stop-color:#ffffff;stop-opacity:0.75294119;" />
      <stop
         style="stop-color:#ffffff;stop-opacity:0.25098041;"
         offset="0.5"
         id="stop5541" />
      <stop
         id="stop5543"
         offset="0.5"
         style="stop-color:#ffffff;stop-opacity:0;" />
      <stop
         id="stop5545"
         offset="1"
         style="stop-color:#ffffff;stop-opacity:0;" />
    </linearGradient>
    <linearGradient
       id="linearGradient5535">
      <stop
         style="stop-color:#ffffff;stop-opacity:0.75294119;"
         offset="0"
         id="stop5527" />
      <stop
         id="stop5529"
         offset="0.5"
         style="stop-color:#ffffff;stop-opacity:0.25098041;" />
      <stop
         style="stop-color:#ffffff;stop-opacity:0;"
         offset="0.5"
         id="stop5531" />
      <stop
         style="stop-color:#ffffff;stop-opacity:0;"
         offset="1"
         id="stop5533" />
    </linearGradient>
    <linearGradient
       id="linearGradient5523">
      <stop
         id="stop5515"
         offset="0"
         style="stop-color:#ffffff;stop-opacity:0.75294119;" />
      <stop
         style="stop-color:#ffffff;stop-opacity:0.25098041;"
         offset="0.5"
         id="stop5517" />
      <stop
         id="stop5519"
         offset="0.5"
         style="stop-color:#ffffff;stop-opacity:0;" />
      <stop
         id="stop5521"
         offset="1"
         style="stop-color:#ffffff;stop-opacity:0;" />
    </linearGradient>
    <linearGradient
       id="linearGradient5511">
      <stop
         style="stop-color:#ffffff;stop-opacity:0.75294119;"
         offset="0"
         id="stop5503" />
      <stop
         id="stop5505"
         offset="0.5"
         style="stop-color:#ffffff;stop-opacity:0.25098041;" />
      <stop
         style="stop-color:#ffffff;stop-opacity:0;"
         offset="0.5"
         id="stop5507" />
      <stop
         style="stop-color:#ffffff;stop-opacity:0;"
         offset="1"
         id="stop5509" />
    </linearGradient>
    <linearGradient
       id="linearGradient5499">
      <stop
         id="stop5491"
         offset="0"
         style="stop-color:#ffffff;stop-opacity:0.75294119;" />
      <stop
         style="stop-color:#ffffff;stop-opacity:0.25098041;"
         offset="0.5"
         id="stop5493" />
      <stop
         id="stop5495"
         offset="0.5"
         style="stop-color:#ffffff;stop-opacity:0;" />
      <stop
         id="stop5497"
         offset="1"
         style="stop-color:#ffffff;stop-opacity:0;" />
    </linearGradient>
    <linearGradient
       id="linearGradient5487">
      <stop
         style="stop-color:#ffffff;stop-opacity:0.75294119;"
         offset="0"
         id="stop5479" />
      <stop
         id="stop5481"
         offset="0.5"
         style="stop-color:#ffffff;stop-opacity:0.25098041;" />
      <stop
         style="stop-color:#ffffff;stop-opacity:0;"
         offset="0.5"
         id="stop5483" />
      <stop
         style="stop-color:#ffffff;stop-opacity:0;"
         offset="1"
         id="stop5485" />
    </linearGradient>
    <linearGradient
       id="linearGradient5475">
      <stop
         id="stop5467"
         offset="0"
         style="stop-color:#ffffff;stop-opacity:0.75294119;" />
      <stop
         style="stop-color:#ffffff;stop-opacity:0.25098041;"
         offset="0.5"
         id="stop5469" />
      <stop
         id="stop5471"
         offset="0.5"
         style="stop-color:#ffffff;stop-opacity:0;" />
      <stop
         id="stop5473"
         offset="1"
         style="stop-color:#ffffff;stop-opacity:0;" />
    </linearGradient>
    <linearGradient
       id="linearGradient5463">
      <stop
         style="stop-color:#ffffff;stop-opacity:0.75294119;"
         offset="0"
         id="stop5455" />
      <stop
         id="stop5457"
         offset="0.5"
         style="stop-color:#ffffff;stop-opacity:0.25098041;" />
      <stop
         style="stop-color:#ffffff;stop-opacity:0;"
         offset="0.5"
         id="stop5459" />
      <stop
         style="stop-color:#ffffff;stop-opacity:0;"
         offset="1"
         id="stop5461" />
    </linearGradient>
    <linearGradient
       id="linearGradient5451">
      <stop
         id="stop5443"
         offset="0"
         style="stop-color:#ffffff;stop-opacity:0.75294119;" />
      <stop
         style="stop-color:#ffffff;stop-opacity:0.25098041;"
         offset="0.5"
         id="stop5445" />
      <stop
         id="stop5447"
         offset="0.5"
         style="stop-color:#ffffff;stop-opacity:0;" />
      <stop
         id="stop5449"
         offset="1"
         style="stop-color:#ffffff;stop-opacity:0;" />
    </linearGradient>
    <linearGradient
       id="linearGradient5439">
      <stop
         style="stop-color:#ffffff;stop-opacity:0.75294119;"
         offset="0"
         id="stop5431" />
      <stop
         id="stop5433"
         offset="0.5"
         style="stop-color:#ffffff;stop-opacity:0.25098041;" />
      <stop
         style="stop-color:#ffffff;stop-opacity:0;"
         offset="0.5"
         id="stop5435" />
      <stop
         style="stop-color:#ffffff;stop-opacity:0;"
         offset="1"
         id="stop5437" />
    </linearGradient>
    <linearGradient
       id="linearGradient5427">
      <stop
         id="stop5419"
         offset="0"
         style="stop-color:#ffffff;stop-opacity:0.75294119;" />
      <stop
         style="stop-color:#ffffff;stop-opacity:0.25098041;"
         offset="0.5"
         id="stop5421" />
      <stop
         id="stop5423"
         offset="0.5"
         style="stop-color:#ffffff;stop-opacity:0;" />
      <stop
         id="stop5425"
         offset="1"
         style="stop-color:#ffffff;stop-opacity:0;" />
    </linearGradient>
    <linearGradient
       id="linearGradient5415">
      <stop
         style="stop-color:#ffffff;stop-opacity:0.75294119;"
         offset="0"
         id="stop5407" />
      <stop
         id="stop5409"
         offset="0.5"
         style="stop-color:#ffffff;stop-opacity:0.25098041;" />
      <stop
         style="stop-color:#ffffff;stop-opacity:0;"
         offset="0.5"
         id="stop5411" />
      <stop
         style="stop-color:#ffffff;stop-opacity:0;"
         offset="1"
         id="stop5413" />
    </linearGradient>
    <linearGradient
       id="linearGradient5403">
      <stop
         id="stop5395"
         offset="0"
         style="stop-color:#ffffff;stop-opacity:0.75294119;" />
      <stop
         style="stop-color:#ffffff;stop-opacity:0.25098041;"
         offset="0.5"
         id="stop5397" />
      <stop
         id="stop5399"
         offset="0.5"
         style="stop-color:#ffffff;stop-opacity:0;" />
      <stop
         id="stop5401"
         offset="1"
         style="stop-color:#ffffff;stop-opacity:0;" />
    </linearGradient>
    <linearGradient
       id="linearGradient4347-9">
      <stop
         style="stop-color:#ffffff;stop-opacity:0.1882353"
         offset="0"
         id="stop4349-9" />
      <stop
         id="stop4355-8"
         offset="0.24999999"
         style="stop-color:#ffffff;stop-opacity:0.25098041;" />
      <stop
         style="stop-color:#ffffff;stop-opacity:0;"
         offset="0.42857137"
         id="stop4444" />
      <stop
         style="stop-color:#ffffff;stop-opacity:0;"
         offset="1"
         id="stop4351-0" />
    </linearGradient>
    <linearGradient
       inkscape:collect="always"
       xlink:href="#linearGradient5403"
       id="linearGradient4920"
       x1="1"
       y1="4.9999976"
       x2="10"
       y2="10.999997"
       gradientUnits="userSpaceOnUse" />
    <linearGradient
       inkscape:collect="always"
       xlink:href="#linearGradient4347-9"
       id="linearGradient4949"
       x1="1"
       y1="16.999998"
       x2="10"
       y2="22.999998"
       gradientUnits="userSpaceOnUse" />
  </defs>
  <sodipodi:namedview
     id="base"
     pagecolor="#808080"
     bordercolor="#666666"
     borderopacity="1.0"
     inkscape:pageopacity="0"
     inkscape:pageshadow="2"
     inkscape:zoom="12.49222"
     inkscape:cx="-15.127081"
     inkscape:cy="-3.7633381"
     inkscape:document-units="mm"
     inkscape:current-layer="layer1"
     showgrid="true"
     units="px"
     showguides="false"
     inkscape:window-width="1920"
     inkscape:window-height="1020"
     inkscape:window-x="0"
     inkscape:window-y="0"
     inkscape:window-maximized="1"
     inkscape:snap-nodes="true"
     inkscape:snap-bbox="true"
     inkscape:bbox-nodes="true"
     inkscape:bbox-paths="true"
     fit-margin-top="0"
     fit-margin-left="0"
     fit-margin-right="0"
     fit-margin-bottom="0"
     inkscape:snap-intersection-paths="true"
     inkscape:snap-smooth-nodes="true">
    <inkscape:grid
       type="xygrid"
       id="grid5232"
       empspacing="4"
       originx="0"
       originy="-9.5249993" />
    <sodipodi:guide
       position="-8.9958327,5.2916683"
       orientation="1,0"
       id="guide5243"
       inkscape:locked="false" />
  </sodipodi:namedview>
  <metadata
     id="metadata4684">
    <rdf:RDF>
      <cc:Work
         rdf:about="">
        <dc:format>image/svg+xml</dc:format>
        <dc:type
           rdf:resource="http://purl.org/dc/dcmitype/StillImage" />
        <dc:title />
      </cc:Work>
    </rdf:RDF>
  </metadata>
  <g
     inkscape:groupmode="layer"
     id="layer2"
     inkscape:label="bg"
     transform="translate(0,-3.9064211e-6)"
     sodipodi:insensitive="true">
    <rect
       style="color:#000000;display:inline;overflow:visible;visibility:visible;opacity:1;vector-effect:none;fill:#000000;fill-opacity:1;fill-rule:nonzero;stroke:none;stroke-width:1.71420014;stroke-linecap:square;stroke-linejoin:miter;stroke-miterlimit:4;stroke-dasharray:none;stroke-dashoffset:0;stroke-opacity:1;marker:none;paint-order:stroke markers fill;enable-background:accumulate"
       id="rect5245"
       width="3.175"
       height="6.3500037"
       x="0"
       y="0" />
  </g>
  <g
     inkscape:label="icons"
     inkscape:groupmode="layer"
     id="layer1"
     transform="translate(0,-281.12498)">
    <path
       style="fill:#20ff00;fill-opacity:1;fill-rule:evenodd;stroke:none;stroke-width:0.99999994px;stroke-linecap:butt;stroke-linejoin:miter;stroke-opacity:1"
       d="M 1,4.9999974 V 8.9999975 C 1,10.490718 4.3333334,12 6,12 7.6666666,12 11,10.490718 11,8.9999975 V 4.9999974 Z M 6.5,6.5 c 0.5522848,0 1,0.4477152 1,1 C 7.4997176,7.856983 7.3091565,8.186743 7,8.3652344 V 10 H 5.5 L 6.2636719,8.4707031 C 5.8158367,8.3617819 5.5004472,7.9608904 5.5,7.5 c 0,-0.5522848 0.4477152,-1 1,-1 z"
       transform="matrix(0.26458333,0,0,0.26458333,0,281.12498)"
       id="path4716"
       inkscape:connector-curvature="0"
       sodipodi:nodetypes="csssccsccccccs" />
    <path
       inkscape:connector-curvature="0"
       style="fill:#ff2000;fill-opacity:1;fill-rule:evenodd;stroke:none;stroke-width:0.26458332px;stroke-linecap:butt;stroke-linejoin:miter;stroke-opacity:1"
       d="m 0.26458333,285.6229 v 1.05833 c 0,0.39442 0.88194447,0.79375 1.32291667,0.79375 0.4409722,0 1.4185779,-0.41111 1.3229167,-0.79375 v -1.05833 z m 1.45520837,0.39688 c 0.146124,0 0.2645815,0.11846 0.2645833,0.26458 -7.71e-5,0.0944 -0.050496,0.1817 -0.1322916,0.22892 v 0.43254 H 1.4552083 l 0.2020549,-0.40463 c -0.1184891,-0.0288 -0.2019357,-0.13489 -0.2020549,-0.25683 1.8e-6,-0.14612 0.1184593,-0.26458 0.2645834,-0.26458 z"
       id="path4716-3"
       sodipodi:nodetypes="csssccsccccccs" />
    <path
       style="fill:none;fill-rule:evenodd;stroke:#20ff00;stroke-width:0.5291667;stroke-linecap:butt;stroke-linejoin:miter;stroke-miterlimit:4;stroke-dasharray:none;stroke-opacity:1"
       d="m 1.0583333,282.4479 v -0.52917 c 0,-0.27889 0.2797145,-0.52917 0.5291667,-0.52917 0.2494522,0 0.5291667,0.25028 0.5291667,0.52917 v 0.26458"
       id="path4876"
       inkscape:connector-curvature="0"
       sodipodi:nodetypes="csasc" />
    <path
       style="fill:none;fill-rule:evenodd;stroke:#ff2000;stroke-width:0.52916676;stroke-linecap:butt;stroke-linejoin:miter;stroke-miterlimit:4;stroke-dasharray:none;stroke-opacity:1"
       d="m 1.0583333,285.6229 v -0.26459 c 0,-0.27889 0.2797138,-0.52917 0.5291668,-0.52917 0.2494529,0 0.5291666,0.25028 0.5291666,0.52917 v 0.26459"
       id="path4876-2"
       inkscape:connector-curvature="0"
       sodipodi:nodetypes="csasc" />
    <path
       style="fill:url(#linearGradient4949);fill-opacity:1;fill-rule:evenodd;stroke:none;stroke-width:0.99999994px;stroke-linecap:butt;stroke-linejoin:miter;stroke-opacity:1"
       d="M 6.0019531 13 C 5.1961076 13 4.4911633 13.362511 3.9492188 13.884766 C 3.407274 14.406983 2.9960938 15.134739 2.9960938 15.996094 L 2.9960938 17 L 1 17 L 1 21 C 1 22.490721 4.3333334 24 6 24 C 7.6666666 24 11.361554 22.446198 11 21 L 11 17 L 8.9980469 17 L 8.9980469 15.996094 C 8.9980469 15.134739 8.5888196 14.406983 8.046875 13.884766 C 7.5049308 13.362548 6.8078009 13 6.0019531 13 z M 6.0019531 15 C 6.1389232 15 6.4358513 15.10992 6.6582031 15.324219 C 6.8805565 15.538518 6.9980469 15.803376 6.9980469 15.996094 L 6.9980469 17 L 4.9980469 17 L 4.9980469 15.996094 C 4.9980469 15.803338 5.1155372 15.53848 5.3378906 15.324219 C 5.560244 15.10992 5.8649846 15 6.0019531 15 z M 6.5 18.5 C 7.0522797 18.5 7.4999932 18.947735 7.5 19.5 C 7.4997086 19.856787 7.3091487 20.186765 7 20.365234 L 7 22 L 5.5 22 L 6.2636719 20.470703 C 5.8158391 20.361853 5.5004505 19.960876 5.5 19.5 C 5.5000068 18.947735 5.9477199 18.5 6.5 18.5 z "
       id="path4716-3-93"
       transform="matrix(0.26458333,0,0,0.26458333,0,281.12498)" />
  </g>
  <g
     inkscape:groupmode="layer"
     id="layer3"
     inkscape:label="gloss">
    <path
       style="fill:url(#linearGradient4920);fill-opacity:1;fill-rule:evenodd;stroke:none;stroke-width:0.99999994px;stroke-linecap:butt;stroke-linejoin:miter;stroke-opacity:1"
       d="M 6.0019531 0 C 5.196108 0 4.4911633 0.36449273 3.9492188 0.88671875 C 3.4072739 1.4089448 2.9960938 2.1347387 2.9960938 2.9960938 L 2.9960938 4.9980469 L 4.9980469 4.9980469 L 4.9980469 2.9960938 C 4.9980469 2.8033764 5.1155372 2.540434 5.3378906 2.3261719 C 5.560244 2.1119097 5.8649868 2 6.0019531 2 C 6.1389194 2 6.4358505 2.1119097 6.6582031 2.3261719 C 6.8805565 2.540434 6.9980469 2.8033763 6.9980469 2.9960938 L 6.9980469 4.0019531 L 8.9980469 4.0019531 L 8.9980469 2.9960938 C 8.9980469 2.1347387 8.5888199 1.4089448 8.046875 0.88671875 C 7.5049304 0.36449273 6.8077983 0 6.0019531 0 z M 1 5 L 1 9 C 1 10.490721 4.3333334 12 6 12 C 7.6666666 12 11 10.490721 11 9 L 11 5 L 1 5 z M 6.5 6.5 C 7.052285 6.5 7.5 6.9477154 7.5 7.5 C 7.4997173 7.8569839 7.3091567 8.1867432 7 8.3652344 L 7 10 L 5.5 10 L 6.2636719 8.4707031 C 5.8158364 8.3617817 5.5004471 7.9608903 5.5 7.5 C 5.5 6.9477154 5.9477154 6.5 6.5 6.5 z "
       id="path4716-7"
       transform="scale(0.26458333)" />
  </g>
</svg>
