<?xml version="1.0" encoding="UTF-8" standalone="no"?>
<!-- Created with Inkscape (http://www.inkscape.org/) -->

<svg
   xmlns:dc="http://purl.org/dc/elements/1.1/"
   xmlns:cc="http://creativecommons.org/ns#"
   xmlns:rdf="http://www.w3.org/1999/02/22-rdf-syntax-ns#"
   xmlns:svg="http://www.w3.org/2000/svg"
   xmlns="http://www.w3.org/2000/svg"
   xmlns:xlink="http://www.w3.org/1999/xlink"
   xmlns:sodipodi="http://sodipodi.sourceforge.net/DTD/sodipodi-0.dtd"
   xmlns:inkscape="http://www.inkscape.org/namespaces/inkscape"
   width="170"
   height="10"
   id="svg3810"
   version="1.1"
   inkscape:version="0.48.1 r9760"
   sodipodi:docname="pb-bg.svg"
   inkscape:export-filename="/home/tcrass/devlp/rockbox/themes/cyan/pb-bg.png"
   inkscape:export-xdpi="90"
   inkscape:export-ydpi="90">
  <defs
     id="defs3812">
    <linearGradient
       id="linearGradient4347">
      <stop
         style="stop-color:#20ff00;stop-opacity:1;"
         offset="0"
         id="stop4349" />
      <stop
         id="stop4355"
         offset="0.5"
         style="stop-color:#ffc000;stop-opacity:1;" />
      <stop
         style="stop-color:#ff2000;stop-opacity:1;"
         offset="1"
         id="stop4351" />
    </linearGradient>
    <linearGradient
       inkscape:collect="always"
       xlink:href="#linearGradient3772"
       id="linearGradient3790"
       x1="4.1798797"
       y1="191.87091"
       x2="4.1798797"
       y2="200.34918"
       gradientUnits="userSpaceOnUse"
       gradientTransform="matrix(7.9667368,0,0,1.1422494,-30.300001,-27.064103)" />
    <linearGradient
       id="linearGradient3772">
      <stop
         style="stop-color:#202020;stop-opacity:1;"
         offset="0"
         id="stop3774" />
      <stop
         id="stop3780"
         offset="0.5"
         style="stop-color:#000000;stop-opacity:1;" />
      <stop
         style="stop-color:#e0e0e0;stop-opacity:1;"
         offset="1"
         id="stop3776" />
    </linearGradient>
    <linearGradient
       y2="200.34918"
       x2="4.1798797"
       y1="191.87091"
       x1="4.1798797"
       gradientTransform="matrix(7.9667368,0,0,1.1422494,578.84286,76.869491)"
       gradientUnits="userSpaceOnUse"
       id="linearGradient3808"
       xlink:href="#linearGradient3772"
       inkscape:collect="always" />
    <linearGradient
       inkscape:collect="always"
       xlink:href="#linearGradient4347"
       id="linearGradient4353"
       x1="612.14288"
       y1="300.93362"
       x2="782.14288"
       y2="300.93362"
       gradientUnits="userSpaceOnUse" />
    <linearGradient
       inkscape:collect="always"
       xlink:href="#linearGradient4347-8"
       id="linearGradient4353-6"
       x1="612.14288"
       y1="300.93362"
       x2="782.14288"
       y2="300.93362"
       gradientUnits="userSpaceOnUse" />
    <linearGradient
       id="linearGradient4347-8">
      <stop
         style="stop-color:#60ff00;stop-opacity:1;"
         offset="0"
         id="stop4349-1" />
      <stop
         id="stop4355-3"
         offset="0.5"
         style="stop-color:#ffc000;stop-opacity:1;" />
      <stop
         style="stop-color:#ff2000;stop-opacity:1;"
         offset="1"
         id="stop4351-6" />
    </linearGradient>
    <linearGradient
       y2="200.34918"
       x2="4.1798797"
       y1="191.87091"
       x1="4.1798797"
       gradientTransform="matrix(7.9667368,0,0,1.1422494,578.84286,76.869491)"
       gradientUnits="userSpaceOnUse"
       id="linearGradient3808-4"
       xlink:href="#linearGradient3772-0"
       inkscape:collect="always" />
    <linearGradient
       id="linearGradient3772-0">
      <stop
         style="stop-color:#202020;stop-opacity:1;"
         offset="0"
         id="stop3774-3" />
      <stop
         id="stop3780-5"
         offset="0.5"
         style="stop-color:#000000;stop-opacity:1;" />
      <stop
         style="stop-color:#e0e0e0;stop-opacity:1;"
         offset="1"
         id="stop3776-8" />
    </linearGradient>
    <linearGradient
       gradientTransform="translate(-39.999997,45.000004)"
       y2="300.93362"
       x2="782.14288"
       y1="300.93362"
       x1="612.14288"
       gradientUnits="userSpaceOnUse"
       id="linearGradient4378"
       xlink:href="#linearGradient4347-8"
       inkscape:collect="always" />
    <linearGradient
       y2="200.34918"
       x2="4.1798797"
       y1="191.87091"
       x1="4.1798797"
       gradientTransform="matrix(7.9667368,0,0,1.1422494,538.84286,121.86949)"
       gradientUnits="userSpaceOnUse"
       id="linearGradient4380"
       xlink:href="#linearGradient3772-0"
       inkscape:collect="always" />
    <linearGradient
       inkscape:collect="always"
       xlink:href="#linearGradient4347-9"
       id="linearGradient4353-0"
       x1="612.14288"
       y1="300.93362"
       x2="782.14288"
       y2="300.93362"
       gradientUnits="userSpaceOnUse" />
    <linearGradient
       id="linearGradient4347-9">
      <stop
         style="stop-color:#ffffff;stop-opacity:0.75294119;"
         offset="0"
         id="stop4349-9" />
      <stop
         id="stop4355-8"
         offset="0.5"
         style="stop-color:#ffffff;stop-opacity:0.25098041;" />
      <stop
         style="stop-color:#ffffff;stop-opacity:0;"
         offset="0.5"
         id="stop4444" />
      <stop
         style="stop-color:#ffffff;stop-opacity:0;"
         offset="1"
         id="stop4351-0" />
    </linearGradient>
    <linearGradient
       y2="200.34918"
       x2="4.1798797"
       y1="191.87091"
       x1="4.1798797"
       gradientTransform="matrix(7.9667368,0,0,1.1422494,578.84286,76.869491)"
       gradientUnits="userSpaceOnUse"
       id="linearGradient3808-2"
       xlink:href="#linearGradient3772-4"
       inkscape:collect="always" />
    <linearGradient
       id="linearGradient3772-4">
      <stop
         style="stop-color:#202020;stop-opacity:1;"
         offset="0"
         id="stop3774-9" />
      <stop
         id="stop3780-0"
         offset="0.5"
         style="stop-color:#000000;stop-opacity:1;" />
      <stop
         style="stop-color:#e0e0e0;stop-opacity:1;"
         offset="1"
         id="stop3776-1" />
    </linearGradient>
    <linearGradient
       gradientTransform="translate(3.3e-6,4e-6)"
       y2="305.9375"
       x2="612.15625"
       y1="295.9375"
       x1="612.15625"
       gradientUnits="userSpaceOnUse"
       id="linearGradient4378-2"
       xlink:href="#linearGradient4347-9"
       inkscape:collect="always" />
    <linearGradient
       inkscape:collect="always"
       xlink:href="#linearGradient4347-0"
       id="linearGradient4353-9"
       x1="612.14288"
       y1="300.93362"
       x2="782.14288"
       y2="300.93362"
       gradientUnits="userSpaceOnUse" />
    <linearGradient
       id="linearGradient4347-0">
      <stop
         style="stop-color:#60ff00;stop-opacity:1;"
         offset="0"
         id="stop4349-8" />
      <stop
         id="stop4355-38"
         offset="0.5"
         style="stop-color:#ffc000;stop-opacity:1;" />
      <stop
         style="stop-color:#ff2000;stop-opacity:1;"
         offset="1"
         id="stop4351-7" />
    </linearGradient>
    <linearGradient
       y2="200.34918"
       x2="4.1798797"
       y1="191.87091"
       x1="4.1798797"
       gradientTransform="matrix(7.9667368,0,0,1.1422494,578.84286,76.869491)"
       gradientUnits="userSpaceOnUse"
       id="linearGradient3808-3"
       xlink:href="#linearGradient3772-1"
       inkscape:collect="always" />
    <linearGradient
       id="linearGradient3772-1">
      <stop
         style="stop-color:#404040;stop-opacity:1;"
         offset="0"
         id="stop3774-0" />
      <stop
         id="stop3780-05"
         offset="0.5"
         style="stop-color:#000000;stop-opacity:1;" />
      <stop
         style="stop-color:#e0e0e0;stop-opacity:1;"
         offset="1"
         id="stop3776-0" />
    </linearGradient>
    <linearGradient
       y2="200.34918"
       x2="4.1798797"
       y1="191.87091"
       x1="4.1798797"
       gradientTransform="matrix(7.9667368,0,0,1.1422494,578.84286,76.869494)"
       gradientUnits="userSpaceOnUse"
       id="linearGradient4479"
       xlink:href="#linearGradient3772-1"
       inkscape:collect="always" />
    <linearGradient
       inkscape:collect="always"
       xlink:href="#linearGradient4347-9"
       id="linearGradient3070"
       gradientUnits="userSpaceOnUse"
       gradientTransform="translate(3.3e-6,4e-6)"
       x1="612.15625"
       y1="295.9375"
       x2="612.15625"
       y2="305.9375" />
  </defs>
  <sodipodi:namedview
     id="base"
     pagecolor="#000000"
     bordercolor="#666666"
     borderopacity="1.0"
     inkscape:pageopacity="1"
     inkscape:pageshadow="2"
     inkscape:zoom="9.0941176"
     inkscape:cx="85"
     inkscape:cy="5"
     inkscape:document-units="px"
     inkscape:current-layer="layer1"
     showgrid="true"
     fit-margin-top="0"
     fit-margin-left="0"
     fit-margin-right="0"
     fit-margin-bottom="0"
     inkscape:window-width="1672"
     inkscape:window-height="985"
     inkscape:window-x="0"
     inkscape:window-y="0"
     inkscape:window-maximized="1">
    <inkscape:grid
       type="xygrid"
       id="grid3837"
       empspacing="1"
       visible="true"
       enabled="true"
       snapvisiblegridlinesonly="true" />
  </sodipodi:namedview>
  <metadata
     id="metadata3815">
    <rdf:RDF>
      <cc:Work
         rdf:about="">
        <dc:format>image/svg+xml</dc:format>
        <dc:type
           rdf:resource="http://purl.org/dc/dcmitype/StillImage" />
        <dc:title></dc:title>
      </cc:Work>
    </rdf:RDF>
  </metadata>
  <g
     inkscape:label="Layer 1"
     inkscape:groupmode="layer"
     id="layer1"
     transform="translate(-612.15625,-295.9375)">
    <rect
       style="fill:url(#linearGradient3070);fill-opacity:1;stroke:none;display:inline"
       id="rect3782-0"
       width="169"
       height="9"
       x="612.64288"
       y="296.43362"
       rx="2.020838"
       ry="2.2844989" />
    <rect
       style="fill:none;fill-opacity:1;stroke:url(#linearGradient4479);stroke-width:1;display:inline"
       id="rect3782-3"
       width="169"
       height="9"
       x="612.64288"
       y="296.43362"
       rx="2.020838"
       ry="2.2844989" />
  </g>
</svg>
